token	tag	token anonymisé	EN	verif	Tag corrigé	Notes / remarques
<META>	META	<META>			
					
Salut	I	Salut			
					
</META>	META	</META>			
					
J'	CLS-SUJ	J'			
ai	V	ai			
30	DET	30			
ans	NC	ans			
					
j'	CLS-SUJ	j'			
ai	V	ai			
commencé	VPP	commencé			
la	DET	la			
coke	NC	coke			
a	P	a			
20	DET	20			
ans	NC	ans			
,	PONCT	,			
					
j'	CLS-SUJ	j'			
ai	V	ai			
jamais	ADV	jamais			
pris	VPP	pris			
tout	ADJ	tout			
les	DET	les			
jours	NC	jours			
n'	ADV-MOD	n'			
y	CLO-A_OBJ	y			
etais	V	etais			
super	ADV	super			
accro	ADJ	accro			
					
j	CLS-SUJ	j			
en	CLO-OBJ	en			
prenais	V	prenais			
1	DET	1			
ou	CC	ou			
2	DET	2			
fois	NC	fois			
par	P	par			
mois	NC	mois			
max	NC	max			
,	PONCT	,			
Mais	CC	Mais			
depuis	P	depuis			
6	DET	6			
mois	NC	mois			
environ	ADV	environ			
voir	CC	voir			
1	DET	1			
ans	NC	ans			
j'	CLS-SUJ	j'			
arrive	V	arrive			
pu	ADV-MOD	pu			
a	P	a			
me	CLO-OBJ	me			
controlé	VINF	controlé			
quand	CS	quand			
je	CLS-SUJ	je			
boit	V	boit			
de	YM	de			
l'	DET	l'			
alcool	NC	alcool			
.	PONCT	.			
					
Meme	ADV	Meme			
si	CS	si			
avant	ADV-MOD	avant			
je	CLS-SUJ	je			
me	CLO-A_OBJ	me			
proméT	V	proméT			
de	P	de			
pas	ADV-MOD	pas			
aller	VINF	aller			
chercher	VINF	chercher			
de	YM	de			
LA	DET	LA			
shnouf	NC	shnouf			
,	PONCT	,			
aprés	P	aprés			
2ou	DET+CC	2ou			
0	-NONE-	0			
3	DET	3			
verre	NC	verre			
je	CLS-SUJ	je			
commence	V	commence			
a	P	a			
etre	VINF	etre			
chaud	ADJ	chaud			
et	CC	et			
je	CLS-SUJ	je			
me	CLO-A_OBJ	me			
dit	V	dit			
"	PONCT	"			
allez	VIMP	allez			
on	CLS-SUJ	on			
a	V	a			
qu'	ADV	qu'			
une	DET	une			
vie	NC	vie			
'	PONCT	'			
c'	CLS-SUJ	c'			
est	V	est			
partiiii	VPP	partiiii			
"	PONCT	"			
et	CC	et			
impossible	ADJ	impossible			
a	P	a			
me	CLO-OBJ	me			
controlé	VINF	controlé			
trop	ADV	trop			
envie	NC	envie			
d'	P	d'			
en	CLO-OBJ	en			
prendre	VINF	prendre			
					
Alors	ADV-MOD	Alors			
voila	V	voila			
je	CLS-SUJ	je			
sais	V	sais			
que	CS	que			
le	DET	le			
probleme	NC	probleme			
c'	CLS-SUJ	c'			
est	V	est			
l'	DET	l'			
alcool	NC	alcool			
a	P	a			
la	DET	la			
base	NC	base			
mais	CC	mais			
c'	CLS-SUJ	c'			
est	V	est			
cazy	ADV	cazy			
impossible	ADJ	impossible			
a	P	a			
arreté	VINF	arreté			
en	P	en			
famille	NC	famille			
entre	P	entre			
amis	NC	amis			
pour	P	pour			
l'	DET	l'			
apero	NC	apero			
ect	ADV-MOD	ect			
					
Quelqu'_un	PRO	Quelqu'_un			
a	V	a			
t	YM	t			
il	CLS-SUJ	il			
ce	DET	ce			
probleme	NC	probleme			
?	PONCT	?			
					
Merci	I	Merci			
					
<META>	META	<META>			
					
<date>	META	<date>			
					
</META>	META	</META>			
					
arrête	VIMP	arrête			
de	P	de			
boire	VINF	boire			
et	CC	et			
le	DET	le			
soucis	NC	soucis			
sera	V	sera			
réglé	VPP	réglé			
					
il	CLS-SUJ	il			
faut	V	faut			
parfois	ADV	parfois			
se	CLO-A_OBJ	se			
faire	VINF	faire			
violence	NC	violence			
pour	P	pour			
arrêter	VINF	arrêter			
...	PONCT	...			
					
<META>	META	<META>			
					
tu	CLS-SUJ	tu			
en	CLO-DE_OBJ	en			
as	V	as			
au_moins	ADV	au_moins			
parlé	VPP	parlé			
à	P	à			
ton	DET	ton			
doc	NC	doc			
de	P	de			
famille	NC	famille			
?	PONCT	?			
					
</META>	META	</META>			
					
voir	VINF	voir			
un	DET	un			
addicto	NC	addicto			
pourrait	V	pourrait			
te	CLO-A_OBJ	te			
faire	VINF	faire			
du	DET	du			
bien	NC	bien			
,	PONCT	,			
surtout	ADV	surtout			
pour	P	pour			
"	PONCT	"			
évaluer	VINF	évaluer			
"	PONCT	"			
ta	DET	ta			
consommation	NC	consommation			
					
<META>	META	<META>			
					
En	YM	En			
faite	ADV-MOD	faite			
c'	CLS-SUJ	c'			
est	V	est			
le	DET	le			
soir	NC	soir			
que	CS	que			
c'	CLS-SUJ	c'			
est	V	est			
plus	ADV	plus			
dure	ADJ	dure			
a	P	a			
tenir	VINF	tenir			
niveau	NC	niveau			
mentale	NC	mentale			
					
</META>	META	</META>			
					
la	DET	la			
journée	NC	journée			
sa	PRO	sa			
va	V	va			
					
<META>	META	<META>			
					
Bonjour	I	Bonjour			
,	PONCT	,			
					
</META>	META	</META>			
					
Je	CLS-SUJ	Je			
suis	V	suis			
politox	NC	politox			
avec	P	avec			
un	DET	un			
gros	ADJ	gros			
prob	NC	prob			
d'	P	d'			
alcoolisme	NC	alcoolisme			
,	PONCT	,			
					
suis	V	suis			
sevré	VPP	sevré			
de	P	de			
l'	DET	l'			
alcool	NC	alcool			
depuis	P	depuis			
quelques	DET	quelques			
années	NC	années			
,	PONCT	,			
mais	CC	mais			
je	CLS-SUJ	je			
n'	ADV-MOD	n'			
arrive	V	arrive			
pas	ADV-MOD	pas			
à	P	à			
me	CLO-A_OBJ	me			
dire	VINF	dire			
que	CS	que			
je	CLS-SUJ	je			
ne	ADV-MOD	ne			
boirai	V	boirai			
plus	ADV-MOD	plus			
une	DET	une			
goutte	NC	goutte			
d'	P	d'			
alcool	NC	alcool			
,	PONCT	,			
alors_que	CS	alors_que			
je	CLS-SUJ	je			
le	CLO-OBJ	le			
veu	V	veu			
,	PONCT	,			
pas	ADV	pas			
assé	ADV	assé			
de	P	de			
volonté	NC	volonté			
peut	YM	peut			
etre	ADV	etre			
,	PONCT	,			
					
il	CLS-SUJ	il			
m'	CLO-A_OBJ	m'			
arrive	V	arrive			
de	P	de			
reboir	VINF	reboir			
à	P	à			
des	DET	des			
occasion	NC	occasion			
car	CC	car			
c	CLS+V-SUJ	c			
plus	ADV	plus			
fort	ADJ	fort			
que	CS	que			
moi	PRO	moi			
et	CC	et			
des	YM	des			
que	CS	que			
je	CLS-SUJ	je			
commence	V	commence			
il	CLS-SUJ	il			
m'	CLO-A_OBJ	m'			
est	V	est			
impossible	ADJ	impossible			
de	P	de			
m'	CLO-A_OBJ	m'			
arreter	VINF	arreter			
,	PONCT	,			
					
apré	ADV-MOD	apré			
je	CLS-SUJ	je			
dort	V	dort			
tré	ADV	tré			
mal	ADV	mal			
et	CC	et			
suis	V	suis			
malade	ADJ	malade			
le	DET	le			
lendemain	NC	lendemain			
et	CC	et			
surtout	ADV-MOD	surtout			
je	CLS-SUJ	je			
me	CLO-OBJ	me			
hait	V	hait			
,	PONCT	,			
					
j'	CLS-SUJ	j'			
ai	V	ai			
honte	NC	honte			
,	PONCT	,			
de	P	de			
qui	PROREL	qui			
je	CLS-SUJ	je			
devien	V	devien			
quand	CS	quand			
j'	CLS-SUJ	j'			
ai	V	ai			
bu	VPP	bu			
et	CC	et			
j'	CLS-SUJ	j'			
en	CLO-DE_OBJ	en			
soufre	V	soufre			
,	PONCT	,			
					
j'	CLS-SUJ	j'			
arrive	V	arrive			
pas	ADV-MOD	pas			
à	P	à			
boir	VINF	boir			
normalemen	ADV-MOD	normalemen			
					
je	CLS-SUJ	je			
bois	V	bois			
tou	ADJ	tou			
mes	DET	mes			
verres	NC	verres			
cul	NC	cul			
sec	ADJ	sec			
,	PONCT	,			
					
pourquoi	ADVWH-MOD	pourquoi			
j'	CLS-SUJ	j'			
ai	V	ai			
ce	DET	ce			
rapport	NC	rapport			
avec	P	avec			
l'	DET	l'			
alcool	NC	alcool			
alors_que	CS	alors_que			
des	DET	des			
tas	NC	tas			
de	P	de			
gens	NC	gens			
arrive	V	arrive			
à	P	à			
boir	VINF	boir			
normalemen	ADV-MOD	normalemen			
??	PONCT	??			
					
je	CLS-SUJ	je			
n'	ADV-MOD	n'			
ai	V	ai			
pas	ADV-MOD	pas			
bu	VPP	bu			
depuis	P	depuis			
10	DET	10			
jours	NC	jours			
,	PONCT	,			
					
ce	DET	ce			
week	Y	week			
end	NC	end			
je	CLS-SUJ	je			
suis	V	suis			
invité	VPP	invité			
à	P	à			
un	DET	un			
annif	NC	annif			
et	CC	et			
j'	CLS-SUJ	j'			
ai	V	ai			
trè	ADV	trè			
trè	ADV	trè			
peur	NC	peur			
,	PONCT	,			
					
si	CS	si			
vous	CLS-SUJ	vous			
me	CLO-OBJ	me			
comprenez	V	comprenez			
vivé	V	vivé			
la	DET	la			
mm	ADJ	mm			
chose	NC	chose			
ou	CC	ou			
avez	V	avez			
passé	VPP	passé			
le	DET	le			
cap	NC	cap			
je	CLS-SUJ	je			
pren	V	pren			
tou	ADJ	tou			
ce	PRO	ce			
qui	PROREL	qui			
peu	V	peu			
m'	CLO-OBJ	m'			
aider	VINF	aider			
.	PONCT	.			
					
merci	NC	merci			
de	P	de			
m'	CLO-OBJ	m'			
avoir	VINF	avoir			
lu	VPP	lu			
et	CC	et			
j'	CLS-SUJ	j'			
atten	V	atten			
vos	DET	vos			
réponses	NC	réponses			
.	PONCT	.			
					
amicalemen	ADV	amicalemen			
					
pussy	NPP	Cllaude529	B-PERS		
					
<META>	META	<META>			
					
Slt	I	Slt			
,	PONCT	,			
					
</META>	META	</META>			
					
Ouais	ADV	Ouais			
,	PONCT	,			
pourquoi	ADVWH	pourquoi			
?	PONCT	?			
					
Dl	I	Dl			
					
<META>	META	<META>			
					
Mais	CC	Mais			
pourquoi	ADVWH	pourquoi			
?	PONCT	?			
lol	I	lol			
					
</META>	META	</META>			
					
toi	PRO	toi			
aussi	ADV	aussi			
tu	CLS-SUJ	tu			
te	CLO-A_OBJ	te			
pause	V	pause			
la	DET	la			
meme	ADJ	meme			
question	NC	question			
?	PONCT	?			
					
surtou	ADV-MOD	surtou			
soi	VIMP	soi			
pas	ADV-MOD	pas			
dsl	VPP	dsl			
!!	PONCT	!!			
					
au_contraire	ADV	au_contraire			
merci	NC	merci			
d'	P	d'			
avoir	VINF	avoir			
répondu	VPP	répondu			
napoleon	NPP	Cllaude530	B-PERS		
1	Y	1			
er	ADJ	er			
					
<META>	META	<META>			
					
Bein	I	Bein			
voui	ADV	voui			
					
</META>	META	</META>			
					
Si	CS	Si			
je	CLS-SUJ	je			
savais	V	savais			
!	PONCT	!			
					
<META>	META	<META>			
					
et	CC	et			
toi	PRO	toi			
c	CLS+V-SUJ	c			
quoi	PROWH	quoi			
ton	DET	ton			
rapport	NC	rapport			
avec	P	avec			
l'	DET	l'			
alcool	NC	alcool			
,	PONCT	,			
					
</META>	META	</META>			
					
heu	I	heu			
san	P	san			
indiscrétion	NC	indiscrétion			
veu	V	veu			
pas	ADV-MOD	pas			
metre	VINF	metre			
personne	PRO	personne			
mal	ADJ	mal			
a	P	a			
l'	DET	l'			
aise	NC	aise			
,	PONCT	,			
mais	CC	mais			
sa	PRO	sa			
fait	V	fait			
tellemen	ADV	tellemen			
du	P+D	du			
bien	NC	bien			
d'	P	d'			
échangé	VINF	échangé			
ces	DET	ces			
expériences	NC	expériences			
					
on	CLS-SUJ	on			
se	CLR-OBJ	se			
sent	V	sent			
moin	ADV-MOD	moin			
seul	ADJ	seul			
					
<META>	META	<META>			
					
Bein	I	Bein			
voui	ADV	voui			
,	PONCT	,			
ca	PRO	ca			
fait	V	fait			
du	P+D	du			
bien	NC	bien			
					
</META>	META	</META>			
					
Moi	PRO	Moi			
l'	DET	l'			
alcool	NC	alcool			
,	PONCT	,			
non	ADV	non			
merci	NC	merci			
,	PONCT	,			
C	CLS+V-SUJ	C			
l'	DET	l'			
eau	NC	eau			
qui	PROREL	qui			
me	CLO-OBJ	me			
branche	V	branche			
					
Nen	ADV	Nen			
sans	P	sans			
rire	VINF	rire			
,	PONCT	,			
j'	CLS-SUJ	j'			
ai	V	ai			
bu	VPP	bu			
hier	ADV	hier			
soir	NC	soir			
mais	CC	mais			
ca	PRO	ca			
faisait	V	faisait			
deux	DET	deux			
semaines	NC	semaines			
.	PONCT	.			
					
Mais	CC	Mais			
C	CLS+V-SUJ	C			
vrai	ADJ	vrai			
que	CS	que			
je	CLS-SUJ	je			
bois	V	bois			
facilement	ADV	facilement			
lorsqu'	CS	lorsqu'			
il	CLS-SUJ	il			
y	CLO	y			
en	CLO-OBJ	en			
a	V	a			
sous	P	sous			
le	DET	le			
nez	NC	nez			
mais	CC	mais			
plus	ADV-MOD	plus			
obligé	VPP	obligé			
de	P	de			
me	CLO-OBJ	me			
saouler	VINF	saouler			
à	P	à			
mort	NC	mort			
,	PONCT	,			
juste	ADV	juste			
quelques	DET	quelques			
effets	NC	effets			
suffisent	V	suffisent			
					
mais	CC	mais			
bon	ADV	bon			
,	PONCT	,			
il	CLS-SUJ	il			
faut	V	faut			
qd	YM	qd			
même	ADV-MOD	même			
certains	DET	certains			
verres	NC	verres			
!	PONCT	!			
					
<META>	META	<META>			
					
oki	NC	oki			
,	PONCT	,			
					
</META>	META	</META>			
					
on	CLS-SUJ	on			
est	V	est			
dan	P	dan			
le	DET	le			
mm	ADJ	mm			
cas	NC	cas			
alors	ADV-MOD	alors			
,	PONCT	,			
sauf	P	sauf			
que	CS	que			
j'	CLS-SUJ	j'			
arrive	V	arrive			
pas	ADV	pas			
encor	ADV	encor			
à	P	à			
boir	VINF	boir			
modéreman	ADV-MOD	modéreman			
quan	CS	quan			
je	CLS-SUJ	je			
bois	V	bois			
!!	PONCT	!!			
					
<META>	META	<META>			
					
le	DET	le			
coté	NC	coté			
suis	V	suis			
tro	ADV	tro			
cool	ADJ	cool			
au	P+D	au			
quotidien	NC	quotidien			
et	CC	et			
je	CLS-SUJ	je			
relach	V	relach			
tout	PRO	tout			
quan	CS	quan			
j'	CLS-SUJ	j'			
ai	V	ai			
bu	VPP	bu			
					
</META>	META	</META>			
					
oui	ADV	oui			
c	CLS+V-SUJ	c			
vrai	ADJ	vrai			
je	CLS-SUJ	je			
l'	CLO	l'			
ai	V	ai			
annalisé	VPP	annalisé			
aussi	ADV	aussi			
,	PONCT	,			
					
les	DET	les			
gens	NC	gens			
qui	PROREL	qui			
m'	CLO-OBJ	m'			
aimen	V	aimen			
me	CLO-OBJ	me			
deteste	V	deteste			
quan	CS	quan			
j'	CLS-SUJ	j'			
ai	V	ai			
bu	VPP	bu			
					
les	DET	les			
autres	PRO	autres			
je	CLS-SUJ	je			
l'	CLO-OBJ	l'			
ai	V	ai			
fai	VPP	fai			
maré	VINF	maré			
et	CC	et			
me	CLO-OBJ	me			
conforte	V	conforte			
dan	P	dan			
la	DET	la			
connerie	NC	connerie			
,	PONCT	,			
					
ah	I	ah			
bah	I	bah			
oui	ADV-MOD	oui			
sa	PRO	sa			
démenage	V	démenage			
,	PONCT	,			
mais	CC	mais			
c	CLS+V-SUJ	c			
pas	ADV-MOD	pas			
moi	PRO	moi			
!!	PONCT	!!			
					
De	YM	De			
plus	ADV-MOD	plus			
c	CLS+V	c			
l'	DET	l'			
annif	NC	annif			
de	P	de			
quelqu'_un	PRO	quelqu'_un			
de	P	de			
trés	ADV	trés			
importan	ADJ	importan			
pour	P	pour			
moi	PRO	moi			
je	CLS-SUJ	je			
ne	ADV-MOD	ne			
pourrai	V	pourrai			
pas	ADV-MOD	pas			
partir	VINF	partir			
pluto	ADV-MOD	pluto			
,	PONCT	,			
peu	V	peu			
pas	ADV-MOD	pas			
esquiver	VINF	esquiver			
.	PONCT	.			
					
mais	CC	mais			
kler	ADJ	kler			
je	CLS-SUJ	je			
perd	V	perd			
pas	ADV-MOD	pas			
de	P	de			
vu	NC	vu			
que	CS	que			
c	CLS+V-SUJ	c			
zéro	DET	zéro			
alcool	NC	alcool			
!!	PONCT	!!			
					
<META>	META	<META>			
					
Yep	ADV	Yep			
!	PONCT	!			
Et	CC	Et			
ce	CLS-SUJ	ce			
sera	V	sera			
un	DET	un			
beau	ADJ	beau			
cadeau	NC	cadeau			
pour	P	pour			
toi	PRO	toi			
aussi	ADV	aussi			
					
</META>	META	</META>			
					
<META>	META	<META>			
					
Je	CLS-SUJ	Je			
m'	CLO-OBJ	m'			
oublie	V	oublie			
souven	ADV-MOD	souven			
					
</META>	META	</META>			
					
c	CLS+V-SUJ	c			
vrai	ADJ	vrai			
et	CC	et			
c	CLS+V-SUJ	c			
dommage	NC	dommage			
.	PONCT	.			
car	CC	car			
c	CLS+V-SUJ	c			
pour	P	pour			
moi	PRO	moi			
que	CS	que			
je	CLS-SUJ	je			
doit	V	doit			
le	CLO-OBJ	le			
faire	VINF	faire			
,	PONCT	,			
pas	ADV	pas			
évident	ADJ	évident			
à	P	à			
se	CLR	se			
le	CLO-OBJ	le			
metre	VINF	metre			
dan	P	dan			
la	DET	la			
tete	NC	tete			
,	PONCT	,			
					
c	CLS+V-SUJ	c			
un	DET	un			
truk	NC	truk			
que	PROREL	que			
j'	CLS-SUJ	j'			
ai	V	ai			
compri	VPP	compri			
aussi	ADV-MOD	aussi			
o	P+D	o			
fil	NC	fil			
des	P+D	des			
années	NC	années			
,	PONCT	,			
c	CLS+V-SUJ	c			
que	CS	que			
si	CS	si			
c	CLS+V-SUJ	c			
pas	ADV-MOD	pas			
pour	P	pour			
nous	PRO	nous			
on	CLS-SUJ	on			
y	CLO-A_OBJ	y			
arrivera	V	arrivera			
pas	ADV-MOD	pas			
..	PONCT	..			
					
si	CS	si			
c	CLS+V-SUJ	c			
pour	P	pour			
les	DET	les			
autres	PRO	autres			
c	CLS+V-SUJ	c			
qu'	CS	qu'			
on	CLS-SUJ	on			
est	V	est			
pas	ADV-MOD	pas			
convaincu	VPP	convaincu			
d'	P	d'			
avoir	VINF	avoir			
un	DET	un			
problème	NC	problème			
!!	PONCT	!!			
					
<META>	META	<META>			
					
c	CLS+V-SUJ	c			
vrai	ADJ	vrai			
lask	NPP	Cllaude531	B-PERS		
est	V	est			
de	P	de			
tré	ADV	tré			
bon	ADJ	bon			
conseil	NC	conseil			
,	PONCT	,			
il	CLS	il			
					
</META>	META	</META>			
					
ma	CLO+V-OBJ	ma			
baucoup	ADV-MOD	baucoup			
aidé	VPP	aidé			
pour	P	pour			
mon	DET	mon			
sevrage	NC	sevrage			
à	P	à			
la	DET	la			
codeine	NC	codeine			
!!	PONCT	!!			
					
c	CLS+V-SUJ	c			
un_peu_plus	ADV	un_peu_plus			
que	CS	que			
mon	DET	mon			
ami	NC	ami			
qui	PROREL	qui			
faite	V	faite			
son	DET	son			
annif	NC	annif			
,	PONCT	,			
					
jveu	CLS+V-SUJ	jveu			
pas	ADV-MOD	pas			
que	CS	que			
les	DET	les			
gens	NC	gens			
se	CLR	se			
pause	V	pause			
tro	ADV	tro			
de	P	de			
question	NC	question			
,	PONCT	,			
car	CC	car			
baucou	PRO	baucou			
mon	CLO+V-OBJ	mon			
catalogué	VPP	catalogué			
alors_que	CS	alors_que			
lui	PRO	lui			
m'	CLO-OBJ	m'			
a	V	a			
toujour	ADV-MOD	toujour			
défendu	VPP	défendu			
,	PONCT	,			
					
fau	V	fau			
que	CS	que			
j'	CLS-SUJ	j'			
arrive	V	arrive			
à	P	à			
leur	CLO-A_OBJ	leur			
faire	VINF	faire			
fermer	VINF	fermer			
leur	DET	leur			
gueule	NC	gueule			
à	P	à			
tou	ADJ	tou			
c	DET	c			
catalogueur	NC	catalogueur			
de	P	de			
M	NC	M			
...	PONCT	...			
,	PONCT	,			
					
sa	PRO	sa			
motive	V	motive			
à	P	à			
boir	VINF	boir			
de	YM	de			
l'	DET	l'			
o	NC	o			
aussi	ADV	aussi			
					
<META>	META	<META>			
					
Bonjour	NC	Bonjour			
a	P	a			
tous	PRO	tous			
,	PONCT	,			
					
</META>	META	</META>			
					
Voila	V	Voila			
je	CLS-SUJ	je			
fait	V	fait			
ce	DET	ce			
poste	NC	poste			
car	CC	car			
depuis	P	depuis			
le	DET	le			
1	ADJ	1			
juillet	NC	juillet			
j'	CLS-SUJ	j'			
ai	V	ai			
fait	VPP	fait			
un	DET	un			
bad	ADJ	bad			
trip	NC	trip			
au	P+D	au			
lsd	NC	lsd			
,	PONCT	,			
					
je	CLS-SUJ	je			
tien	V	tien			
a	P	a			
dire	VINF	dire			
que	CS	que			
avant	P	avant			
ce	DET	ce			
bad	ADJ	bad			
trip	NC	trip			
je	CLS-SUJ	je			
frapper	V	frapper			
20	DET	20			
douille	NC	douille			
par	P	par			
jours	NC	jours			
et	CC	et			
je	CLS-SUJ	je			
fesait	V	fesait			
quelque	DET	quelque			
1	ADJ	1			
w.k	NC	w.k			
tous	ADJ	tous			
les	DET	les			
deux	ADJ	deux			
mois	NC	mois			
avec	P	avec			
de	YM	de			
la	DET	la			
grosse	ADJ	grosse			
Defonce	NC	Defonce			
-LRB-	PONCT	-LRB-			
Taz	NC	Taz			
,	PONCT	,			
coc	NC	coc			
,	PONCT	,			
lsd	NC	lsd			
,	PONCT	,			
et	CC	et			
tous	ADJ	tous			
le	DET	le			
reste	NC	reste			
-RRB-	PONCT	-RRB-			
...	PONCT	...			
Pendant	P	Pendant			
3	DET	3			
ans	NC	ans			
,	PONCT	,			
					
maintenant	ADV	maintenant			
je	CLS-SUJ	je			
vais	V	vais			
vous	CLO-A_OBJ	vous			
racontez	VINF	racontez			
comment	ADVWH-MOD	comment			
sa	PRO	sa			
ces	CLR+V	ces			
passez	VPP	passez			
.	PONCT	.			
					
un	DET	un			
Bon	ADJ	Bon			
w.k	NC	w.k			
m'	CLO-OBJ	m'			
atendez	V	atendez			
					
on	CLS-SUJ	on			
avait	V	avait			
prevue	VPP	prevue			
avec	P	avec			
3	DET	3			
collegues	NC	collegues			
de	P	de			
prendre	VINF	prendre			
10gr	NC	10gr			
de	P	de			
speed	NC	speed			
,	PONCT	,			
1gr	NC	1gr			
de	P	de			
mdma	NC	mdma			
et	CC	et			
2	DET	2			
fiole	NC	fiole			
de	P	de			
lsd	NC	lsd			
,	PONCT	,			
					
le	DET	le			
vendredi	NC	vendredi			
soir	NC	soir			
tous	PRO	tous			
ce	CLR-MOD	ce			
passez	V	passez			
bien	ADV-MOD	bien			
					
on	CLS-SUJ	on			
a	V	a			
consommer	VPP	consommer			
5gr	NC	5gr			
de	P	de			
speed	NC	speed			
plus	CC	plus			
tous	ADJ	tous			
le	DET	le			
md	NC	md			
,	PONCT	,			
					
samedi	NC	samedi			
matin	NC	matin			
aprés	P	aprés			
une	DET	une			
nuit	NC	nuit			
blanche	ADJ	blanche			
je	CLS-SUJ	je			
part	V	part			
bosser	VINF	bosser			
juste	ADV	juste			
le	DET	le			
matin	NC	matin			
de	P	de			
9h	NC	9h			
a	P	a			
12h	NC	12h			
dans	P	dans			
l'	DET	l'			
aprés	YM	aprés			
midi	NC	midi			
,	PONCT	,			
					
on	CLS-SUJ	on			
n'	ADV-MOD	n'			
a	V	a			
continuez	VPP	continuez			
,	PONCT	,			
					
moi	PRO	moi			
je	CLS-SUJ	je			
continué	V	continué			
de	P	de			
mon	DET	mon			
coté	NC	coté			
a	P	a			
taper	VINF	taper			
des	DET	des			
douilles	NC	douilles			
et	CC	et			
a	P	a			
tapez	VINF	tapez			
du	DET	du			
speed	NC	speed			
,	PONCT	,			
					
fin	NC	fin			
de	P	de			
l'	DET	l'			
aprés	YM	aprés			
midi	NC	midi			
,	PONCT	,			
le	DET	le			
soir	NC	soir			
arrive	V	arrive			
2	DET	2			
autre	ADJ	autre			
collegue	NC	collegue			
nous	CLO-OBJ	nous			
on	V	on			
rejoind	VPP	rejoind			
et	CC	et			
on	CLS-SUJ	on			
avait	V	avait			
decider	VPP	decider			
de	P	de			
prendre	VINF	prendre			
le	DET	le			
LSD	NC	LSD			
sur	P	sur			
la	DET	la			
plage	NC	plage			
-LRB-	PONCT	-LRB-			
Perso	ADV-MOD	Perso			
j'	CLS-SUJ	j'			
etait	V	etait			
pas	ADV-MOD	pas			
rassuré	VPP	rassuré			
-RRB-	PONCT	-RRB-			
,	PONCT	,			
					
un	DET	un			
collegue	NC	collegue			
me	CLO-A_OBJ	me			
ten	V	ten			
le	DET	le			
verre	NC	verre			
avec	P	avec			
une	DET	une			
goutte	NC	goutte			
de	P	de			
la	DET	la			
fiole	NC	fiole			
de	P	de			
lsd	NC	lsd			
					
j'	CLS-SUJ	j'			
ai	V	ai			
hésiter	VPP	hésiter			
au	P+D	au			
debut	NC	debut			
puis	CC	puis			
aprés	ADV-MOD	aprés			
je	CLS-SUJ	je			
me	CLO-A_OBJ	me			
suis	V	suis			
dit	VPP	dit			
allez	VIMP	allez			
je	CLS-SUJ	je			
le	CLO-OBJ	le			
prend	V	prend			
-LRB-	PONCT	-LRB-			
chose	NC	chose			
que	PROREL	que			
je	CLS-SUJ	je			
n'	ADV-MOD	n'			
aurait	V	aurait			
pas	ADV-MOD	pas			
du	VPP	du			
-RRB-	PONCT	-RRB-			
.	PONCT	.			
					
la	DET	la			
soirée	NC	soirée			
continue	V	continue			
normalement	ADV-MOD	normalement			
et	CC	et			
les	DET	les			
deux	ADJ	deux			
autre	ADJ	autre			
soi	YM	soi			
disant	ADJ	disant			
collegue	NC	collegue			
avait	V	avait			
decider	VPP	decider			
de	P	de			
nous	CLO-OBJ	nous			
faire	VINF	faire			
vriller	VINF	vriller			
super	ADJ	super			
les	DET	les			
collegues	NC	collegues			
...	PONCT	...			
..	PONCT	..			
					
sur	P	sur			
cette	DET	cette			
fameuse	ADJ	fameuse			
plage	NC	plage			
il	CLS-SUJ	il			
y	CLO	y			
avait	V	avait			
du	DET	du			
monde	NC	monde			
et	CC	et			
un	PRO	un			
des	P+D	des			
deux	ADJ	deux			
collegue	NC	collegue			
nous	CLO-A_OBJ	nous			
dit	V	dit			
ya	CLS+CLO+V-SUJ	ya			
n'	ADV-MOD	n'			
a	V	a			
qui	PROREL	qui			
cherche	V	cherche			
la	DET	la			
merde	NC	merde			
on	CLS-SUJ	on			
va	V	va			
ce	CLR-MOD	ce			
battre	VINF	battre			
...	PONCT	...			
.	PONCT	.			
					
moi	PRO	moi			
je	CLS-SUJ	je			
me	CLO-A_OBJ	me			
dit	V	dit			
faut	V	faut			
que	CS	que			
le	DET	le			
produit	NC	produit			
descende	VS	descende			
car	CC	car			
je	CLS-SUJ	je			
ne	ADV-MOD	ne			
pourait	V	pourait			
pas	ADV-MOD	pas			
me	CLR-MOD	me			
battre	VINF	battre			
comme	P	comme			
sa	PRO	sa			
					
donc	ADV-MOD	donc			
ducoup	X-MOD	ducoup			
je	CLS-SUJ	je			
me	CLO-OBJ	me			
suis	V	suis			
forcé	VPP	forcé			
a	P	a			
resister	VINF	resister			
au	P+D	au			
produit	NC	produit			
,	PONCT	,			
					
la	ADV-MOD	la			
,	PONCT	,			
la	DET	la			
paranoia	NC	paranoia			
commence	V	commence			
a	P	a			
m'	CLO-OBJ	m'			
envahir	VINF	envahir			
tous	ADV	tous			
en	P	en			
fesant	VPR	fesant			
une	DET	une			
mis	NC	mis			
en	P	en			
scene	NC	scene			
					
les	DET	les			
deux	ADJ	deux			
autre	ADJ	autre			
collegue	NC	collegue			
qui	PROREL	qui			
n'	ADV-MOD	n'			
avait	V	avait			
rien	PRO	rien			
pris	VPP	pris			
,	PONCT	,			
commence	V	commence			
a	P	a			
cherché	VINF	cherché			
les	DET	les			
mec	NC	mec			
qui	PROREL	qui			
nous	CLO-A_OBJ	nous			
en	CLO-MOD	en			
veulent	V	veulent			
					
moi	PRO	moi			
etant	VPR	etant			
totalement	ADV	totalement			
perché	ADJ	perché			
jme	CLS+CLO-SUJ-A_OBJ	jme			
dit	V	dit			
sa	PRO	sa			
va	V	va			
partir	VINF	partir			
d'	P	d'			
un	DET	un			
moment	NC	moment			
a	P	a			
l'	DET	l'			
autre	NC	autre			
,	PONCT	,			
					
le	DET	le			
temp	NC	temp			
passe	V	passe			
rien	PRO	rien			
ne	ADV-MOD	ne			
ce	CLR-MOD	ce			
passe	V	passe			
.	PONCT	.			
					
bref	I-MOD	bref			
on	CLS-SUJ	on			
pars	V	pars			
de	P	de			
la	DET	la			
plage	NC	plage			
et	CC	et			
la	ADV-MOD	la			
on	CLS-SUJ	on			
go	V	go			
chez	P	chez			
moi	PRO	moi			
,	PONCT	,			
					
je	CLS-SUJ	je			
leur	CLO-A_OBJ	leur			
demande	V	demande			
si	CS	si			
les	DET	les			
mec	NC	mec			
nous	CLO-OBJ	nous			
suivent	V	suivent			
,	PONCT	,			
					
il	CLS-SUJ	il			
ne	ADV-MOD	ne			
reponde	V	reponde			
pas	ADV-MOD	pas			
,	PONCT	,			
					
on	CLS-SUJ	on			
arrive	V	arrive			
chez	P	chez			
moi	PRO	moi			
et	CC	et			
la	ADV-MOD	la			
il	CLS-SUJ	il			
me	CLO-OBJ	me			
laisse	V	laisse			
tous	PRO	tous			
en	P	en			
plan	NC	plan			
seul	ADJ	seul			
chez	P	chez			
moi	PRO	moi			
avec	P	avec			
ma	DET	ma			
copine	NC	copine			
qui	PROREL	qui			
dormait	V	dormait			
...	PONCT	...			
,	PONCT	,			
					
je	CLS-SUJ	je			
continue	V	continue			
mon	DET	mon			
bad	NC	bad			
tous	ADJ	tous			
la	DET	la			
nuit	NC	nuit			
					
impossible	ADJ	impossible			
de	P	de			
dormir	VINF	dormir			
,	PONCT	,			
je	CLS-SUJ	je			
cogite	V	cogite			
et	CC	et			
au	P+D	au			
moindre	ADJ	moindre			
bruit	NC	bruit			
je	CLS-SUJ	je			
sort	V	sort			
avec	P	avec			
une	DET	une			
batte	NC	batte			
...	PONCT	...			
.	PONCT	.			
					
le	DET	le			
jours	NC	jours			
ce	CLR-MOD	ce			
leve	V	leve			
et	CC	et			
je	CLS-SUJ	je			
commence	V	commence			
a	P	a			
m'	CLR-OBJ	m'			
endormir	VINF	endormir			
car	CC	car			
je	CLS-SUJ	je			
venait	V	venait			
de	P	de			
prendre	VINF	prendre			
conscience	NC	conscience			
qu'	CS	qu'			
il	CLS-SUJ	il			
ny	ADV+CLO-MOD	ny			
avait	V	avait			
rien	PRO	rien			
,	PONCT	,			
					
la	DET	la			
nuit	NC	nuit			
passe	V	passe			
normalement	ADV-MOD	normalement			
,	PONCT	,			
					
je	CLS-SUJ	je			
me	CLR-MOD	me			
leve	V	leve			
et	CC	et			
je	CLS-SUJ	je			
suis	V	suis			
toujours	ADV	toujours			
sous	P	sous			
l'	DET	l'			
effet	NC	effet			
du	P+D	du			
LSD	NC	LSD			
et	CC	et			
le	DET	le			
reste	NC	reste			
					
je	CLS-SUJ	je			
me	CLO-A_OBJ	me			
dit	V	dit			
c'	CLS-SUJ	c'			
est	V	est			
normale	ADJ	normale			
					
donc	ADV	donc			
on	CLS-SUJ	on			
etait	V	etait			
dimanche	NC	dimanche			
et	CC	et			
le	DET	le			
lendemain	NC	lendemain			
je	CLS-SUJ	je			
devait	V	devait			
bosser	VINF	bosser			
.	PONCT	.			
					
la	DET	la			
journée	NC	journée			
ce	CLR-MOD	ce			
passe	V	passe			
normalement	ADV-MOD	normalement			
					
je	CLS-SUJ	je			
tape	V	tape			
qq	DET	qq			
douille	NC	douille			
puis	CC	puis			
je	CLS-SUJ	je			
roupille	V	roupille			
,	PONCT	,			
					
le	DET	le			
dimanche	NC	dimanche			
passe	V	passe			
et	CC	et			
le	DET	le			
lundi	NC	lundi			
arrive	V	arrive			
					
je	CLS-SUJ	je			
me	CLO-OBJ	me			
sens	V	sens			
encore	ADV	encore			
barbouiller	ADJ	barbouiller			
,	PONCT	,			
					
je	CLS-SUJ	je			
me	CLO-A_OBJ	me			
dit	V	dit			
encore	ADV-MOD	encore			
ces	CLS+V-SUJ	ces			
normale	ADJ	normale			
avec	P	avec			
la	DET	la			
boite	NC	boite			
que	PROREL	que			
j'	CLS-SUJ	j'			
ai	V	ai			
pris	VPP	pris			
...	PONCT	...			
.	PONCT	.			
					
donc	ADV	donc			
a	P	a			
14h	DET+NC	14h			
je	CLS-SUJ	je			
devait	V	devait			
prendre	VINF	prendre			
le	DET	le			
boulot	NC	boulot			
					
la	ADV-MOD	la			
je	CLS-SUJ	je			
mange	V	mange			
un_peu	ADV-MOD	un_peu			
et	CC	et			
je	CLS-SUJ	je			
tape	V	tape			
une	DET	une			
grosse	ADJ	grosse			
trace	NC	trace			
de	P	de			
speed	NC	speed			
pour	P	pour			
avoir	VINF	avoir			
la	DET	la			
peche	NC	peche			
au	P+D	au			
taff	NC	taff			
...	PONCT	...			
					
donc	ADV-MOD	donc			
je	CLS-SUJ	je			
prend	V	prend			
la	DET	la			
voiture	NC	voiture			
et	CC	et			
la	ADV-MOD	la			
je	CLS-SUJ	je			
vais	V	vais			
au	P+D	au			
taff	NC	taff			
					
arriver	VPP	arriver			
au	P+D	au			
taff	NC	taff			
,	PONCT	,			
des	YM	des			
que	CS	que			
j'	CLS-SUJ	j'			
ouvre	V	ouvre			
le	DET	le			
magasin	NC	magasin			
je	CLS-SUJ	je			
commence	V	commence			
a	P	a			
avoir	VINF	avoir			
le	DET	le			
vertige	NC	vertige			
mon	DET	mon			
coeur	NC	coeur			
ce	CLR-MOD	ce			
met	V	met			
a	P	a			
battre	VINF	battre			
a	P	a			
200	PRO	200			
et	CC	et			
je	CLS-SUJ	je			
sens	V	sens			
que	CS	que			
je	CLS-SUJ	je			
vais	V	vais			
faire	VINF	faire			
un	DET	un			
malaise	NC	malaise			
,	PONCT	,			
					
en	P	en			
me	CLO-OBJ	me			
rassurant	VPR	rassurant			
je	CLS-SUJ	je			
vais	V	vais			
acheter	VINF	acheter			
des	DET	des			
barre	NC	barre			
de	P	de			
snikers	NPP	snikers	B-OTH:TM		
et	CC	et			
de	P	de			
quoi	PRO	quoi			
boire	VINF	boire			
,	PONCT	,			
					
aprés	P	aprés			
cela	PRO	cela			
je	CLS-SUJ	je			
retourne	V	retourne			
au	P+D	au			
taff	NC	taff			
et	CC	et			
encore	ADV	encore			
une	DET	une			
crise	NC	crise			
...	PONCT	...			
					
paniqué	VPP	paniqué			
j'	CLS-SUJ	j'			
apel	V	apel			
ma	DET	ma			
mere	NC	mere			
..	PONCT	..			
car	CC	car			
les	DET	les			
collegue	NC	collegue			
n'	ADV-MOD	n'			
etait	V	etait			
pas	ADV-MOD	pas			
la	ADV-ATS	la			
...	PONCT	...			
.	PONCT	.			
					
aprés	P	aprés			
sa	PRO	sa			
ma	DET	ma			
mere	NC	mere			
m'	CLO-OBJ	m'			
amene	V	amene			
chez	P	chez			
le	DET	le			
docteur	NC	docteur			
					
il	CLS-SUJ	il			
me	CLO-A_OBJ	me			
demande	V	demande			
ce	PRO	ce			
que	PROREL	que			
j'	CLS-SUJ	j'			
ai	V	ai			
fait	VPP	fait			
et	CC	et			
la	ADV-MOD	la			
je	CLS-SUJ	je			
deballe	V	deballe			
tous	ADJ	tous			
mon	DET	mon			
sac	NC	sac			
					
et	CC	et			
ma	DET	ma			
mere	NC	mere			
la	CLO+V-OBJ	la			
plutot	ADV	plutot			
bien	ADV	bien			
pris	VPP	pris			
enfin	ADV-MOD	enfin			
elle	CLS-SUJ	elle			
savez	V	savez			
que	CS	que			
j'	CLS-SUJ	j'			
etait	V	etait			
louche	ADJ	louche			
..	PONCT	..			
					
Le	DET	Le			
Docteur	NC	Docteur			
me	CLO-A_OBJ	me			
dit	V	dit			
d'	P	d'			
attendre	VINF	attendre			
que	CS	que			
le	DET	le			
produit	NC	produit			
descende	VS	descende			
sa	PRO	sa			
prendra	V	prendra			
quelque	DET	quelque			
mois	NC	mois			
puis	CC	puis			
c'	CLS-SUJ	c'			
est	V	est			
tout	PRO	tout			
,	PONCT	,			
					
je	CLS-SUJ	je			
lui	CLO	lui			
est	V	est			
dit	VPP	dit			
que	CS	que			
j'	CLS-SUJ	j'			
avais	V	avais			
des	DET	des			
trouble	NC	trouble			
de	P	de			
la	DET	la			
vue	NC	vue			
					
je	CLS-SUJ	je			
lui	CLO-A_OBJ	lui			
est	V	est			
dit	VPP	dit			
que	CS	que			
j'	CLS-SUJ	j'			
avais	V	avais			
des	DET	des			
trouble	NC	trouble			
de	P	de			
la	DET	la			
vue	NC	vue			
					
il	CLS-SUJ	il			
ma	CLO+V-A_OBJ	ma			
dit	VPP	dit			
que	CS	que			
c'	CLS-SUJ	c'			
etait	V	etait			
normale	ADJ	normale			
aussi	ADV-MOD	aussi			
et	CC	et			
que	CS	que			
sa	PRO	sa			
allez	V	allez			
redescendre	VINF	redescendre			
,	PONCT	,			
					
pour	P	pour			
mes	DET	mes			
crise	NC	crise			
d'	P	d'			
angoise	NC	angoise			
il	CLS-SUJ	il			
ma	CLO+V-A_OBJ	ma			
prescrit	VPP	prescrit			
du	DET	du			
lizanxia	NC	lizanxia			
un	DET	un			
anti	PREF	anti			
axiolitite	NC	axiolitite			
enfin	ADV	enfin			
contre	P	contre			
l'	DET	l'			
anxiete	NC	anxiete			
,	PONCT	,			
					
j'	CLS-SUJ	j'			
en	CLO-OBJ	en			
prend	V	prend			
1	PRO	1			
matin	NC	matin			
1	PRO	1			
le	DET	le			
soir	NC	soir			
,	PONCT	,			
					
sa	PRO	sa			
me	CLO-OBJ	me			
calme	V	calme			
mais	CC	mais			
les	DET	les			
voix	NC	voix			
dans	P	dans			
ma	DET	ma			
tête	NC	tête			
ne	ADV-MOD	ne			
s'	CLR-MOD	s'			
arrete	V	arrete			
pas	ADV-MOD	pas			
,	PONCT	,			
					
sa	PRO	sa			
me	CLO-A_OBJ	me			
donne	V	donne			
souvent	ADV-MOD	souvent			
de	DET	de			
bon	ADJ	bon			
mal	NC	mal			
de	P	de			
tête	NC	tête			
...	PONCT	...			
					
suite	NC	suite			
a	P	a			
ce	DET	ce			
Bad	ADJ	Bad			
j'	CLS-SUJ	j'			
ai	V	ai			
tous	PRO	tous			
arretez	VPP	arretez			
plus	ADV	plus			
de	P	de			
douille	NC	douille			
plus	ADV	plus			
rien	PRO	rien			
,	PONCT	,			
					
ma	DET	ma			
copine	NC	copine			
ne	ADV-MOD	ne			
comprené	V	comprené			
pas	ADV-MOD	pas			
ce	PRO	ce			
qui	PROREL	qui			
m'	CLO-A_OBJ	m'			
arrivé	V	arrivé			
et	CC	et			
s'	CLR-MOD	s'			
en	CLO-DE_OBJ	en			
fouter	V	fouter			
un_peu	ADV-MOD	un_peu			
					
je	CLS-SUJ	je			
l'	CLO-OBJ	l'			
ai	V	ai			
viré	VPP	viré			
,	PONCT	,			
					
mes	DET	mes			
collegue	NC	collegue			
eux	PRO	eux			
aussi	ADV	aussi			
s'	CLR	s'			
en	CLO-DE_OBJ	en			
fouté	V	fouté			
aussi	ADV-MOD	aussi			
donc	CC	donc			
je	CLS-SUJ	je			
l'	Y	l'			
ai	CLO-OBJ	ai			
et	V	et			
viré	VPP	viré			
aussi	ADV-MOD	aussi			
,	PONCT	,			
					
en	P	en			
meme	ADJ	meme			
temp	NC	temp			
j'	CLS-SUJ	j'			
ai	V	ai			
déménager	VPP	déménager			
,	PONCT	,			
					
je	CLS-SUJ	je			
vie	V	vie			
actuellement	ADV-MOD	actuellement			
chez	P	chez			
ma	DET	ma			
mere	NC	mere			
,	PONCT	,			
mais	CC	mais			
j'	CLS-SUJ	j'			
ai	V	ai			
trouver	VPP	trouver			
un	DET	un			
appart	NC	appart			
					
mais	CC	mais			
je	CLS-SUJ	je			
ne	ADV-MOD	ne			
peut	V	peut			
pas	ADV-MOD	pas			
y	CLO-P_OBJ_LOC	y			
vivre	VINF	vivre			
car	CC	car			
je	CLS-SUJ	je			
fait	V	fait			
des	DET	des			
crise	NC	crise			
d'	P	d'			
angoisse	NC	angoisse			
.	PONCT	.			
					
En_plus	X	En_plus			
de	P	de			
sa	PRO	sa			
j'	CLS-SUJ	j'			
ai	V	ai			
des	DET	des			
tas	NC	tas			
de	P	de			
pensé	NC	pensé			
dans	P	dans			
ma	DET	ma			
tête	NC	tête			
					
dernierement	ADV	dernierement			
des	DET	des			
envie	NC	envie			
de	P	de			
sucide	DET	sucide			
..	PONCT	..			
des	DET	des			
voix	NC	voix			
qui	PROREL	qui			
me	CLO-OBJ	me			
fond	V	fond			
culpabilisé	VINF	culpabilisé			
ou	CC	ou			
qui	PROREL	qui			
me	CLO-A_OBJ	me			
font	V	font			
provoqué	VINF	provoqué			
des	DET	des			
crise	NC	crise			
d'	P	d'			
angoise	NC	angoise			
.	PONCT	.			
					
Actuellement	ADV-MOD	Actuellement			
sa	PRO	sa			
fait	V	fait			
5	DET	5			
mois	NC	mois			
aujourd'_hui	ADV-MOD	aujourd'_hui			
que	PROREL	que			
j'	CLS-SUJ	j'			
ai	V	ai			
fait	VPP	fait			
ce	DET	ce			
bad	ADJ	bad			
et	CC	et			
au_niveau_de	P	au_niveau_de			
ma	DET	ma			
vue	NC	vue			
je	CLS-SUJ	je			
regarde	V	regarde			
toujours	ADV-MOD	toujours			
derriere	P	derriere			
un	DET	un			
mirroir	NC	mirroir			
					
enfin	ADV	enfin			
ces	CLS+V-SUJ	ces			
trouble	ADJ	trouble			
surtout	ADV-MOD	surtout			
quand	CS	quand			
il	CLS-SUJ	il			
fait	V	fait			
soleil	NC	soleil			
...	PONCT	...			
					
les	DET	les			
voix	NC	voix			
dans	P	dans			
ma	DET	ma			
tête	NC	tête			
ne	ADV-MOD	ne			
s'	CLR-MOD	s'			
arrete	V	arrete			
pas	ADV-MOD	pas			
du	P+D	du			
matin	NC	matin			
jusqu'_au	P	jusqu'_au			
soir	NC	soir			
...	PONCT	...			
					
mes	DET	mes			
pensé	NC	pensé			
ce	CLR-MOD	ce			
confonde	V	confonde			
a	P	a			
force	NC	force			
de	P	de			
faire	VINF	faire			
toujours	ADV-MOD	toujours			
pareille	ADJ	pareille			
					
j'	CLS-SUJ	j'			
ai	V	ai			
l'	DET	l'			
impression	NC	impression			
de	P	de			
vivre	VINF	vivre			
la	DET	la			
meme	ADJ	meme			
journée	NC	journée			
tous	ADJ	tous			
les	DET	les			
jours	NC	jours			
.	PONCT	.			
					
avec	P	avec			
tous	ADJ	tous			
sa	PRO	sa			
je	CLS-SUJ	je			
ne	ADV-MOD	ne			
m'	CLO-OBJ	m'			
y	CLO-MOD	y			
retrouve	V	retrouve			
plus	ADV-MOD	plus			
,	PONCT	,			
					
j'	CLS-SUJ	j'			
ai	V	ai			
toujours	ADV-MOD	toujours			
mon	DET	mon			
travail	NC	travail			
,	PONCT	,			
Je	CLS-SUJ	Je			
n'	ADV-MOD	n'			
ai	V	ai			
plus	ADV	plus			
de	P	de			
pote	NC	pote			
a	YM	a			
pars	P	pars			
2	DET	2			
couzin	NC	couzin			
et	CC	et			
mon	DET	mon			
frere	NC	frere			
qui	PROREL	qui			
sont	V	sont			
loing	ADV	loing			
de	P	de			
moi	PRO	moi			
,	PONCT	,			
					
je	CLS-SUJ	je			
travaille	V	travaille			
seul	ADJ	seul			
aussi	ADV	aussi			
					
et	CC	et			
donc	ADV	donc			
toute	ADJ	toute			
la	DET	la			
journée	NC	journée			
je	CLS-SUJ	je			
suis	V	suis			
tout	ADV	tout			
seul	ADJ	seul			
a	YM	a			
part	P	part			
le	DET	le			
soir	NC	soir			
quand	CS	quand			
il_y_a	V-SUJ-MOD	il_y_a			
ma	DET	ma			
mere	NC	mere			
...	PONCT	...			
					
Je	CLS-SUJ	Je			
vais	V	vais			
consulté	VINF	consulté			
un	DET	un			
Ophtalmo	NC	Ophtalmo			
debut	NC	debut			
janvier	NC	janvier			
met	CC	met			
je	CLS-SUJ	je			
ne	ADV-MOD	ne			
pense	V	pense			
pas	ADV-MOD	pas			
que	CS	que			
sa	PRO	sa			
va	V	va			
arranger	VINF	arranger			
grand	ADJ	grand			
chose	NC	chose			
,	PONCT	,			
					
en	YM	en			
fait	ADV	fait			
je	CLS-SUJ	je			
ne	ADV-MOD	ne			
sais	V	sais			
plus	ADV	plus			
trop	ADV	trop			
quoi	PROWH	quoi			
faire	VINF	faire			
a	YM	a			
part	P	part			
attendre	VINF	attendre			
et	CC	et			
peut	YM	peut			
etre	ADV	etre			
m'	CLR-OBJ	m'			
en	CLO-DE_OBJ	en			
sortir	VINF	sortir			
...	PONCT	...			
					
Merci	NC	Merci			
d'	P	d'			
avoir	VINF	avoir			
lu	VPP	lu			
mon	DET	mon			
message	NC	message			
et	CC	et			
desolé	VPP	desolé			
pour	P	pour			
les	DET	les			
fautes	NC	fautes			
d'	P	d'			
orthographe	NC	orthographe			
..	PONCT	..			
					
si	CS	si			
quelqu'_un	PRO	quelqu'_un			
a	V	a			
deja	ADV-MOD	deja			
vécu	VPP	vécu			
cette	DET	cette			
expérience	NC	expérience			
,	PONCT	,			
peut	V	peut			
ou	CC	ou			
peuvent	V	peuvent			
-il	CLS-SUJ	-il			
me	CLO-A_OBJ	me			
donner	VINF	donner			
des	DET	des			
conseil	NC	conseil			
.	PONCT	.			
Merci	I-SEG	Merci			
					
<META>	META	<META>			
					
Bonjours	NC	Bonjours			
a	P	a			
toi	PRO	toi			
brisss	NPP	Cllaude271	B-PERS		
.	PONCT	.			
Pour	P	Pour			
commencé	VINF	commencé			
je	CLS-SUJ	je			
ne	ADV-MOD	ne			
prend	V	prend			
pas	ADV-MOD	pas			
de	DET	de			
lsd	NC	lsd			
.	PONCT	.			
					
</META>	META	</META>			
					
Sa	PRO	Sa			
m'	CLO-A_OBJ	m'			
arrive	V	arrive			
de	P	de			
prendre	VINF	prendre			
des	DET	des			
emphét	Y	emphét			
'	NC	'			
-LRB-	PONCT	-LRB-			
speed	NC	speed			
-RRB-	PONCT	-RRB-			
ou	CC	ou			
de	P	de			
couler	VINF	couler			
des	DET	des			
douille	NC	douille			
mais	CC	mais			
pas	ADV	pas			
de	P	de			
lsd	NC	lsd			
,	PONCT	,			
kétamine	NC	kétamine			
ou	CC	ou			
autre	PRO	autre			
.	PONCT	.			
					
Je	CLS-SUJ	Je			
pense	V	pense			
que	CS	que			
tu	CLS-SUJ	tu			
devrais	V	devrais			
tout	ADV	tout			
simplement	ADV	simplement			
voir	VINF	voir			
un	DET	un			
autre	ADJ	autre			
médecin	NC	médecin			
ou	CC	ou			
un	DET	un			
toxicologue	NC	toxicologue			
-LRB-	PONCT	-LRB-			
je	CLS-SUJ	je			
sais	V	sais			
pas	ADV-MOD	pas			
si	CS	si			
c'	CLS-SUJ	c'			
est	V	est			
le	DET	le			
therme	NC	therme			
exact	ADJ	exact			
-RRB-	PONCT	-RRB-			
					
Si	CS	Si			
au_bout_de	P	au_bout_de			
5	DET	5			
mois	NC	mois			
tu	CLS-SUJ	tu			
rescend	V	rescend			
toujours	ADV-MOD	toujours			
se	DET	se			
genre	NC	genre			
"	PONCT	"			
d'	P	d'			
effet	NC	effet			
secondaire	ADJ	secondaire			
"	PONCT	"			
c'	CLS-SUJ	c'			
est	V	est			
vraiment	ADV-MOD	vraiment			
mauvais	ADJ	mauvais			
.	PONCT	.			
					
Donc	ADV	Donc			
sans	P	sans			
vouloir	VINF	vouloir			
te	CLO-OBJ	te			
paniquer	VINF	paniquer			
tu	CLS-SUJ	tu			
devrais	V	devrais			
aller	VINF	aller			
voir	VINF	voir			
un	DET	un			
toxicologue	NC	toxicologue			
qui	PROREL	qui			
je	CLS-SUJ	je			
pense	V	pense			
te	CLO-A_OBJ	te			
préscrira	V	préscrira			
un	DET	un			
traitemant	NC	traitemant			
ou	CC	ou			
des	DET	des			
cacher	NC	cacher			
d'	P	d'			
urgence	NC	urgence			
.	PONCT	.			
					
Sinon	ADV	Sinon			
il	CLS-SUJ	il			
y	CLO-MOD	y			
à	V	à			
des	DET	des			
numéro	NC	numéro			
vert	ADJ	vert			
ou	CC	ou			
des	DET	des			
forum	NC	forum			
spécialiser	ADJ	spécialiser			
.	PONCT	.			
Bonne	ADJ	Bonne			
continuation	NC	continuation			
.	PONCT	.			
Peace	NC	Peace			
					
<META>	META	<META>			
					
Salut	NC	Salut			
Brisss	NPP	Cllaude271	B-PERS		
,	PONCT	,			
					
</META>	META	</META>			
					
Pour	P	Pour			
être	VINF	être			
passé	VPP	passé			
maintes	DET	maintes			
fois	NC	fois			
par	P	par			
l'	DET	l'			
état	NC	état			
que	PROREL	que			
tu	CLS-SUJ	tu			
décris	V	décris			
-LRB-	PONCT	-LRB-			
suite	NC	suite			
à	P	à			
des	DET	des			
mélanges	NC	mélanges			
de	P	de			
bavards	NC	bavards			
,	PONCT	,			
micropointes	NC	micropointes			
,	PONCT	,			
taz	NC	taz			
,	PONCT	,			
keta	NC	keta			
,	PONCT	,			
enfin	ADV	enfin			
tout	ADJ	tout			
ce	PRO	ce			
qui	PROREL	qui			
passait	V	passait			
par	P	par			
là	ADV	là			
-RRB-	PONCT	-RRB-			
,	PONCT	,			
					
si	CS	si			
je	CLS-SUJ	je			
peux	V	peux			
te	CLO-A_OBJ	te			
donner	VINF	donner			
un	DET	un			
conseil	NC	conseil			
c'	CLS-SUJ	c'			
est	V	est			
simplement	ADV-MOD	simplement			
de	P	de			
te	CLO-A_OBJ	te			
dire	VINF	dire			
que	CS	que			
tout	ADJ	tout			
ça	PRO	ça			
n'	ADV-MOD	n'			
est	V	est			
que	ADV-MOD	que			
psychologique	ADJ	psychologique			
.	PONCT	.			
					
En	P	En			
gros	ADJ	gros			
,	PONCT	,			
plus	ADV-MOD	plus			
tu	CLS-SUJ	tu			
te	CLO-A_OBJ	te			
prendras	V	prendras			
la	DET	la			
tête	NC	tête			
sur	P	sur			
ces	DET	ces			
état	NC	état			
,	PONCT	,			
plus	ADV	plus			
ils	CLS-SUJ	ils			
empireront	V	empireront			
.	PONCT	.			
					
Un	DET	Un			
truc	NC	truc			
très	ADV	très			
simple	ADJ	simple			
dans	P	dans			
ces	DET	ces			
cas	NC	cas			
là	ADV	là			
,	PONCT	,			
tu	CLS-SUJ	tu			
prends	V	prends			
de	DET	de			
profondes	ADJ	profondes			
inspirations	NC	inspirations			
,	PONCT	,			
tu	CLS-SUJ	tu			
respires	V	respires			
doucement	ADV-MOD	doucement			
,	PONCT	,			
et	CC	et			
tu	CLS-SUJ	tu			
te	CLO-OBJ	te			
cales	V	cales			
dans	P	dans			
un	DET	un			
endroit	NC	endroit			
dans	P	dans			
lequel	PROREL	lequel			
tu	CLS-SUJ	tu			
te	CLO-OBJ	te			
sens	V	sens			
en	P	en			
sécurité	NC	sécurité			
,	PONCT	,			
et	CC	et			
pas	ADV	pas			
trop	ADV	trop			
près_des	P	près_des			
murs	NC	murs			
-LRB-	PONCT	-LRB-			
oui	ADV	oui			
des	DET	des			
fois	NC	fois			
tu	CLS-SUJ	tu			
peux	V	peux			
avoir	VINF	avoir			
l'	DET	l'			
impression	NC	impression			
qu'	CS	qu'			
ils	CLS-SUJ	ils			
se	CLR-MOD	se			
referment	V	referment			
sur	P	sur			
toi	PRO	toi			
-RRB-	PONCT	-RRB-			
.	PONCT	.			
					
Au_bout_de	P	Au_bout_de			
plusieurs	DET	plusieurs			
mois	NC	mois			
après	P	après			
un	DET	un			
prise	NC	prise			
,	PONCT	,			
surtout	ADV	surtout			
quand	CS	quand			
tu	CLS-SUJ	tu			
fais	V	fais			
des	DET	des			
mélanges	NC	mélanges			
,	PONCT	,			
tu	CLS-SUJ	tu			
peux	V	peux			
retrouver	VINF	retrouver			
des	DET	des			
effets	NC	effets			
,	PONCT	,			
surtout	ADV	surtout			
suite	NC	suite			
à	P	à			
un	DET	un			
arrêt	NC	arrêt			
brutal	ADJ	brutal			
des	P+D	des			
substances	NC	substances			
.	PONCT	.			
					
Ne	ADV-MOD	Ne			
t'	CLO-OBJ	t'			
inquiète	VIMP	inquiète			
pas	ADV-MOD	pas			
,	PONCT	,			
ce	CLS-SUJ	ce			
n'	ADV-MOD	n'			
est	V	est			
qu'	ADV-MOD	qu'			
une	DET	une			
question	NC	question			
de	P	de			
temps	NC	temps			
.	PONCT	.			
					
Mais	CC	Mais			
comme	CS	comme			
disait	V	disait			
cradav	NPP	Cllaude532	B-PERS		
,	PONCT	,			
la	DET	la			
consultation	NC	consultation			
d'	P	d'			
un	DET	un			
psychiatre	NC	psychiatre			
peux	V	peux			
aussi	ADV	aussi			
t'	CLO-OBJ	t'			
aider	VINF	aider			
à	P	à			
te	CLO-OBJ	te			
débarasser	VINF	débarasser			
de	P	de			
ces	DET	ces			
voix	NC	voix			
qui	PROREL	qui			
encombrent	V	encombrent			
ta	DET	ta			
tête	NC	tête			
.	PONCT	.			
					
Garde	VIMP	Garde			
la	DET	la			
pêche	NC	pêche			
,	PONCT	,			
et	CC	et			
reste	VIMP	reste			
positif	ADJ	positif			
.	PONCT	.			
					
<META>	META	<META>			
					
Merci	NC	Merci			
a	P	a			
tous	ADJ	tous			
les	DET	les			
deux	PRO	deux			
pour	P	pour			
vos	DET	vos			
réponses	NC	réponses			
					
</META>	META	</META>			
					
je	CLS-SUJ	je			
vais	V	vais			
taché	VINF	taché			
d'	P	d'			
etre	VINF	etre			
patient	ADJ	patient			
,	PONCT	,			

