token	tag	token_anonymise	EN	Tag corrigé	Notes / remarques
-LT-/META-GT-	META	-LT-/META-GT-			
					
Tu	CLS-SUJ	Tu			
parle	V	parle			
pour	P	pour			
tchy	PRO	tchy			
.	PONCT	.			
					
Sahh	I	Sahh			
ta	CLS+V-SUJ	ta			
mm	ADV-MOD	mm			
pas	ADV-MOD	pas			
la	DET	la			
moitié	NC	moitié			
de	P	de			
squel	PRO+PROREL+Y-OBJ	squel			
la	Y+V-SUJ	la			
et	CC	et			
tu	CLS-SUJ	tu			
parle	V	parle			
.	PONCT	.			
					
-LT-META-GT-	META	-LT-META-GT-			
					
10.7.7	META	10.7.7			
Ex	META	Bidule253	B-PERS	NPP	
Charmeur	ADJ	Bidule253_2	I-PERS	NPP	
du	P+D	Bidule253_3	I-PERS	NPP	
Gehtto	NC	Bidule253_4	I-PERS	NPP	
					
-LT-/META-GT-	META	-LT-/META-GT-			
					
Sont	DET	Sont			
sac	NC	sac			
yve	NPP	yve	B-ORG		
saint	NPP	saint	I-ORG		
Laurent	NPP	Laurent	I-ORG		
ses	CLS+V-SUJ	ses			
votre	DET	votre			
2	ADJ	2			
mois	NC	mois			
de	P	de			
salaire	NC	salaire			
bande	NC	bande			
de	P	de			
smicard	NC	smicard			
djadjalousie	P+NC	djadjalousie			
					
-LT-META-GT-	META	-LT-META-GT-			
					
10.7.8	DET	10.7.8		META	
Huiss	NC	Bidule257	B-PERS	NPP	
Rmz	NPP	Bidule257_2	I-PERS		
					
-LT-/META-GT-	META	-LT-/META-GT-			
					
Weshhh	I	Weshhh			
tu	CLS-SUJ	tu			
t	CLR+V	t			
eclater	VPP	eclater			
en	P	en			
bekane	NC	bekane			
ou	CC	ou			
quoi	PROWH	quoi			
?	PONCT	?			
					
-LT-META-GT-	META	-LT-META-GT-			
					
10.7.9	DET	10.7.9		META	
man	NC	Bidule258	B-PERS	NPP	
Bgr	NPP	Bidule258_2	I-PERS		
					
-LT-/META-GT-	META	-LT-/META-GT-			
					
Vous	CLS-SUJ	Vous			
faite	V	faite			
pitié	NC	pitié			
ceux	PRO	ceux			
qui	PROREL	qui			
dise	VS	dise			
faut	V	faut			
lui	CLO-A_OBJ	lui			
acheter	VINF	acheter			
un	DET	un			
jeans	NC	jeans			
					
jsai	CLS+V-SUJ	jsai			
pas	ADV-MOD	pas			
koii	PROWH	koii			
.	PONCT	.			
					
Avec	P	Avec			
tous	ADJ	tous			
c	DET	c			
Louboutin	NPP	Louboutin	B-ORG		
elle	CLS-SUJ	elle			
vous	CLO-OBJ	vous			
met	V	met			
a	P	a			
l	DET	l			
amande	NC	amande			
.	PONCT	.			
Bande	NC	Bande			
de	P	de			
jaloux	ADJ	jaloux			
vaa	I	vaa			
					
-LT-META-GT-	META	-LT-META-GT-			
					
post_8	DET	post_8		META	
Nabilla	NPP	Nabilla	B-PERS		
Benattia	NPP	Benattia	I-PERS		
					
-LT-/META-GT-	META	-LT-/META-GT-			
					
Bonne	ADJ	Bonne			
année	NC	année			
à	P	à			
Tous	PRO	Tous			
Rebeu	NC	Rebeu			
,	PONCT	,			
Renoi	NC	Renoi			
,	PONCT	,			
Babtou	NC	Babtou			
,	PONCT	,			
Chinois	NC	Chinois			
					
Merci	NC	Merci			
pour	P	pour			
cette	DET	cette			
Année	NC	Année			
de	P	de			
Folie	NC	Folie			
c'	CLS-SUJ	c'			
est	V	est			
que	ADV-MOD	que			
le	DET	le			
début	NC	début			
#teamturfu	HT	#teamturfu			
#TeamNabilla	HT	#TeamNabilla			
bimmmm	I	bimmmm			
!!!	PONCT	!!!			
					
-LT-META-GT-	META	-LT-META-GT-			
					
10.8.1	DET	10.8.1		META	
Sandy	NPP	Cllaude259	B-PERS		
Cabrol	NPP	Bidule259	I-PERS		
					
-LT-/META-GT-	META	-LT-/META-GT-			
					
Tu	CLS-SUJ	Tu			
t'	CLO-OBJ	t'			
prend	V	prend			
pour	P	pour			
qui	PROWH	qui			
pour	P	pour			
ns	CLO-OBJ	ns			
appeler	VINF	appeler			
babtou	NC	babtou			
?	PONCT	?			
					
Nan	ADV	Nan			
mais	CC	mais			
srx	ADJ	srx			
la	DET	la			
meuf	NC	meuf			
elle	CLS-SUJ	elle			
ce	CLR	ce			
sent	V	sent			
plus	ADV-MOD	plus			
là	ADV-MOD	là			
.	PONCT	.			
					
Jme	CLS+CLR-SUJ	Jme			
casse	V	casse			
de	P	de			
ste	DET	ste			
page	NC	page			
de	P	de			
merde	NC	merde			
tss	I	tss			
.	PONCT	.			
					
-LT-META-GT-	META	-LT-META-GT-			
					
10.8.2	DET	10.8.2		META	
MoiinaFatiima	NPP	Bidule260	B-PERS		
Mlaraha	NPP	Bidule260_2	I-PERS		
					
-LT-/META-GT-	META	-LT-/META-GT-			
					
Eeh	I	Eeh			
mais	CC	mais			
Babtou	NC	Babtou			
c'	CLS-SUJ	c'			
st	V	st			
pas	ADV-MOD	pas			
une	DET	une			
insulte	NC	insulte			
prq	ADVWH	prq			
tu	CLS-SUJ	tu			
t'	CLO-OBJ	t'			
existe	V	existe			
comme	YM	comme			
sa	ADV-MOD	sa			
?!!!	PONCT	?!!!			
					
Si	CS	Si			
tu	CLS-SUJ	tu			
veut	V	veut			
vraiment	ADV-MOD	vraiment			
la	DET	la			
signifiquation	NC	signifiquation			
Babtout=Blanc	NC+ADJ+NC	Babtout=Blanc			
/	PONCT	/			
Français	NC	Français			
					
et	CC	et			
c'	CLS-SUJ	c'			
st	V	st			
vrai	ADJ	vrai			
vs	CLS-SUJ	vs			
etes	V	etes			
Blanc	NC	Blanc			
point	NC	point			
					
ya	CLS+CLO+V-SUJ	ya			
pas	ADV	pas			
de	P	de			
mal	NC	mal			
a	P	a			
sa	PRO	sa			
					
ta	CLS+V-SUJ	ta			
honte	NC	honte			
ou	CC	ou			
qwa	PROWH	qwa			
?!!!!!	PONCT	?!!!!!			
tshiiip	I	tshiiip			
					
-LT-META-GT-	META	-LT-META-GT-			
					
10.8.3	DET	10.8.3		META	
Lorène	NC	Cllaude261	B-PERS	NPP	
Valé	ADJ	Bidule261	I-PERS	NPP	
					
-LT-/META-GT-	META	-LT-/META-GT-			
					
Mdrrr	I	Mdrrr			
et	CC	et			
les	DET	les			
commentaires	NC	commentaires			
stp	I	stp			
j'	CLS-SUJ	j'			
espère	V	espère			
que	CS	que			
tu	CLS-SUJ	tu			
les	CLO-OBJ	les			
a	V	a			
lus	VPP	lus			
					
y	CLS+CLO-SUJ	y			
a	V	a			
du	DET	du			
lourd	ADJ	lourd			
					
-LT-META-GT-	META	-LT-META-GT-			
					
10.8.4	DET	10.8.4		META	
Ella	NPP	Cllaude262	B-PERS		
Lewis	NPP	Bidule262	I-PERS		
					
-LT-/META-GT-	META	-LT-/META-GT-			
					
pppptttttddrrrr	I	pppptttttddrrrr			
je	CLS-SUJ	je			
tape	V	tape			
des	DET	des			
barres	NC	barres			
					
-LT-META-GT-	META	-LT-META-GT-			
					
10.8.5	DET	10.8.5		META	
Naman	NC	Cllaude263	B-PERS	NPP	
Smith	NPP	Bidule263	I-PERS	NPP	
					
-LT-/META-GT-	META	-LT-/META-GT-			
					
tu	CLS-SUJ	tu			
a	V	a			
oublier	VPP	oublier			
les	DET	les			
pakat	NC	pakat			