token	tag	token_anonymise	EN	Tag corrigé	Notes / remarques
<META>	META	<META>			
					
7.6.6	DET	7.6.6		META	
Julien	NPP	Cllaude50	B-PERS		
Record	NPP	Bidule50	I-PERS		
					
</META>	META	</META>			
					
il	CLS-SUJ	il			
a	V	a			
une	DET	une			
tête	NC	tête			
de	P	de			
soldat	NC	soldat			
de	P	de			
la	DET	la			
guerre	NC	guerre			
de	P	de			
session	NC	session			
avec	P	avec			
sa	DET	sa			
casquette	NC	casquette			
,	PONCT	,			
ça	PRO	ça			
change	V	change			
des	P+D	des			
rappeurs	NC	rappeurs			
US	ADJ	US	B-LOC		
bling	Y	bling			
bling	ADJ	bling			
					
<META>	META	<META>			
					
7.6.7	DET	7.6.7		META	
Philippe	NPP	Cllaude51	B-PERS		
Wheresmyname	NPP	Bidule51	I-PERS		
					
</META>	META	</META>			
					
Spéciale	ADJ	Spéciale			
cacededi	NC	cacededi			
à	P	à			
mes	DET	mes			
potes	NC	potes			
de	P	de			
breizh	NPP	breizh	B-LOC		
...	PONCT	...			
Alan	NPP	Cllaude52	B-PERS		
Booheydeck	NPP	Bidule52	I-PERS		
					
<META>	META	<META>			
					
7.6.8	DET	7.6.8		META	
Guillaume	NPP	Cllaude53	B-PERS		
Caine	NPP	Bidule53	I-PERS		
					
</META>	META	</META>			
					
Mais	CC	Mais			
putaaaaaiiiiînnnn	I	putaaaaaiiiiînnnn			
					
<META>	META	<META>			
					
7.6.9	DET	7.6.9		META	
Pauline	NPP	Cllaude54	B-PERS		
Dcd	NPP	Bidule54	I-PERS		
					
</META>	META	</META>			
					
Louis	NPP	Cllaude55	B-PERS		
de	P	Bidule55	I-PERS		
Coudenhove	NPP	Bidule55_2	I-PERS		
tiens	V	tiens			
du	DET	du			
bon	ADJ	bon			
rap	NC	rap			
...	PONCT	...			
					
<META>	META	<META>			
					
7.6.10	DET	7.6.10		META	
Karyn	NPP	Cllaude56	B-PERS		
Adouane	NPP	Cllaude56_2	I-PERS		
Brosset	NPP	Bidule56	I-PERS		
					
</META>	META	</META>			
					
Il	CLS-SUJ	Il			
doit	V	doit			
tout	PRO	tout		ADV	
à	P	à			
Amandine	NPP	Amandine	B-PERS		
du	P+D	du	I-PERS		
38	PRO	38	I-PERS	NPP	
!!	PONCT	!!			
					
<META>	META	<META>			
					
7.6.11	DET	7.6.11		META	
D'	P	Bidule57	B-PERS		tokenisation : l'apostrophe est parfois isolé (comme dans " I'm FATCAT ") parfois rattaché (comme ici)
Hondt	NPP	Cllaude57	I-PERS		
Axel	NPP	Bidule57_2	I-PERS		
					
</META>	META	</META>			
					
je	CLS-SUJ	je			
reste	V	reste			
sans	P	sans			
voix	NC	voix			
devant	P	devant			
ce	DET	ce			
talent	NC	talent			
incroyable	ADJ	incroyable			
					
<META>	META	<META>			
					
7.6.12	DET	7.6.12		META	
Mickaël	NPP	Cllaude58	B-PERS		
Munoz	NPP	Bidule58	I-PERS		
					
</META>	META	</META>			
					
10	DET	10			
ans	NC	ans			
de	P	de			
retard	NC	retard			
le	DET	le			
mec	NC	mec			
,	PONCT	,			
merci	I	merci			
Brain	NPP	Brain	B-OTH:MEDIA		
pour	P	pour			
vos	DET	vos			
perles	NC	perles			
.	PONCT	.			
					
<META>	META	<META>			
					
7.6.13	DET	7.6.13		META	
Stephane	NC	Cllaude34	B-PERS	NPP	
Rolland	NPP	Bidule34	I-PERS		
					
</META>	META	</META>			
					
çà	PRO	çà			
déchire	V	déchire			
sa	DET	sa			
reum	NC	reum			
!	PONCT	!			
wesh	ADV	wesh			
gros	ADJ	gros			
!	PONCT	!			
breizhoneg	ADJ	breizhoneg			
vibrations	NC	vibrations			
!	PONCT	!			
					
<META>	META	<META>			
					
post_7	DET	post_7		META	
Brain	NPP	Brain	B-OTH:MEDIA		
Magazine	NPP	Magazine	I-OTH:MEDIA		
a	V	a			
partagé	VPP	partagé			
un	DET	un			
lien	NC	lien			
.	PONCT	.			
					
</META>	META	</META>			
					
Belle	ADJ	Belle			
bête	NC	bête			
ça	PRO	ça			
.	PONCT	.			
					
<META>	META	<META>			
					
7.7.1	DET	7.7.1		META	
Bastien	NPP	Cllaude59	B-PERS		
Duclos	NPP	Bidule59	I-PERS		
					
</META>	META	</META>			
					
Lui	PRO	Lui			
au_moins	ADV-MOD	au_moins			
il	CLS-SUJ	il			
risquait	V	risquait			
pas	ADV-MOD	pas			
d'	P	d'			
être	VINF	être			
catapulté	VPP	catapulté			
en	P	en			
l'	DET	l'			
air	NC	air			
...	PONCT	...			
					
<META>	META	<META>			
					
7.7.2	DET	7.7.2		META	
Lucie	NPP	Cllaude60	B-PERS		
Quenenni	NPP	Bidule60	I-PERS		
					
</META>	META	</META>			
					
"	PONCT	"			
I	ET	I			
'	PONCT	'			
m	ET	m			
FATCAT	NPP	FATCAT			
"	PONCT	"			
					
<META>	META	<META>			
					
7.7.3	DET	7.7.3		META	
Jeanne	NPP	Cllaude61	B-PERS		
Denis	NPP	Cllaude61_2	I-PERS		
Lise	NPP	Cllaude61_3	I-PERS		
Lmn	NPP	Bidule61	I-PERS		
					
</META>	META	</META>			
					
c'	CLS-SUJ	c'			
est	V	est			
le	DET	le			
chat	NC	chat			
de	P	de			
Clara	NPP	Cllaude62	B-PERS		
Durand	NPP	Bidule62	I-PERS		
!!	PONCT	!!			
					
<META>	META	<META>			
					
7.7.4	DET	7.7.4		META	
Françoise	NPP	Cllaude63	B-PERS		
Chaumont	NPP	Bidule63	I-PERS		
					
</META>	META	</META>			
					
un	DET	un			
veau	NC	veau			
ou	CC	ou			
un	DET	un			
chat	NC	chat			
?	PONCT	?			
maxi	NC	maxi			
7kg	DET+NC	7kg			tokenisation : kg
chez	P	chez			
nous	PRO	nous			
bond	ET	bond			
'	PONCT	'			
la	ADV	la			
					
<META>	META	<META>			
					
7.7.5	DET	7.7.5		META	
Gladys	NPP	Cllaude64	B-PERS		
Peltier	NPP	Bidule64	I-PERS		
					
</META>	META	</META>			
					
il	CLS-SUJ	il			
a	V	a			
mangé	VPP	mangé			
toute	ADJ	toute			
la	DET	la			
patey	NC	patey			
					
<META>	META	<META>			
					
7.7.6	DET	7.7.6		META	
Juliette	NPP	Cllaude65	B-PERS		
Amélie	NPP	Bidule65	I-PERS		
					
</META>	META	</META>			
					
Aurélie	NPP	Cllaude66	B-PERS		
Sophie	NPP	Bidule66	I-PERS		
le	DET	le			
gros	ADJ	gros			
matou	NC	matou			
dont	PROREL	dont			
je	CLS-SUJ	je			
te	CLO-A_OBJ	te			
parlais	V	parlais			
!!	PONCT	!!			
moins	ADV	moins			
fringuant	ADJ	fringuant			
qu'	CS	qu'			
O	NPP	O	B-ORG		
malley	NPP	malley	I-ORG		
néanmoins	ADV	néanmoins			
...	PONCT	...			
					
<META>	META	<META>			
					
7.7.7	DET	7.7.7		META	
Sébastien	NPP	Cllaude67	B-PERS		
Millon	NPP	Bidule67	I-PERS		
					
</META>	META	</META>			
					
Farid	NPP	Farid	B-PERS		
de	P	de	I-PERS		
la	DET	la	I-PERS		
Morlette	NPP	Morlette	I-PERS		
n'	ADV-MOD	n'			
aurait	V	aurait			
rien	PRO	rien			
pu	VPP	pu			
en	CLO-DE_OBJ	en			
faire	VINF	faire			
.	PONCT	.			
					
<META>	META	<META>			
					
7.7.8	DET	7.7.8		META	
Sylvia	NPP	Cllaude68	B-PERS		
Lemoine	NPP	Bidule68	I-PERS		
					
</META>	META	</META>			
					
Ça	PRO	Ça			
c'	CLS-SUJ	c'			
est	V	est			
du	DET	du			
chat	NC	chat			
!!	PONCT	!!			
					
<META>	META	<META>			
					
post_1	ADJ	post_1		META	
.	PONCT	.			
LE	DET	LE	B-OTH:MEDIA		
BONBON	NC	BONBON	I-OTH:MEDIA		
					
</META>	META	</META>			
					
Il	CLS-SUJ	Il			
y	CLO	y			
avait	V	avait			
le	DET	le			
cinéma	NC	cinéma			
illimité	ADJ	illimité			
,	PONCT	,			
le	DET	le			
japonais	NC	japonais			
illimité	ADJ	illimité			
,	PONCT	,			
découvrez	VIMP	découvrez			
aujourd'_hui	ADV-MOD	aujourd'_hui			
le	DET	le			
café	NC	café			
illimité	ADJ	illimité			
!	PONCT	!			
					
>	PONCT	>			
>	PONCT	>			
>	PONCT	>			
http://bit.ly/NxwwYB	NPP	http://bit.ly/NxwwYB			
					
<META>	META	<META>			
					
8.1.1	DET	8.1.1		META	
Val	NPP	Bidule70	B-PERS		
Lou	NPP	Bidule70_2	I-PERS		
					
</META>	META	</META>			
					
On	CLS-SUJ	On			
parle	V	parle			
de	P	de			
l'	DET	l'			
attitude	NC	attitude			
désagréable	ADJ	désagréable			
des	P+D	des			
serveurs	NC	serveurs			
aussi	ADV-MOD	aussi			
?	PONCT	?			
					
<META>	META	<META>			
					
8.1.2	DET	8.1.2		META	
Thomas	NPP	Cllaude71	B-PERS		
Barnier	NPP	Bidule71	I-PERS		
					
</META>	META	</META>			
					
en	P	en			
attendant	VPR	attendant			
,	PONCT	,			
ils	CLS-SUJ	ils			
"	PONCT	"			
servent	V	servent			
"	PONCT	"			
...	PONCT	...			
c'	CLS-SUJ	c'			
est	V	est			
le	DET	le			
serveur	NC	serveur			
qui	PROREL	qui			
est	V	est			
en	P	en			
bas	NC	bas			
de	P	de			
l'	DET	l'			
échelle	NC	échelle			
dans	P	dans			
le	DET	le			
café	NC	café			
,	PONCT	,			
pas	ADV-MOD	pas			
le	DET	le			
client	NC	client			
...	PONCT	...			
					
<META>	META	<META>			
					
8.1.3	DET	8.1.3		META	
Jin	NPP	Cllaude72	B-PERS		
Balacco	NPP	Bidule72	I-PERS		
					
</META>	META	</META>			
					
On	CLS-SUJ	On			
parle	V	parle			
de	P	de			
l'	DET	l'			
attitude	NC	attitude			
désagréable	ADJ	désagréable			
des	P+D	des			
clients	NC	clients			
également	ADV-MOD	également			
?	PONCT	?			
					
Qui	PROREL	Qui			
pensent	V	pensent			
que	CS	que			
les	DET	les			
serveurs	NC	serveurs			
ne	ADV-MOD	ne			
sont	V	sont			
pas	ADV-MOD	pas			
des	DET	des			
êtres	NC	êtres			
humains	ADJ	humains			
et	CC	et			
qu'	CS	qu'			
ils	CLS-SUJ	ils			
se	CLR	se			
doivent	V	doivent			
d'	P	d'			
éponger	VINF	éponger			
tous	ADJ	tous			
les	DET	les			
maux	NC	maux			
des	P+D	des			
autres	PRO	autres			
sous	P	sous			
prétexte	NC	prétexte			
qu'	CS	qu'			
ils	CLS-SUJ	ils			
sont	V	sont			
professionnels	NC	professionnels			
?	PONCT	?			
					
<META>	META	<META>			
					
8.1.4	DET	8.1.4		META	
Fred	NPP	Cllaude73	B-PERS		
Lm	NPP	Bidule73	I-PERS		
Mouette	NPP	Bidule73_2	I-PERS		
					
</META>	META	</META>			
					
Et	CC	Et			
les	DET	les			
serveurs	NC	serveurs			
aimables	ADJ	aimables			
comme	P	comme			
une	DET	une			
porte	NC	porte			
de	P	de			
prison	NC	prison			
?	PONCT	?			
					
Le	DET	Le			
café	NC	café			
est	V	est			
offert	VPP	offert			
?	PONCT	?			
Lol	I	Lol			
					
<META>	META	<META>			
					
8.1.5	DET	8.1.5		META	
Carin	NPP	Cllaude74	B-PERS		
Senecot	NPP	Bidule74	I-PERS		
					
</META>	META	</META>			
					
Pas	ADV	Pas			
besoin	NC	besoin			
d'	P	d'			
être	VINF	être			
poli	ADJ	poli			
si	CS	si			
on	CLS-SUJ	on			
demande	V	demande			
un	DET	un			
thé	NC	thé			
,	PONCT	,			
un	DET	un			
chocolat	NC	chocolat			
,	PONCT	,			
un	DET	un			
sandwich	NC	sandwich			
...	PONCT	...			
...	PONCT	...			
.	PONCT	.			
					
<META>	META	<META>			
					
8.1.6	DET	8.1.6		META	
Raphaël	NPP	Cllaude75	B-PERS		
Folcher	NPP	Bidule75	I-PERS		
					
</META>	META	</META>			
					
1,40	DET	1,40			
€	NC	€			
le	DET	le			
café	NC	café			
,	PONCT	,			
ça	PRO	ça			
reste	V	reste			
quand	YM	quand			
même	ADV-MOD	même			
du	DET	du			
vol	NC	vol			
hein	I	hein			
.	PONCT	.			
					
<META>	META	<META>			
					
8.1.7	DET	8.1.7		META	
Jean-François	NPP	Cllaude76	B-PERS		
Robic	NPP	Bidule76	I-PERS		
					
</META>	META	</META>			
					
pas	ADV	pas			
de	P	de			
café	NC	café			
du	YM	du			
tout	ADV	tout			
zéro	ADJ	zéro			
centime	NC	centime			
					
<META>	META	<META>			
					
8.1.8	DET	8.1.8		META	
Val	NPP	Bidule77	B-PERS		
Lou	NPP	Bidule77_2	I-PERS		
Perso	NPP	Bidule77_3	I-PERS		
					
</META>	META	</META>			
					
je	CLS-SUJ	je			
suis	V	suis			
toujours	ADV-MOD	toujours			
polie	ADJ	polie			
et	CC	et			
souriante	ADJ	souriante			
,	PONCT	,			
car	CC	car			
je	CLS-SUJ	je			
suis	V	suis			
bien	ADV	bien			
élevée	ADJ	élevée			
.	PONCT	.			
					
Par_contre	ADV-MOD	Par_contre			
souvent	ADV-MOD	souvent			
ce	CLS-SUJ	ce			
n'	ADV-MOD	n'			
est	V	est			
pas	ADV-MOD	pas			
leur	DET	leur			
cas	NC	cas			
.	PONCT	.			
					
<META>	META	<META>			
					
8.1.9	DET	8.1.9		META	
Amel	NC	Cllaude78	B-PERS	NPP	
Bellout	NPP	Bidule78	I-PERS		
					
</META>	META	</META>			
					
Hhhhhhhh	I	Hhhhhhhh			
,	PONCT	,			
c	CLS+V	c			
sûr	ADJ	sûr			
qu'	CS	qu'			
avec	P	avec			
c	DET	c			
prix	NC	prix			
,	PONCT	,			
le	DET	le			
bonjour	NC	bonjour			
,	PONCT	,			
1	DET	1			
café	NC	café			
svp	ADV	svp			
est	V	est			
recommandé	VPP	recommandé			
!!!!!	PONCT	!!!!!			
					
<META>	META	<META>			
					
8.1.10	DET	8.1.10		META	
Paul	NPP	Cllaude79	B-PERS		
Bonabesse	NPP	Bidule79	I-PERS		
					
</META>	META	</META>			
					
Non	ADV-MOD	Non			
,	PONCT	,			
à	P	à			
Passy	NPP	Passy	B-LOC		
c'	CLS-SUJ	c'			
est	V	est			
1.20	NC	1.20			
.	PONCT	.			
					
<META>	META	<META>			
					
8.1.11	DET	8.1.11		META	
Nathan	NPP	Cllaude80	B-PERS		
Gozlan	NPP	Bidule80	I-PERS		
Belvedere	NPP	Bidule80_2	I-PERS		
					
</META>	META	</META>			
					
1.40	NC	1.40			
le	DET	le			
café	NC	café			
?	PONCT	?			
loool	I	loool			
a	P	a			
passy	NPP	passy	B-LOC		
ses	CLS+V-SUJ	ses			
1.20	NC	1.20			
...	PONCT	...			
					
<META>	META	<META>			
					
post_2	ADJ	post_2		META	
.	PONCT	.			
LE	DET	LE	B-OTH:MEDIA		
BONBON	NC	BONBON	I-OTH:MEDIA		
					
</META>	META	</META>			
					
Attention	I	Attention			
,	PONCT	,			
les	DET	les			
tatouages	NC	tatouages			
,	PONCT	,			
c'	CLS-SUJ	c'			
est	V	est			
pour	P	pour			
la	DET	la			
vie	NC	vie			
!	PONCT	!			
Réfléchissez	VIMP	Réfléchissez			
bien	ADV-MOD	bien			
avant	ADV-MOD	avant			
!	PONCT	!			
					
>	PONCT	>			
>	PONCT	>			
>	PONCT	>			
http://bit.ly/1eKfima	NPP	http://bit.ly/1eKfima			
					
<META>	META	<META>			
					
8.2.1	DET	8.2.1		META	
Camille	NPP	Cllaude81	B-PERS		
Tuquet	NPP	Bidule81	I-PERS		
					
</META>	META	</META>			
					
Nicolas	NPP	Cllaude82	B-PERS		
Tuc	NPP	Bidule82	I-PERS		
Émilie	NPP	Cllaude83	B-PERS		
Tuquet	NPP	Bidule83	I-PERS		
on	CLS-SUJ	on			
se	CLO-A_OBJ	se			
fait	V	fait			
ça	PRO	ça			
comme	P	comme			
tatouage	NC	tatouage			
représentatif	ADJ	représentatif			
de	P	de			
la	DET	la			
Tuc	NPP	Bidule84	B-PERS		
family	NC	family			
?	PONCT	?			
					
Sous	P	Sous			
les	DET	les			
aisselles	NC	aisselles			
!	PONCT	!			
					
<META>	META	<META>			
					
8.2.2	DET	8.2.2		META	
Nicolas	NPP	Cllaude82	B-PERS		
Tuc	NPP	Bidule82	I-PERS		
					
</META>	META	</META>			
					
oh	I	oh			
le	DET	le			
boloss	NC	boloss			
/	I	/			
					
<META>	META	<META>			
					
8.2.3	DET	8.2.3		META	
Elisa	NPP	Cllaude85	B-PERS		
Pezennec	NPP	Bidule85	I-PERS		
					
</META>	META	</META>			
					
Tu	CLS	Tu			
vois	V	vois			
c	CLS+V-SUJ	c			
bien	ADV-ATS	bien			
les	DET	les			
poils	NC	poils			
David	NPP	Cllaude86	B-PERS		
Lupion	NPP	Bidule86	I-PERS		
!!!!!	PONCT	!!!!!			
					
<META>	META	<META>			
					
8.2.4	DET	8.2.4		META	
Caroline	NPP	Cllaude87	B-PERS		
Deux	DET	Bidule87	I-PERS		
Fouf	NPP	Bidule87_2	I-PERS		
					
</META>	META	</META>			
					
Qui	PROWH	Qui			
se	CLR	se			
souvient	V	souvient			
comment	ADVWH-ATS	comment			
s'	CLR	s'			
appelle	V	appelle			
ce	DET	ce			
petit	ADJ	petit			
bonhomme	NC	bonhomme			
livré	VPP	livré			
initialement	ADV-MOD	initialement			
avec	P	avec			
petite	ADJ	petite			
brosse	NC	brosse			
pour	P	pour			
lui	CLO-A_OBJ	lui			
coiffer	VINF	coiffer			
le	YM	le			
peu	YM	peu			
de	DET	de			
cheveux	NC	cheveux			
-LRB-	PONCT	-LRB-			
enfin	ADV	enfin			
poils	NC	poils			
ci	YM	ci			
dessus	ADV	dessus			
-RRB-	PONCT	-RRB-			
???	PONCT	???			
					
<META>	META	<META>			
					
8.2.5	DET	8.2.5		META	
Caroline	NPP	Caroline	B-PERS		
Fleury	NPP	Fleury	I-PERS		
					
</META>	META	</META>			
					
C'	CLS-SUJ	C'			
est	V	est			
affreux	ADJ	affreux			
...	PONCT	...			
yeurk	I	yeurk			
!!!	PONCT	!!!			
					
<META>	META	<META>			
					
8.2.6	DET	8.2.6		META	
Onfray	NPP	Bidule88	B-PERS		
Mathilde	NPP	Cllaude88	I-PERS		
					
</META>	META	</META>			
					
Cet	DET	Cet			
homme	NC	homme			
a	V	a			
beaucoup	ADV	beaucoup			
d'	P	d'			
humour	NC	humour			
...	PONCT	...			
					
l'	DET	l'			
homme	NC	homme			
qui	PROREL	qui			
lui	CLO-A_OBJ	lui			
a	V	a			
fait	VPP	fait			
a	V	a			
beaucoup	ADV	beaucoup			
de	P	de			
courage	NC	courage			
...	PONCT	...			
					
la	DET	la			
femme	NC	femme			
de	P	de			
cet	DET	cet			
homme	NC	homme			
a	V	a			
beaucoup	ADV	beaucoup			
honte	NC	honte			
...	PONCT	...			
					
moi	PRO	moi			
j'	CLS-SUJ	j'			
ai	V	ai			
beaucoup	ADV-MOD	beaucoup			
ris	VPP	ris			
...	PONCT	...			
					
<META>	META	<META>			
					
8.2.7	DET	8.2.7		META	
Chris	NPP	Cllaude89	B-PERS		
Geekkid	NPP	Bidule89	I-PERS		
					
</META>	META	</META>			
					
Alors_que	CS	Alors_que			
je	CLS-SUJ	je			
perds	V	perds			
mes	DET	mes			
cheveux	NC	cheveux			
,	PONCT	,			
lui	PRO	lui			
arbore	V	arbore			
fièrement	ADV-MOD	fièrement			
une	DET	une			
petite	ADJ	petite			
touffe	NC	touffe			
sur	P	sur			
son	DET	son			
bras	NC	bras			
,	PONCT	,			
					
la	DET	la			
vie	NC	vie			
est	V	est			
injuste	ADJ	injuste			
...	PONCT	...			
					
<META>	META	<META>			
					
8.2.8	DET	8.2.8		META	
Sarah	NPP	Cllaude90	B-PERS		
Blaise	NPP	Bidule90	I-PERS		
					
</META>	META	</META>			
					
DÉ-GEU-LASSE	ADJ	DÉ-GEU-LASSE			
.	PONCT	.			
					
<META>	META	<META>			
					
8.2.9	DET	8.2.9		META	
Brigitte	NPP	Cllaude91	B-PERS		
Feder	NPP	Bidule91	I-PERS		
					
</META>	META	</META>			
					
horrible	ADJ	horrible			
comme	P	comme			
tous	ADJ	tous			
les	DET	les			
autres	PRO	autres			
					
<META>	META	<META>			
					
8.2.10	DET	8.2.10		META	
Cedric	NPP	Cllaude92	B-PERS		
Paolantoni	NPP	Bidule92	I-PERS		
					
</META>	META	</META>			
					
Quelle	DET	Quelle			
désolation	NC	désolation			
poils	NC	poils			
au	P+D	au			
fion	NC	fion			
quelle	DET	quelle			
horreur	NC	horreur			
poils	NC	poils			
au	P+D	au			
coeur	NC	coeur			
					
<META>	META	<META>			
					
8.2.11	DET	8.2.11		META	
Guillaume	NPP	Cllaude93	B-PERS		
Lemee	NPP	Bidule93	I-PERS		
					
</META>	META	</META>			
					
Au_moins	ADV-MOD	Au_moins			
il	CLS-SUJ	il			
est	V	est			
marrant	ADJ	marrant			
celui	YM	celui			
la	PRO	la			
,	PONCT	,			
					
pas	ADV	pas			
comme	P	comme			
95	DET	95			
%	NC	%			
des	P+D	des			
tatougaes	NC	tatougaes			
pourris	ADJ	pourris			
de	P	de			
signes	NC	signes			
tribaux	ADJ	tribaux			
lettre	NC	lettre			
japonnaises	ADJ	japonnaises			
aigles	NC	aigles			
etc	ADV	etc			
...	PONCT	...			
.	PONCT	.			
					
<META>	META	<META>			
					
8.2.12	DET	8.2.12		META	
Léa	NPP	Cllaude94	B-PERS		
Traoré	NPP	Bidule94	I-PERS		
					
</META>	META	</META>			
					
Ça	PRO	Ça			
c'	CLS-SUJ	c'			
est	V	est			
le	DET	le			
tatoo	NC	tatoo			
au	P+D	au			
poil	NC	poil			
...	PONCT	...			
poils	NC	poils			
...	PONCT	...			
heurk	I	heurk			
!!!!!	PONCT	!!!!!			
					
<META>	META	<META>			
					
8.2.13	DET	8.2.13		META	
Rose	NPP	Cllaude95	B-PERS		
Marie	NPP	Cllaude95_2	I-PERS		
Barrientos	NPP	Bidule95	I-PERS		
					
</META>	META	</META>			
					
au_moins	ADV-MOD	au_moins			
le	DET	le			
petit	ADJ	petit			
bonhomme	NC	bonhomme			
va	V	va			
vieillir	VINF	vieillir			
avec	P	avec			
le	DET	le			
tatoué	ADJ	tatoué			
...	PONCT	...			
triste	ADJ	triste			
consolation	NC	consolation			
					
<META>	META	<META>			
					
8.2.14	DET	8.2.14		META	
Tiffany	NPP	Cllaude96	B-PERS		
De	P	Bidule96_2	I-PERS		
Almeida	NPP	Bidule96	I-PERS		
					
</META>	META	</META>			
					
Trooooop	ADV	Trooooop			
sal	ADJ	sal			
ahahaahah	I	ahahaahah			
					
<META>	META	<META>			
					
8.2.15	DET	8.2.15		META	
Marina	NPP	Cllaude97	B-PERS		
Wilson	NPP	Bidule97	I-PERS		
					
</META>	META	</META>			
					
weeeeesssssh	ADV-MOD	weeeeesssssh			
c	CLS+V-SUJ	c			
quoi	PROWH	quoi			
ce	DET	ce			
truc	NC	truc			
??	PONCT	??			
					
<META>	META	<META>			
					
post_3	NC	post_3		META	
LE	DET	LE	B-OTH:MEDIA		
BONBON	NC	BONBON	I-OTH:MEDIA		
					
</META>	META	</META>			
					
Il	CLS-SUJ	Il			
y	CLO	y			
avait	V	avait			
le	DET	le			
bar	NC	bar			
à	P	à			
couscous	NC	couscous			
,	PONCT	,			
le	DET	le			
bar	NC	bar			
à	P	à			
choux	NC	choux			
,	PONCT	,			
le	DET	le			
bar	NC	bar			
à	P	à			
chat	NC	chat			
...	PONCT	...			
Découvrez	VIMP	Découvrez			
le	DET	le			
bar	NC	bar			
à	P	à			
câlins	NC	câlins			
!	PONCT	!			
					
>	PONCT	>			
>	PONCT	>			
>	PONCT	>			
http://bit.ly/1coRCxN	NPP	http://bit.ly/1coRCxN			
					
<META>	META	<META>			
					
8.3.1	DET	8.3.1		META	
Céline	NPP	Cllaude98	B-PERS		
Juteau	NPP	Bidule98	I-PERS		
					
</META>	META	</META>			
					
C'	CLS-SUJ	C'			
est	V	est			
de_plus_en_plus	ADV	de_plus_en_plus			
pathétique	ADJ	pathétique			
vos	DET	vos			
trucs	NC	trucs			
!	PONCT	!			