token	tag	token_anonymise	EN	Tag corrigé	Notes / remarques
<META>	META	<META>			
					
8.3.2	DET	8.3.2		META	
Olivier	NPP	Cllaude151	B-PERS		
Jezequel	NPP	Bidule151	I-PERS		
					
</META>	META	</META>			
					
Du	P+D	Du			
bar	NC	bar			
à	P	à			
thym	NC	thym			
tout	ADJ	tout			
ça	PRO	ça			
!!!	PONCT	!!!			
xD	I	xD			
					
<META>	META	<META>			
					
8.3.3	DET	8.3.3		META	
Macha	NPP	Cllaude152	B-PERS		
Julie	NPP	Bidule152	I-PERS		
					
</META>	META	</META>			
					
comptoir	NC	comptoir			
des	P+D	des			
désespérés	ADJ	désespérés			
,	PONCT	,			
ouais	ADV	ouais			
!	PONCT	!			
					
<META>	META	<META>			
					
post_4	META	post_4			
Vous	CLS-SUJ	Vous			
manquez	V	manquez			
d'	P	d'			
idées	NC	idées			
pour	P	pour			
la	DET	la			
Saint	NC	Saint		YM	
Valentin	NPP	Valentin			
?	PONCT	?			
					
</META>	META	</META>			
					
Toute	ADJ	Toute			
cette	DET	cette			
semaine	NC	semaine			
,	PONCT	,			
nous	CLS-SUJ	nous			
vous	CLO-A_OBJ	vous			
donnons	V	donnons			
des	DET	des			
bons	ADJ	bons			
plans	NC	plans			
cadeaux	NC	cadeaux			
originaux	ADJ	originaux			
pour	P	pour			
éviter	VINF	éviter			
d'	P	d'			
être	VINF	être			
bredouille	ADJ	bredouille			
,	PONCT	,			
ou	CC	ou			
ridicule	ADJ	ridicule			
...	PONCT	...			
`	PONCT	`			
					
C'	CLS-SUJ	C'			
est	V	est			
par	P	par			
ici	ADV	ici			
:	PONCT	:			
					
>	PONCT	>			
>	PONCT	>			
>	PONCT	>			
http://bit.ly/1kvZshh	NPP	http://bit.ly/1kvZshh			
					
<META>	META	<META>			
					
8.4.1	DET	8.4.1		META	
Mary	NPP	Cllaude153	B-PERS		
Mac	NPP	Bidule153	I-PERS		
Mac	NPP	Bidule153_2	I-PERS		
					
</META>	META	</META>			
					
j'	CLS-SUJ	j'			
prépare	V	prépare			
des	DET	des			
p	Y	p			
'	Y	'			
tits	ADJ	tits			
papiers	NC	papiers			
pour	P	pour			
le	DET	le			
week	Y	week			
end	NC	end			
prochain	ADJ	prochain			
					
<META>	META	<META>			
					
8.4.2	DET	8.4.2		META	
Marie	NPP	Cllaude154	B-PERS		
Hgs	NPP	Bidule154	I-PERS		
					
</META>	META	</META>			
					
Hahahahahha	I	Hahahahahha			
putain	I	putain			
!!!!	PONCT	!!!!			
					
<META>	META	<META>			
					
8.4.3	DET	8.4.3		META	
Axl	NC	Cllaude155	B-PERS	NPP	
Owlman	NPP	Bidule155	I-PERS		
					
</META>	META	</META>			
					
Frederic	NPP	Cllaude156	B-PERS		
Benmussa	NPP	Bidule156	I-PERS		
j'	CLS-SUJ	j'			
ai	V	ai			
rien	PRO	rien			
à	P	à			
te	CLO-A_OBJ	te			
dire	VINF	dire			
,	PONCT	,			
					
ce	DET	ce			
post	NC	post			
ne	ADV-MOD	ne			
t'	CLO-OBJ	t'			
intéressera	V	intéressera			
pas	ADV-MOD	pas			
,	PONCT	,			
					
c'	CLS-SUJ	c'			
est	V	est			
juste	ADV-MOD	juste			
parce_que	CS	parce_que			
moi	PRO	moi			
aussi	ADV	aussi			
j'	CLS-SUJ	j'			
avais	V	avais			
envie	NC	envie			
de	P	de			
céder	VINF	céder			
à	P	à			
cette	DET	cette			
mode	NC	mode			
de	P	de			
tagger	VINF	tagger			
quelqu'_un	PRO	quelqu'_un			
sur	P	sur			
fb	NPP	fb	B-ORG		
.	PONCT	.			
					
<META>	META	<META>			
					
8.4.4	DET	8.4.4		META	
Fanny	NPP	Cllaude157	B-PERS		
Gelly	NPP	Bidule157	I-PERS		
					
</META>	META	</META>			
					
Écriture	NC	Écriture			
de	P	de			
meuf	NC	meuf			
sur	P	sur			
le	DET	le			
mot	NC	mot			
=	V	=			
fake	ADJ	fake			
					
<META>	META	<META>			
					
post_1	NC	post_1		META	
.	PONCT	.			
Marylou	NPP	Marylou	B-PERS		
Koh	NPP	Koh	B-OTH:MEDIA		
Lanta	NPP	Lanta	I-OTH:MEDIA		
					
</META>	META	</META>			
					
Eïd	NPP	Eïd			
Moubarak	ET	Moubarak			
à	P	à			
tout	ADJ	tout			
les	DET	les			
musulmans	NC	musulmans			
,	PONCT	,			
aujourd'_hui	ADV-MOD	aujourd'_hui			
c'	CLS-SUJ	c'			
est	V	est			
la	DET	la			
fete	NC	fete			
!	PONCT	!			
bonne	ADJ	bonne			
fete	NC	fete			
!	PONCT	!			
					
<META>	META	<META>			
					
9.1.1	DET	9.1.1		META	
Mohamed	NPP	Cllaude159	B-PERS		
Khelifi	NPP	Bidule159	I-PERS		
Otmane	NPP	Bidule159_2	I-PERS		
					
</META>	META	</META>			
					
Aidek	NPP	Aidek			
Mubarak	ET	Mubarak			
Marylou	NPP	Marylou	B-PERS		
,	PONCT	,			
à	P	à			
toi	PRO	toi			
et	CC	et			
à	P	à			
toute	ADJ	toute			
ta	DET	ta			
famille	NC	famille			
et	CC	et			
amis	NC	amis			
					
<META>	META	<META>			
					
9.1.2	DET	9.1.2		META	
KhAdy	NPP	Cllaude535	B-PERS		
NdOye	NPP	Bidule535	I-PERS		
					
</META>	META	</META>			
					
BAREK	ET	BAREK			
FIK	ET	FIK			
TOI	PRO	TOI			
AUSSI	ADV	AUSSI			
MLOU	NPP	MLOU	B-PERS		
					
<META>	META	<META>			
					
9.1.3	DET	9.1.3		META	
GhànǾôù	NPP	Bidule161	B-PERS		
êL	NPP	Bidule161_2	I-PERS		
'	PONCT	Bidule161_3	I-PERS		
PàtinèùRê	NPP	Bidule161_4	I-PERS		
					
</META>	META	</META>			
					
Merciiii	I	Merciiii			
c	CLS+V-SUJ	c			
gentille	ADJ	gentille			
marylou	NPP	marylou	B-PERS		
					
<META>	META	<META>			
					
9.1.4	DET	9.1.4		META	
Salma	NPP	Cllaude162	B-PERS		
Chiadmi	NPP	Bidule162	I-PERS		
					
</META>	META	</META>			
					
tu	CLS-SUJ	tu			
connais	V	connais			
les	DET	les			
musulmans	NC	musulmans			
;	PONCT	;			
et	CC	et			
bain	ADV	bain			
merci	I	merci			
a	P	a			
toi	PRO	toi			
comme	YM	comme			
meme	ADV	meme			
					
<META>	META	<META>			
					
post_2	NC	post_2		META	
.	PONCT	.			
Marylou	NPP	Marylou	B-PERS		
Koh	NPP	Koh	I-PERS		
Lanta	NPP	Lanta	I-PERS		
					
</META>	META	</META>			
					
Je	CLS-SUJ	Je			
vous	CLO-A_OBJ	vous			
passe	V	passe			
le	DET	le			
bonjour	NC	bonjour			
du	P+D	du			
Senegal	NPP	Senegal	B-LOC		
!	PONCT	!			
					
Ici	ADV-MOD	Ici			
c'	CLS-SUJ	c'			
est	V	est			
pas	ADV-MOD	pas			
le	DET	le			
riz	NC	riz			
sec	ADJ	sec			
et	CC	et			
sans	P	sans			
saveur	NC	saveur			
de	P	de			
Koh-Lanta	NPP	Koh-Lanta	B-OTH:MEDIA		
deh	I	deh			
mdrr	I	mdrr			
.	PONCT	.			
#Dakar	HT	#Dakar	B-LOC		
#RetourAuxSources	HT	#RetourAuxSources			
					
Bonne	ADJ	Bonne			
fin	NC	fin			
de	P	de			
journée	NC	journée			
à	P	à			
tous	PRO	tous			
!	PONCT	!			
					
<META>	META	<META>			
					
9.2.1	DET	9.2.1		META	
brahim	NC	Cllaude163	B-PERS	NPP	
Surprizinho	NPP	Bidule163	I-PERS		
					
</META>	META	</META>			
					
Waw	I	Waw			
c	CLS+V-SUJ	c			
koi	PROWH	koi			
ce	DET	ce			
plat	NC	plat			
de	P	de			
ouf	ADJ	ouf			
,	PONCT	,			
					
c	CLS+V-SUJ	c			
pour	P	pour			
150	DET	150			
Personne	NC	Personne			
omoin	ADV	omoin			
					
<META>	META	<META>			
					
9.2.2	DET	9.2.2		META	
Fats	NC	Cllaude164	B-PERS	NPP	
Beng	NPP	Bidule164	I-PERS		
					
</META>	META	</META>			
					
Sisi	ADV-MOD	Sisi			
je	CLS-SUJ	je			
t'	CLO-OBJ	t'			
ai	V	ai			
vue	VPP	vue			
cette	DET	cette			
été	NC	été			
à	P	à			
goree	NPP	goree	B-LOC		
					
tes	CLS+V-SUJ	tes			
trop	ADV	trop			
belle	ADJ	belle			
					
tu	CLS-SUJ	tu			
déchire	V	déchire			
bisou	I	bisou			
					
<META>	META	<META>			
					
post_3	NC	post_3		META	
.	PONCT	.			
Marylou	NPP	Cllaude158	B-PERS		
Koh	NPP	Bidule158	I-PERS		
Lanta	NPP	Bidule158_2	I-PERS		
					
</META>	META	</META>			
					
Souvenir	NC	Souvenir			
,	PONCT	,			
Souvenir	NC	Souvenir			
!	PONCT	!			
					
<META>	META	<META>			
					
9.3.1	DET	9.3.1		META	
Mourad	NPP	Cllaude165	B-PERS		
Ghd	NPP	Bidule165	I-PERS		
					
</META>	META	</META>			
					
à	P	à			
koi	PROWH	koi			
tu	CLS-SUJ	tu			
pensé	V	pensé			
a	P	a			
ce	DET	ce			
moment	NC	moment			
??	PONCT	??			
					
<META>	META	<META>			
					
9.3.2	DET	9.3.2		META	
Nicolas	NPP	Cllaude166	B-PERS		
Godard	NPP	Bidule166	I-PERS		
					
</META>	META	</META>			
					
bon	ADJ	bon			
souvenir	NC	souvenir			
je	CLS-SUJ	je			
penses	V	penses			
,	PONCT	,			
					
vas	V	vas			
tu	CLS-SUJ	tu			
revenir	VINF	revenir			
l	DET	l			
an	NC	an			
prochain	ADJ	prochain			
???	PONCT	???			
surprise	NC	surprise			
surprise	NC	surprise			
hein	I	hein			
lol	I	lol			
					
<META>	META	<META>			
					
post_3	META	post_3			
.	META	.			
Salam	I	Salam		ET	
tout	ADJ	tout			
le	DET	le			
monde	NC	monde			
.	PONCT	.			
					
</META>	META	</META>			
					
C'	CLS-SUJ	C'			
est	V	est			
parti	VPP	parti			
!	PONCT	!			
					
Bon	ADJ	Bon			
ramadan	NC	ramadan			
à	P	à			
tout	ADJ	tout			
les	DET	les			
musulmans	NC	musulmans			
bon	ADJ	bon			
courage	NC	courage			
avec	P	avec			
cette	DET	cette			
chaleur	NC	chaleur			
.	PONCT	.			
					
Marylou	NPP	Marylou	B-PERS		
.	PONCT	.			
					
<META>	META	<META>			
					
9.4.1	DET	9.4.1		META	
Mourad	NPP	Cllaude165	B-PERS		
Ghd	NPP	Bidule165	I-PERS		
					
</META>	META	</META>			
					
Alkm	ET	Alkm			
salem	ET	salem			
bon	ADJ	bon			
ramadan	NC	ramadan			
a	P	a			
vous	PRO	vous			
tous	PRO	tous			
!!!!	PONCT	!!!!			
					
K	CS	K			
la	DET	la			
foi	NC	foi			
soit	VS	soit			
avc	P	avc			
nous	PRO	nous			
!!!	PONCT	!!!			
					
<META>	META	<META>			
					
9.4.2	DET	9.4.2			
Nasser	NPP	Cllaude167	B-PERS		
Bouchama	NPP	Bidule167	I-PERS		
					
</META>	META	</META>			
					
mille	DET	mille			
merci	I	merci			
et	CC	et			
a	P	a			
toi	PRO	toi			
aussi	ADV	aussi			
ainsi	YM	ainsi			
qu	CC	qu			
a	P	a			
tous	PRO	tous			
					
<META>	META	<META>			
					
9.4.3	DET	9.4.3			
Salma	NPP	Cllaude162	B-PERS		
Chiadmi	NPP	Bidule162	I-PERS		
					
</META>	META	</META>			
					
tu	CLS-SUJ	tu			
sais	V	sais			
parler	VINF	parler			
marocain	NC	marocain			
!!!	PONCT	!!!			
cooool	I	cooool			
!!!	PONCT	!!!			
					
tu	CLS-SUJ	tu			
connais	V	connais			
ramadan	NC	ramadan			
!!	PONCT	!!			
colll	I	colll			
et	CC	et			
mrc	I	mrc			
					
<META>	META	<META>			
					
post_4	NC	post_4		META	
.	PONCT	.			
Marylou	NPP	Marylou	B-PERS		
Koh	NPP	Koh	I-PERS		
Lanta	NPP	Lanta	I-PERS		
					
</META>	META	</META>			
					
Camille	NPP	Camille	B-PERS		
et	CC	et			
moi	PRO	moi			
K-Myyye	ET	K-Myyye			
/	PONCT	/			
					
<META>	META	<META>			
					
9.5.1	DET	9.5.1		META	
Amine	NC	Cllaude169	B-PERS	NPP	
Bastos	NPP	Bidule169	I-PERS		
					
</META>	META	</META>			
					
Camille	NPP	Camille	B-PERS		
c'	CLS-SUJ	c'			
est	V	est			
ma	DET	ma			
jaune	NC	jaune			
préférée	VPP	préférée			
mais	CC	mais			
Marylou	NPP	Marylou	B-PERS		
reste	V	reste			
la	DET	la			
meilleure	ADJ	meilleure			
des	P+D	des			
filles	NC	filles			
cette	DET	cette			
saison	NC	saison			
!	PONCT	!			
					
<META>	META	<META>			
					
9.5.2	DET	9.5.2		META	
Rudy	NPP	Cllaude170	B-PERS		
Lemaire	NPP	Bidule170	I-PERS		
					
</META>	META	</META>			
					
je	CLS-SUJ	je			
vous	CLO-OBJ	vous			
adore	V	adore			
					
vous	CLS-SUJ	vous			
aver	V	aver			
de	YM	de			
la	DET	la			
chance	NC	chance			
d'	P	d'			
avoirs	VINF	avoirs			
fai	VPP	fai			
Koh-lanta	NPP	Koh-lanta	B-OTH:MEDIA		
					
<META>	META	<META>			
					
9.5.3	DET	9.5.3		META	
Stephane	NC	Cllaude171	B-PERS		
Fanovo	NPP	Bidule171	I-PERS		
					
</META>	META	</META>			
					
Vous	CLS-SUJ	Vous			
ete	V	ete			
pa	ADV-MOD	pa			
ls	DET	ls			
mm	ADJ	mm			
dan	P	dan			
koh	NPP	koh	B-OTH:MEDIA		
lanta	NPP	lanta	I-OTH:MEDIA		
					
vous	CLS-SUJ	vous			
ete	V	ete			
jolie	ADJ	jolie			
					
j'	CLS-SUJ	j'			
ai	V	ai			
suivi	VPP	suivi			
votre	DET	votre			
aventures	NC	aventures			
dan	P	dan			
koh	NPP	koh	B-OTH:MEDIA		
lanta	NPP	lanta	I-OTH:MEDIA		
					
<META>	META	<META>			
					
9.5.4	DET	9.5.4		META	
Fabien	NPP	Cllaude172	B-PERS		
Poulard	NPP	Bidule172	I-PERS		
					
</META>	META	</META>			
					
2	DET	2			
bombasses	NC	bombasses			
					
<META>	META	<META>			
					
9.5.5	DET	9.5.5		META	
Fripon	NC	Cllaude173	B-PERS	NPP	
Brd	NPP	Bidule173	I-PERS		
					
</META>	META	</META>			
					
troooooooooooooooop	ADV	troooooooooooooooop			
bellllllllllllllllllle	ADJ	bellllllllllllllllllle			
!!!!!!!!!!!!	PONCT	!!!!!!!!!!!!			
					
<META>	META	<META>			
					
9.5.6	DET	9.5.6		META	
Olivier	NPP	Cllaude536	B-PERS		
Mysus	NPP	Bidule536	I-PERS		
					
</META>	META	</META>			
					
bj	I	bj			
je	CLS-SUJ	je			
suis	V	suis			
toujour	ADV-MOD	toujour			
acro	ADJ	acro			
bisous	I	bisous			
de	P	de			
bordeaux	NPP	bordeaux	B-LOC		
					
<META>	META	<META>			
					
post_1	ADJ	post_1		META	
.	PONCT	.			
Nabilla	NPP	Nabilla	B-PERS		
Benattia	NPP	Benattia	I-PERS		
					
</META>	META	</META>			
					
<META>	META	<META>			
					
10.1.1	DET	10.1.1		META	
Cindy	NPP	Cllaude175	B-PERS		
Giogli	NPP	Bidule175	I-PERS		
					
</META>	META	</META>			
					
C'	CLS-SUJ	C'			
est	V	est			
juste	ADV-MOD	juste			
pour	P	pour			
faire	VINF	faire			
le	DET	le			
buzz	NC	buzz			
vu	VPP	vu			
qu'	CS	qu'			
on	CLS-SUJ	on			
parle	V	parle			
plus	ADV-MOD	plus			
d'	P	d'			
elle	PRO	elle			
mais	CC	mais			
sa	PRO	sa			
ne	ADV-MOD	ne			
changera	V	changera			
pas	ADV-MOD	pas			
					
t'	CLS-SUJ	t'			
es	V	es			
fini	VPP	fini			
nabila	NPP	nabila	B-PERS		
					
<META>	META	<META>			
					
10.1.2	DET	10.1.2		META	
Tom	NPP	Cllaude176	B-PERS		
Darmon	NPP	Bidule176	I-PERS		
					
</META>	META	</META>			
					
Et	CC	Et			
toi	PRO	toi			
on	CLS-SUJ	on			
a	V	a			
déja	ADV-MOD	déja			
parlé	VPP	parlé			
de	P	de			
toi	PRO	toi			
?	PONCT	?			
					
Perso	ADV-MOD	Perso			
0	-NONE-	0			
Cindy	NPP	Cllaude175	B-PERS		
Giolgli	NPP	Bidule175	I-PERS		
ça	PRO	ça			
me	CLO-A_OBJ	me			
dit	V	dit			
rien	YM	rien			
du	YM	du			
tout	PRO	tout			
					
<META>	META	<META>			
					
10.1.3	DET	10.1.3		META	
Léa	NPP	Cllaude177	B-PERS		
Rossignol	NPP	Bidule177	I-PERS		
					
</META>	META	</META>			
					
J'	CLS-SUJ	J'			
avoue	V	avoue			
comparer	VPP	comparer			
a	P	a			
elle	PRO	elle			
t'	CLS-SUJ	t'			
s	V	s			
une	DET	une			
merde	NC	merde			
					
<META>	META	<META>			
					
10.1.4	DET	10.1.4		META	
Zina	NPP	Cllaude178	B-PERS		
Ben-salem	NPP	Bidule178	I-PERS		
					
</META>	META	</META>			
					
vu	VPP	vu			
sa	DET	sa			
tete	NC	tete			
c	CLS+V-SUJ	c			
normal	ADJ	normal			
kon	CS+CLS-SUJ	kon			
est	VS	est			
jms	ADV-MOD	jms			
parler	VPP	parler			
d'	P	d'			
elle	PRO	elle			
!	PONCT	!			
					
es	DET	es			
gens	NC	gens			
d	P	d			
rageux	ADJ	rageux			
c	CLS+V-SUJ	c			
grave	ADJ	grave			
!!!	PONCT	!!!			
					
<META>	META	<META>			
					
10.1.5	DET	10.1.5		META	
Tcherlita	NPP	Cllaude179	B-PERS		
LyLyta-Bella	NPP	Bidule179	I-PERS		
					
</META>	META	</META>			
					
pk	ADVWH-MOD	pk			
tu	CLS-SUJ	tu			
commente	V	commente			
alors	ADV-MOD	alors			
?	PONCT	?			
tu	CLS-SUJ	tu			
pue	V	pue			
la	DET	la			
jalousie	NC	jalousie			
Nabilux	NPP	Nabilux	B-PERS		
					
<META>	META	<META>			
					
10.1.6	DET	10.1.6		META	
Lou	NPP	Cllaude180	B-PERS		
Cano	NPP	Bidule180	I-PERS		
					
</META>	META	</META>			
					
Y	CLS-SUJ	Y			
se	CLR	se			
sont	V	sont			
remis	VPP	remis			
ensemble	ADV-MOD	ensemble			
?	PONCT	?			
					
<META>	META	<META>			
					
10.1.7	DET	10.1.7		META	
Damien	NPP	Cllaude181	B-PERS		
Latouche	NPP	Bidule181	I-PERS		
					
</META>	META	</META>			
					
47	DET	47			
j'	CLS-SUJ	j'			
aime	V	aime			
en	P	en			
4	DET	4			
secondes	NC	secondes			
abuser	VINF	abuser			
XD	I	XD			
					
<META>	META	<META>			
					
post_2	ADJ	post_2		META	
.	PONCT	.			
Nabilla	NPP	Nabilla	B-PERS		
Benattia	NPP	Benattia	I-PERS		
					
</META>	META	</META>			
					
#famillyfirst	HT	#famillyfirst			
#comingsoon	HT	#comingsoon			
					
<META>	META	<META>			
					
10.2.1	META	10.2.1	B-OTH		
Nadège	NC	Cllaude182	B-PERS	NPP	
Swika	NPP	Bidule182	I-PERS		
					
</META>	META	</META>			
					
Ils	CLS-SUJ	Ils			
polluent	V	polluent			
la	DET	la			
tv	NC	tv			
pfffff	I	pfffff			
qu	CS	qu			
ils.restent	CLS+V	ils.restent			
chez	P	chez			
eux	PRO	eux			
					
<META>	META	<META>			
					
10.2.2	DET	10.2.2		META	
Francezu	NC	Cllaude183	B-PERS	NPP	
Dylau	P+D	Bidule183	I-PERS	NPP	
					
</META>	META	</META>			
					
Swag	I	Swag			
nabilla	NPP	nabilla	B-PERS		
j'	CLS-SUJ	j'			
aime	V	aime			
beaucoup	ADV-MOD	beaucoup			
mon	DET	mon			
amour	NC	amour			
					
<META>	META	<META>			
					
10.2.3	DET	10.2.3		META	
Douceur	NC	Cllaude184	B-PERS	NPP	
Leger	NPP	Bidule184	I-PERS		
					
</META>	META	</META>			
					
Ok	ADV-MOD	Ok			
leur	DET	leur			
truck	NC	truck			
a	V	a			
fait	VPP	fait			
un	DET	un			
flop	NC	flop			
ou	CC	ou			
pa	ADV	pa			
j'	CLS-SUJ	j'			
ai	V	ai			
pa	ADV-MOD	pa			
compri	VPP	compri			
					
<META>	META	<META>			
					
10.2.4	DET	10.2.4		META	
Stella	NPP	Cllaude185	B-PERS		
Paprika	NPP	Bidule185	I-PERS		
					
</META>	META	</META>			
					
Thomas	NPP	Thomas	B-PERS		
stoplé	ADV-MOD	stoplé			
qitte	VIMP	qitte			
nabila	NC	nabila	B-PERS	NPP	
je	CLS-SUJ	je			
te	CLO-OBJ	te			
rendrez	V	rendrez			
heureus	ADJ	heureus			
					
<META>	META	<META>			
					
10.2.5	DET	10.2.5		META	
Selena	NPP	Cllaude186	B-PERS		
Baali	NPP	Bidule186	I-PERS		
					
</META>	META	</META>			
					
Trot	ADV	Trot			
belle	ADJ	belle			
ta	CLS+V-SUJ	ta			
des	DET	des			
haïr	NC	haïr			
de	P	de			
Kim	NPP	Kim	B-PERS		
et	CC	et			
de	P	de			
rihanna	NPP	rihanna	B-PERS		
-LRB-	Y	-LRB-			
:	I	:			
					
<META>	META	<META>			
					
post_3	NC	post_3		META	
.	PONCT	.			
Nabilla	NPP	Nabilla	B-PERS		
Benattia	NPP	Benattia	I-PERS		
					
</META>	META	</META>			
					
—	PONCT	—			
avec	P	avec			
Nabilla	NPP	Nabilla	B-PERS		
Benattia	NPP	Benattia	I-PERS		
.	PONCT	.			
					
<META>	META	<META>			
					
10.3.1	DET	10.3.1		META	
Thibaut	NC	Cllaude187	B-PERS	NPP	
Jacob	NPP	Bidule187	I-PERS		
					
</META>	META	</META>			
					
Joyeux	ADJ	Joyeux			
anniversaire	NC	anniversaire			
Nabilouche	NPP	Nabilouche	B-PERS		
					
<META>	META	<META>			