token	tag	token anonymisé	EN	Tag corrigé	Notes / remarques
•أسراق•	ET	JohnDoe730			
@_GoldenBoyCR7	NPP	@JohnDoe730	B-PERS		
43	DET	43			
min	NC	min			
					
-LT-/META-GT-	META	-LT-/META-GT-			
					
C'	CLS-SUJ	C'			
est	V	est			
un	DET	un			
bon	ADJ	bon			
Zlatan	NPP	Zlatan	B-PERS		
il	CLS-SUJ	il			
me	CLO-A_OBJ	me			
prête	V	prête			
ses	DET	ses			
CB	NC	CB			
crédit	NC	crédit			
illimité	VPP	illimité			
👌💳💰	KK	👌💳💰			
pic.twitter.com/2XrV3ooh3D	NPP	WWW41			
					
-LT-META-GT-	META	-LT-META-GT-			
					
M'	CLR	M'			
en	CLO-DE_OBJ	en			
ouf	V	ouf			
.	PONCT	.			
@DylanRonaaldo	NPP	@JohnDoe731	B-PERS		
44	DET	44			
min	NC	min			
					
-LT-/META-GT-	META	-LT-/META-GT-			
					
Pq	ADVWH-MOD	Pq			
Falcao	NPP	Falcao	B-PERS		
s'	CLR	s'			
est	V	est			
blessé	VPP	blessé			
?	PONCT	?			
Et	CC	Et			
pas	ADV	pas			
Zlatan	NPP	Zlatan	B-PERS		
?	PONCT	?			
Franchement	ADV	Franchement			
pourquoi	ADVWH	pourquoi			
,	PONCT	,			
pourquoi	ADVWH	pourquoi			
?!	PONCT	?!			
					
-LT-META-GT-	META	-LT-META-GT-			
					
GaToFraiSe	ET	JohnDoe732	B-PERS	NPP	
@GatierGatier	NPP	@JohnDoe732	B-PERS		
48	DET	48			
min	NC	min			
					
-LT-/META-GT-	META	-LT-/META-GT-			
					
Zlatan	NPP	Zlatan	B-PERS		
ne	ADV-MOD	ne			
le	CLO-OBJ	le			
dis	V	dis			
pas	ADV-OBJ	pas			
mais	CC	mais			
son	DET	son			
plat	NC	plat			
du	P+D	du			
pied	NC	pied			
c'	CLS-SUJ	c'			
est	V	est			
moi	PRO	moi			
qui	PROREL	qui			
lui	CLO-A_OBJ	lui			
a	V	a			
montré	VPP	montré			
!	PONCT	!			
					
-LT-META-GT-	META	-LT-META-GT-			
					
Sun	ET	Sun	B-OTH:MEDIA		
Sports	ET	Sports	I-OTH:MEDIA		
-LRB-	PONCT	-LRB-			
Nantes	NPP	Nantes	B-LOC		
-RRB-	PONCT	-RRB-			
@Sun_Sports	NPP	@Sun_Sports	B-OTH:MEDIA		
54	DET	54			
min	NC	min			
					
-LT-/META-GT-	META	-LT-/META-GT-			
					
Gakpé	NPP	Gakpé	B-PERS		
@SergeGKP	NPP	@SergeGKP	B-PERS		
:	PONCT	:			
"	PONCT	"			
Des	DET	Des			
erreurs	NC	erreurs			
qui	PROREL	qui			
se	CLR	se			
paient	V	paient			
cash	NC	cash			
.	PONCT	.			
Il	CLS-SUJ	Il			
-LRB-	PONCT	-LRB-			
Zlatan	NPP	Zlatan	B-PERS		
-RRB-	PONCT	-RRB-			
met	V	met			
un	DET	un			
but	NC	but			
de	P	de			
fou	ADJ	fou			
.	PONCT	.			
On	CLS-SUJ	On			
a	V	a			
la	DET	la			
chance	NC	chance			
d'	P	d'			
enchaîner	VINF	enchaîner			
dimanche	NC	dimanche			
contre	P	contre			
@OL	NPP	@OL	B-ORG		
"	PONCT	"			
#FCNLive	HT	#FCNLive			
					
-LT-META-GT-	META	-LT-META-GT-			
					
Christopher	NPP	Christopher	B-PERS		
Oualembo	NPP	Oualembo	I-PERS		
@OualembOfficial	NPP	@OualembOfficial	B-PERS		
56	DET	56			
min	NC	min			
					
-LT-/META-GT-	META	-LT-/META-GT-			
					
Je	CLS-SUJ	Je			
le	CLO-OBJ	le			
redis	V	redis			
:	PONCT	:			
En_ce_qui_concerne	P	En_ce_qui_concerne			
le	DET	le			
Football	NC	Football			
,	PONCT	,			
il_y_a	V-SUJ-OBJ	il_y_a			
les	DET	les			
Footballeurs	NC	Footballeurs			
et	CC	et			
les	DET	les			
autres	PRO	autres			
.	PONCT	.			
					
Les	DET	Les			
autres	PRO	autres			
c'	CLS-SUJ	c'			
est	V	est			
Zlatan	NPP	Zlatan	B-PERS		
.	PONCT	.			
					
-LT-META-GT-	META	-LT-META-GT-			
					
Cap	Y	Cap			
'	Y	'			
s	ET	s			
Man	ET	Man			
@ConeauPY	NPP	@JohnDoe734	B-PERS		
1	DET	1			
h	NC	h			
					
-LT-/META-GT-	META	-LT-/META-GT-			
					
Zlatan	NPP	Zlatan	B-PERS		
c'	CLS-SUJ	c'			
est	V	est			
pas	ADV-MOD	pas			
que	CS	que			
je	CLS-SUJ	je			
l'	CLO-OBJ	l'			
aime	V	aime			
ap	ADV-MOD	ap			
,	PONCT	,			
c'	CLS-SUJ	c'			
est	V	est			
un	DET	un			
ptn	NC	ptn			
de	P	de			
joueur	NC	joueur			
mais	CC	mais			
le	DET	le			
mec	NC	mec			
ça	PRO	ça			
y	CLO-OBJ	y			
est	V	est			
il_y_a	V-SUJ-OBJ	il_y_a			
une	DET	une			
ptite	ADJ	ptite			
altercation	NC	altercation			
,	PONCT	,			
le	DET	le			
mec	NC	mec			
arrive	V	arrive			
pour	P	pour			
faire	VINF	faire			
l'	DET	l'			
boss	NC	boss			
					
-LT-META-GT-	META	-LT-META-GT-			
					
UN	DET	UN			
BEAU	NC	BEAU			
MEC	P	MEC			
✌️	ET	✌️			
@AM10___	NPP	@JohnDoe735	B-PERS		
1	DET	1			
h	NC	h			
					
-LT-/META-GT-	META	-LT-/META-GT-			
					
_URL	META	_URL			
erneremp	ET	erneremp	B-PERS		
:	PONCT	:			
Zlatan	NPP	Zlatan	B-PERS		
tout	ADJ	tout			
le	DET	le			
monde	NC	monde			
le	CLO-OBJ	le			
croyais	V	croyais			
invincible	ADJ	invincible			
,	PONCT	,			
il	CLS-SUJ	il			
a	V	a			
était	VPP	était			
dressé	VPP	dressé			
par	P	par			
mavuba	NPP	mavuba	B-PERS		
pic.twitter.com/mnOPc8Zybx	NPP	WWW42			
"	PONCT	"			
SUCE	VIMP	SUCE			
LES	DET	LES			
LILLOIS	NC	LILLOIS			
NAN	ADV-MOD	NAN			
?	PONCT	?			
					
-LT-META-GT-	META	-LT-META-GT-			
					
#	ET	#			
⃣	ET	⃣			
@FalckoFener	NPP	@JohnDoe736	B-PERS		
1	DET	1			
h	NC	h			
					
-LT-/META-GT-	META	-LT-/META-GT-			
					
Un	DET	Un			
mec	NC	mec			
a	V	a			
pris	VPP	pris			
le	DET	le			
taxi	NC	taxi			
à	P	à			
Stockholm	NPP	Stockholm	B-LOC		
il	CLS-SUJ	il			
a	V	a			
retrouvé	VPP	retrouvé			
le	DET	le			
portefeuille	NC	portefeuille			
de	P	de			
...	PONCT	...			
Zlatan	NPP	Zlatan	B-PERS		
,	PONCT	,			
c'	CLS-SUJ	c'			
était	V	était			
il_y_a	P	il_y_a			
quelques	DET	quelques			
jours	NC	jours			
.	PONCT	.			
pic.twitter.com/A0MlLCzZM2	NPP	WWW86			
					
-LT-META-GT-	META	-LT-META-GT-			
					
SCHATTEMAN	P	JohnDoe737	B-PERS	NPP	
123	DET	123	I-PERS		
@Schatteman_	NPP	@JohnDoe737	B-PERS		
1	ADJ	1			
h	NC	h			
					
-LT-/META-GT-	META	-LT-/META-GT-			
					
Un	DET	Un			
mec	NC	mec			
à	P	à			
Stockholm	NPP	Stockholm	B-LOC		
à	V	à			
trouvé	VPP	trouvé			
les	DET	les			
cartes	NC	cartes			
bleues	ADJ	bleues			
de	P	de			
Zlatan	NPP	Zlatan	B-PERS		
dans	P	dans			
un	DET	un			
taxi	NC	taxi			
..	PONCT	..			
Que	ADV	Que			
des	DET	des			
blacks	ADJ	blacks			
..	PONCT	..			
Oklm	I	Oklm			
pic.twitter.com/3rzubtavsy	NPP	WWW87			
					
-LT-META-GT-	META	-LT-META-GT-			
					
OÜI	ET	OÜI	B-OTH:MEDIA	NPP	
FM	ET	FM	I-OTH:MEDIA	NPP	
@ouifm	NPP	@ouifm	B-OTH:MEDIA		
1	DET	1			
h	NC	h			
					
-LT-/META-GT-	META	-LT-/META-GT-			
					
J'	CLS-SUJ	J'			
ai	V	ai			
l'	DET	l'			
impression	NC	impression			
que	CS	que			
@ouifm	NPP	@ouifm	B-OTH:MEDIA		
,	PONCT	,			
la	DET	la			
nuit	NC	nuit			
,	PONCT	,			
c'	CLS-SUJ	c'			
est	V	est			
comme	P	comme			
une	DET	une			
attaque	NC	attaque			
de	P	de			
#ZLATAN	HT	#ZLATAN	B-PERS		
!!!!!!	PONCT	!!!!!!			
C'	CLS-SUJ	C'			
est	V	est			
gagnant	VPR	gagnant			
;-RRB-	I	;-RRB-			
					
-LT-META-GT-	META	-LT-META-GT-			
					
L'	DET	L'			
ÉPIQUE	NPP	JohnDoe738			
@Iepique	NPP	@JohnDoe738	B-PERS		
1	ADJ	1			
h	NC	h			
					
-LT-/META-GT-	META	-LT-/META-GT-			
					
Zlatan	NPP	Zlatan	B-PERS		
Ibrahimovic	NPP	Ibrahimovic	I-PERS		
:	PONCT	:			
"	PONCT	"			
J'	CLS-SUJ	J'			
aime	V	aime			
bien	ADV-MOD	bien			
jouer	VINF	jouer			
contre	P	contre			
cette	DET	cette			
équipe	NC	équipe			
car	CC	car			
le	DET	le			
gardien	NC	gardien			
est	V	est			
mauvais	ADJ	mauvais			
et	CC	et			
ça	PRO	ça			
me	CLO-A_OBJ	me			
permet	V	permet			
d'	P	d'			
améliorer	VINF	améliorer			
mes	DET	mes			
stats	NC	stats			
.	PONCT	.			
"	PONCT	"			
#FCNPSG	HT	#FCNPSG			
#PSG	HT	#PSG	B-ORG		
					
-LT-META-GT-	META	-LT-META-GT-			
					
One-R	NPP	One-R			
CLV	NPP	CLV			
@Jamais_A_lheure	NPP	@JohnDoe739	B-PERS		
1	ADJ	1			
h	NC	h			
					
-LT-/META-GT-	META	-LT-/META-GT-			
					
La	DET	La			
nationalité	NC	nationalité			
Béninoise	ADJ	Béninoise			
vient	V	vient			
d'	P	d'			
être	VINF	être			
accordée	VPP	accordée			
à	P	à			
Zlatan	NPP	Zlatan	B-PERS		
#bravo	HT	#bravo			
					
-LT-META-GT-	META	-LT-META-GT-			
					
JF	NPP	Cllaude506	B-PERS		
Paturaud	NPP	Bidule506	I-PERS		
@JFPaturaud	NPP	@CllaudeBidule506	B-PERS		
2	ADJ	2			
h	NC	h			
					
-LT-/META-GT-	META	-LT-/META-GT-			
					
Dany	NPP	Dany	B-PERS		
la	DET	la	I-PERS		
Mèche	NPP	Mèche	I-PERS		
n'	ADV-MOD	n'			
a	V	a			
toujours	ADV	toujours			
pas	ADV	pas			
interviewé	VPP	interviewé			
Zlatan	NPP	Zlatan	B-PERS		
.	PONCT	.			
Vivement	ADV	Vivement			
la	DET	la			
finale	NC	finale			
.	PONCT	.			
Dany	NPP	Dany	B-PERS		
,	PONCT	,			
what	ET	what			
else	ET	else			
?	PONCT	?			
#laclasse	HT	#laclasse			
pic.twitter.com/vUtPsia1dc	NPP	WWW43			
					
-LT-META-GT-	META	-LT-META-GT-			
					
Mélodie	NC	JohnDoe740	B-PERS	NPP	
✨	P	✨	I-PERS	I	
@loudelou1	NPP	@JohnDoe740	B-PERS		
2	ADJ	2			
h	NC	h			
					
-LT-/META-GT-	META	-LT-/META-GT-			
					
Cartes	NC	Cartes			
bancaires	ADJ	bancaires			
de	P	de			
Zlatan	NPP	Zlatan	B-PERS		
retrouvés	VPP	retrouvés			
dans	P	dans			
un	DET	un			
taxi	NC	taxi			
...	PONCT	...			
On	CLS-SUJ	On			
en	CLO-DE_OBJ	en			
parle	V	parle			
ou	CC	ou			
pas	ADV	pas			
pic.twitter.com/a4q6xEGaev	NPP	WWW44			
					
-LT-META-GT-	META	-LT-META-GT-			
					
Alvaro	ET	JohnDoe741	B-PERS	NPP	
@ARISOVITCH	NPP	@JohnDoe741	B-PERS		
2	DET	2			
h	NC	h			
					
-LT-/META-GT-	META	-LT-/META-GT-			
					
Je	CLS-SUJ	Je			
n'	ADV-MOD	n'			
ai	V	ai			
confiance	NC	confiance			
qu'	ADV-MOD	qu'			
en	P	en			
mon	DET	mon			
desert	NC	desert			
eagle	NPP	eagle			
et	CC	et			
en	P	en			
Zlatan	NPP	Zlatan	B-PERS		
dans	P	dans			
les	DET	les			
arrêts	NC	arrêts			
d'	P	d'			
jeu	NC	jeu			
.	PONCT	.			
					
-LT-META-GT-	META	-LT-META-GT-			
					
Histoire	NC	Histoire			
du	P+D	du			
#PSG	HT	#PSG	B-ORG		
@Histoire_du_PSG	NPP	@Histoire_du_PSG	B-OTH:MEDIA		
2	ADJ	2			
h	NC	h			
					
-LT-/META-GT-	META	-LT-/META-GT-			
					
Avec	P	Avec			
66	DET	66			
buts	NC	buts			
au	P+D	au			
#PSG	HT	#PSG	B-ORG		
,	PONCT	,			
Zlatan	NPP	Zlatan	B-PERS		
IBRAHIMOVIC	NPP	IBRAHIMOVIC	I-PERS		
n'	ADV-MOD	n'			
est	V	est			
plus	ADV-MOD	plus			
qu'	ADV-MOD	qu'			
à	P	à			
5	DET	5			
buts	NC	buts			
de	P	de			
Carlos	NPP	Carlos	B-PERS		
BIANCHI	NPP	BIANCHI	I-PERS		
,	PONCT	,			
et	CC	et			
6	PRO	6			
de	P	de			
RAÏ	NPP	RAÏ	B-PERS		
...	PONCT	...			
c'	CLS-SUJ	c'			
est	V	est			
incroyable	ADJ	incroyable			
.	PONCT	.			
pic.twitter.com/ZjgdAOoYZe	NPP	pic.twitter.com/ZjgdAOoYZe			
					
-LT-META-GT-	META	-LT-META-GT-			
					
Pastore	ADV	Pastore	B-PERS	NPP	
#27	HT	#27			
❤️⚽️	ET	❤️⚽️		I	
@Morgaane__P	NPP	@JohnDoe742	B-PERS		
2	DET	2			
h	NC	h			
					
-LT-/META-GT-	META	-LT-/META-GT-			
					
J'	CLS-SUJ	J'			
sais	V	sais			
pas	ADV-MOD	pas			
vous	PRO	vous			
,	PONCT	,			
mais	CC	mais			
de	P	de			
voir	VINF	voir			
la	DET	la			
joie	NC	joie			
des	P+D	des			
grands	ADJ	grands			
joueurs	NC	joueurs			
comme	P	comme			
Zlatan	NPP	Zlatan	B-PERS		
,	PONCT	,			
Motta	NPP	Motta	B-PERS		
,	PONCT	,			
Verratti	NPP	Verratti	B-PERS		
je	CLS-SUJ	je			
trouve	V	trouve			
ça	PRO	ça			
magnifique	ADJ	magnifique			
👌💙❤️🙈	I	👌💙❤️🙈			
#FCNPSG	HT	#FCNPSG			
#TeamPSG	HT	#TeamPSG			
					
-LT-META-GT-	META	-LT-META-GT-			
					
Toto	NC	Toto	B-PERS		
Riina	ET	Riina	I-PERS	NPP	
@JnounImpxct	NPP	@JohnDoe743	B-PERS		
2	DET	2			
h	NC	h			
					
-LT-/META-GT-	META	-LT-/META-GT-			
					
Zlatan	NPP	Zlatan	B-PERS		
il	CLS-SUJ	il			
fait	V	fait			
des	DET	des			
dégât	NC	dégât			
niveau	NC	niveau			
statistiques	NC	statistiques			
					
-LT-META-GT-	META	-LT-META-GT-			
					
LY69N	DET	JohnDoe744			
@LorenzLacazette	NPP	@JohnDoe744	B-PERS		
2	ADJ	2			
h	NC	h			
					
-LT-/META-GT-	META	-LT-/META-GT-			
					
Zlatan	NPP	Zlatan	B-PERS		
il	CLS-SUJ	il			
voulait	V	voulait			
pas	ADV-MOD	pas			
qu'	CS	qu'			
on	CLS-SUJ	on			
se	CLR	se			
couche	V	couche			
tard	ADV-MOD	tard			
le	DET	le			
coquin	NC	coquin			
					
-LT-META-GT-	META	-LT-META-GT-			
					
Nike	NPP	Nike	B-ORG		
Football	NPP	Football	I-ORG		
France	NPP	France	I-ORG		
@nikefootfrance	NPP	@nikefootfrance	B-ORG		
2	ADJ	2			
h	NC	h			
					
-LT-/META-GT-	META	-LT-/META-GT-			
					
Pas	ADV	Pas			
de	P	de			
place	NC	place			
pour	P	pour			
la	DET	la			
chance	NC	chance			
,	PONCT	,			
Zlatan	NPP	Zlatan	B-PERS		
a	V	a			
fait	VPP	fait			
parler	VINF	parler			
sa	DET	sa			
magie	NC	magie			
.	PONCT	.			
#OSECOMMEZLATAN	HT	#OSECOMMEZLATAN			
pic.twitter.com/1nA7CW7yRm	NPP	pic.twitter.com/1nA7CW7yRm			
					
-LT-META-GT-	META	-LT-META-GT-			
					
Paki✝	ADV	JohnDoe745	B-PERS	NPP	
@pakitoDanilo	NPP	@JohnDoe745	B-PERS		
2	DET	2			
h	NC	h			
					
-LT-/META-GT-	META	-LT-/META-GT-			
					
ZLATAN	NPP	ZLATAN	B-PERS		
est	V	est			
un	DET	un			
bon	ADJ	bon			
chasseur	NC	chasseur			
,	PONCT	,			
il	CLS-SUJ	il			
a	V	a			
tué	VPP	tué			
11	DET	11			
petits	ADJ	petits			
canards	NC	canards			
à	P	à			
lui	PRO	lui			
tout	ADV	tout			
seul	ADJ	seul			
pic.twitter.com/C6n4qrUCQI	NPP	WWW45			
					
-LT-META-GT-	META	-LT-META-GT-			
					
GuillaumeTC	NPP	JohnDoe746	B-PERS		
@GuillaumeTC	NPP	@JohnDoe746	B-PERS		
2	ADJ	2			
h	NC	h			
					
-LT-/META-GT-	META	-LT-/META-GT-			
					
Zlatan	NPP	Zlatan	B-PERS		
a	V	a			
encore	ADV-MOD	encore			
frappé	VPP	frappé			
!	PONCT	!			
					
#Thor	HT	#Thor	B-PERS		
#Ibrahimovic	HT	#Ibrahimovic	B-PERS		
#FCNPSG	HT	#FCNPSG			
#CroisonsLes	HT	#CroisonsLes			
pic.twitter.com/dDT49davpK	NPP	WWW46			
					
-LT-META-GT-	META	-LT-META-GT-			
					
Rêvons	V	Rêvons			
Plus	ADV	Plus			
Grand	ADJ	Grand			
!	PONCT	!			
@PSGDreamBigger	NPP	@JohnDoe747	B-PERS		
2	DET	2			
h	NC	h			
					
-LT-/META-GT-	META	-LT-/META-GT-			
					
On	CLS-SUJ	On			
va	V	va			
en	P	en			
finaaaaaaaaaaaaaaaaaaaaaaaaale	NC	finaaaaaaaaaaaaaaaaaaaaaaaaale			
!	PONCT	!			
Merci	I	Merci			
beaucoup	ADV	beaucoup			
Zlatan	NPP	Zlatan	B-PERS		
Ibrahimović	NPP	Ibrahimović	I-PERS		
♥	I	♥			
					
-LT-META-GT-	META	-LT-META-GT-			
					
Zlatan	NPP	Zlatan	B-PERS		
@vie_de_zlatan	NPP	@JohnDoe748	B-PERS		
2	ADJ	2			
h	NC	h			
					
-LT-/META-GT-	META	-LT-/META-GT-			
					
#Zlatan	HT	#Zlatan	B-PERS		
a	V	a			
inscrit	VPP	inscrit			
4	DET	4			
buts	NC	buts			
en	P	en			
2	DET	2			
matchs	NC	matchs			
face_à	P	face_à			
#Nantes	HT	#Nantes	B-LOC		Métonymie (désigne l'équipe de foot)
pic.twitter.com/EhUfutpV9c	NPP	WWW47			
					
-LT-META-GT-	META	-LT-META-GT-			
					
Toinou	ET	JohnDoe197	B-PERS	NPP	
@AntoineAudry_	NPP	@JohnDoe197	B-PERS		
2	DET	2			
h	NC	h			
					
-LT-/META-GT-	META	-LT-/META-GT-			
					
Encore	ADV	Encore			
bravo	NC	bravo			
à	P	à			
Zlatan	NPP	Zlatan	B-PERS		
pour	P	pour			
ses	DET	ses			
2	ADJ	2			
buts	NC	buts			
!!!	PONCT	!!!			
Finale	NC	Finale			
nous	CLO-MOD	nous			
voilà	V	voilà			
!!!	PONCT	!!!			
					
-LT-META-GT-	META	-LT-META-GT-			
					
Malika	NPP	Malika	B-PERS		
Menard	NPP	Menard	I-PERS		
@MenardMalika	NPP	@MenardMalika	B-PERS		
2	ADJ	2			
h	NC	h			
					
-LT-/META-GT-	META	-LT-/META-GT-			
					
Merci	I	Merci			
#zlatan	HT	#zlatan	B-PERS		
je	CLS-SUJ	je			
vais	V	vais			
pouvoir	VINF	pouvoir			
faire	VINF	faire			
de	DET	de			
beaux	ADJ	beaux			
rêves	NC	rêves			
...	PONCT	...			
#FCNPSG	HT	#FCNPSG			
bonne	ADJ	bonne			
nuit	NC	nuit			
les	DET	les			
amis	NC	amis			
#finale	HT	#finale			
#psg	HT	#psg	B-ORG		
					
-LT-META-GT-	META	-LT-META-GT-			
					
LudÖzil	DET	JohnDoe750	B-PERS	NPP	
@LudoBerthou	NPP	@JohnDoe750	B-PERS		
2	ADJ	2			
h	NC	h			
					
-LT-/META-GT-	META	-LT-/META-GT-			
					
Un	DET	Un			
mec	NC	mec			
a	V	a			
pris	VPP	pris			
le	DET	le			
taxi	NC	taxi			
a	P	a			
Stockholm	NPP	Stockholm	B-LOC		
y	YM	y			
'	YM	'			
a	P	a			
quelques	DET	quelques			
jours	NC	jours			
et	CC	et			
il	CLS-SUJ	il			
est	V	est			
tombé	VPP	tombé			
sur	P	sur			
le	DET	le			
portefeuille	NC	portefeuille			
de	P	de			
Zlatan	NPP	Zlatan	B-PERS		
pic.twitter.com/AvYoZMZfpa	NPP	WWW48			
					
-LT-META-GT-	META	-LT-META-GT-			
					
Kara	NPP	Cllaude508	B-PERS		
Laden	NPP	Bidule508	I-PERS		
@kara_ruskov	NPP	@CllaudeBidule508	B-PERS		
2	ADJ	2			
h	NC	h			
					
-LT-/META-GT-	META	-LT-/META-GT-			
					
"	PONCT	"			
ZLATAN	NPP	ZLATAN	B-PERS		
NE	ADV-MOD	NE			
PERD	V	PERD			
JAMAIS	ADV-MOD	JAMAIS			
"	PONCT	"			
COMME	P	COMME			
DANS	P	DANS			
LA	DET	LA			
PUB	NC	PUB			
MDDRR	I	MDDRR			
					
-LT-META-GT-	META	-LT-META-GT-			
					
Mustapha	NPP	Mustapha	B-PERS		
Kessous	NPP	Kessous	I-PERS		
@MustaphaKessous	NPP	@MustaphaKessous	B-PERS		
2	ADJ	2			
h	NC	h			
					
-LT-/META-GT-	META	-LT-/META-GT-			
					
Merci	I	Merci			
à	P	à			
Zlatan	NPP	Zlatan	B-PERS		
qui	PROREL	qui			
veut	V	veut			
apparemment	ADV-MOD	apparemment			
voir	VINF	voir			
le	DET	le			
doc	NC	doc			
aussi	ADV-MOD	aussi			
!	PONCT	!			
#infrarouge	HT	#infrarouge	B-OTH:MEDIA		
#françaisDorigineContrôlée	HT	#françaisDorigineContrôlée	B-OTH:MEDIA		
					
-LT-META-GT-	META	-LT-META-GT-			
					
Bruce	NPP	Bruce	B-PERS		
Grannec	NPP	Grannec	I-PERS		
@BruceGrannec	NPP	@BruceGrannec	B-PERS		
2	ADJ	2			
h	NC	h			
					
-LT-/META-GT-	META	-LT-/META-GT-			
					
:--LRB-	I	:--LRB-			
RT	NC	RT			
@PowePFR	NPP	@JohnDoe751	B-PERS		
Hihihihi	I	Hihihihi			
@BruceGrannec	NPP	@BruceGrannec	B-PERS		
tu	CLS-SUJ	tu			
mets	V	mets			
des	DET	des			
centre-têtes	NC	centre-têtes			
sur	P	sur			
Fifa	NPP	Fifa	B-OTH:GAME		
,	PONCT	,			
Zlatan	NPP	Zlatan	B-PERS		
met	V	met			
des	DET	des			
centre-têtes	NC	centre-têtes			
sur	P	sur			
ton	DET	ton			
équipe	NC	équipe			
ahahah	I	ahahah			
#OnRigolePoto	HT	#OnRigolePoto			
					
-LT-META-GT-	META	-LT-META-GT-			
					
DOUBLE	NC	DOUBLE			
ZERO	NPP	ZERO			
@MohLafrappe	NPP	@JohnDoe752	B-PERS		
2	ADJ	2			
h	NC	h			
					
-LT-/META-GT-	META	-LT-/META-GT-			
					
Le	DET	Le			
zen	NC	zen			
a	P	a			
zlatan	VPP	zlatan	B-PERS	NPP	
est	V	est			
petit	ADJ	petit			
comparé	VPP	comparé			
a	P	a			
son	DET	son			
talent	NC	talent			
					
-LT-META-GT-	META	-LT-META-GT-			
					
Mat.it	NPP	JohnDoe753	B-PERS		
'	PONCT	'	I-PERS		
@Matoys75	NPP	@JohnDoe753	B-PERS		
2	ADJ	2			
h	NC	h			
					
-LT-/META-GT-	META	-LT-/META-GT-			
					
Zlatan	NPP	Zlatan	B-PERS		
a	V	a			
joué	VPP	joué			
5	DET	5			
minutes	NC	minutes			
dans	P	dans			
ce	DET	ce			
match	NC	match			
...	PONCT	...			
deux	DET	deux			
buts	NC	buts			
😍	KK	😍			
					
-LT-META-GT-	META	-LT-META-GT-			
					
Frédéric	NPP	Cllaude510	B-PERS		
Laharie	NPP	Bidule510	I-PERS		
@FredLah	NPP	@CllaudeBidule510	B-PERS		
2	ADJ	2			
h	NC	h			
					
-LT-/META-GT-	META	-LT-/META-GT-			
					
Zlatan	NPP	Zlatan	B-PERS		
connaît	V	connaît			
les	DET	les			
heures	NC	heures			
de	P	de			
bouclage	NC	bouclage			
de	P	de			
la	DET	la			
presse	NC	presse			
régionale	ADJ	régionale			
lui	PRO	lui			
					
-LT-META-GT-	META	-LT-META-GT-			
					
Sébastien	NPP	Sébastien	B-PERS		
Thomas	NPP	Thomas	I-PERS		
@sebnantes	NPP	@sebnantes	B-PERS		
2	ADJ	2			
h	NC	h			
					
-LT-/META-GT-	META	-LT-/META-GT-			
					
Pfff	I	Pfff			
,	PONCT	,			
Zlatan	NPP	Zlatan	B-PERS		
aurait	V	aurait			
été	VPP	été			
plus	ADV	plus			
utile	ADJ	utile			
sur	P	sur			
M6	NPP	M6	B-OTH:MEDIA		
au	P+D	au			
même	ADJ	même			
moment	NC	moment			
,	PONCT	,			
la	DET	la			
princesse	NC	princesse			
Leia	NPP	Leia			
aurait	V	aurait			
bien	ADV-MOD	bien			
besoin	NC	besoin			
de	P	de			
lui	PRO	lui			
!	PONCT	!			
					
-LT-META-GT-	META	-LT-META-GT-			
					
Maxime	NPP	Cllaude512	B-PERS		
Médard	NPP	Bidule512	I-PERS		
@Maxime_Medard	NPP	@CllaudeBidule512	B-PERS		
2	ADJ	2			
h	NC	h			
					
-LT-/META-GT-	META	-LT-/META-GT-			
					
Magique	ADJ	Magique			
Zlatan	NPP	Zlatan	B-PERS		
qui	PROREL	qui			
met	V	met			
un	DET	un			
but	NC	but			
dans	P	dans			
les	DET	les			
3	ADJ	3			
dernières	ADJ	dernières			
minutes	NC	minutes			
!	PONCT	!			
					
-LT-META-GT-	META	-LT-META-GT-			
					
Nonoch	ET	JohnDoe754	B-PERS	NPP	
Ndengila™	ET	JohnDoe754_2	I-PERS	NPP	
@nonoch_style	NPP	@JohnDoe754	B-PERS		
2	DET	2			
h	NC	h			
					
-LT-/META-GT-	META	-LT-/META-GT-			
					
Faut	V	Faut			
le	CLO-OBJ	le			
comprendre	VINF	comprendre			
demain	ADV-MOD	demain			
Zlatan	NPP	Zlatan	B-PERS		
il	CLS-SUJ	il			
a	V	a			
taekwendo	NC	taekwendo			
les	DET	les			
gars	NC	gars			
mdr	I	mdr			
					
-LT-META-GT-	META	-LT-META-GT-			
					
La	DET	La			
Prince	NPP	Prince			
du	P+D	du			
PSG	NPP	PSG	B-ORG		
@AlKhelaifiPSG	NPP	@JohnDoe755	B-PERS		
2	DET	2			
h	NC	h			
					
-LT-/META-GT-	META	-LT-/META-GT-			
					
ET	CC	ET			
OUAIS	ADV-MOD	OUAIS			
BOGOSS	ADJ+NC	BOGOSS			
ZLATAN	NPP	ZLATAN	B-PERS		
,	PONCT	,			
NOUS	PRO	NOUS			
ON	CLS-SUJ	ON			
BAISE	V	BAISE			
LE	DET	LE			
CHAMPIONNAT	NC	CHAMPIONNAT			
FRANÇAIS	ADJ	FRANÇAIS			
					
-LT-META-GT-	META	-LT-META-GT-			
					
Jérémie	NPP	Jérémie	B-PERS		
Janot	NPP	Janot	I-PERS		
@jeremiejanot	NPP	@jeremiejanot	B-PERS		
2	ADJ	2			
h	NC	h			
					
-LT-/META-GT-	META	-LT-/META-GT-			
					
Je	CLS-SUJ	Je			
me	CLR	me			
demande	V	demande			
qui	PROWH	qui			
va	V	va			
terminer	VINF	terminer			
deuxième	ADJ	deuxième			
derrière	P	derrière			
Zlatan	NPP	Zlatan	B-PERS		
Ibrahimovic	NPP	Ibrahimovic	I-PERS		
pour	P	pour			
le	DET	le			
trophée	NC	trophée			
du	P+D	du			
meilleur	ADJ	meilleur			
joueur	NC	joueur			
de	P	de			
ligue	NC	ligue	B-OTH:GAME		
1	ADJ	1	I-OTH:GAME		
!!!!	PONCT	!!!!			
Trop	ADV	Trop			
fort	ADJ	fort			
!!	PONCT	!!			
					
-LT-META-GT-	META	-LT-META-GT-			
					
Ambassadeur	NC	Ambassadeur			
de	P	de			
Suède	NPP	Suède	B-LOC		
@AmbassadeurSE	NPP	@JohnDoe756			
2	DET	2			
h	NC	h			
					
-LT-/META-GT-	META	-LT-/META-GT-			
					
ZLATAN	NPP	ZLATAN	B-PERS		
!!!	PONCT	!!!			
Géant	NC	Géant			
!	PONCT	!			
Sauveur	NC	Sauveur			
!!	PONCT	!!			
Suédois	NC	Suédois			
!	PONCT	!			
Merci	I	Merci			
!	PONCT	!			
					
-LT-META-GT-	META	-LT-META-GT-			
					
GeRO	ET	JohnDoe757	B-PERS		
#YNWA	HT	JohnDoe757_2			
@IIGeROII	NPP	@JohnDoe757	B-PERS		
2	DET	2			
h	NC	h			
					
-LT-/META-GT-	META	-LT-/META-GT-			
					
J'	CLS-SUJ	J'			
avais	V	avais			
dit	VPP	dit			
quoi	PROWH	quoi			
avant	P	avant			
le	DET	le			
match	NC	match			
????	PONCT	????			
Doublé	NC	Doublé			
de	P	de			
ZLATAN	NPP	ZLATAN	B-PERS		
https://twitter.com/iigeroii/status/430792968665305088	NPP	WWW49			
...	PONCT	...			
#GeROLePoulpe	HT	JohnDoe757_3	B-PERS		
					
-LT-META-GT-	META	-LT-META-GT-			
					
c	CLS+V-SUJ	c			
kiki	NC	kiki	B-PERS		
le	DET	le	I-PERS		
coco	NC	coco	I-PERS		
@AlisonRd_	NPP	@JohnDoe758	B-PERS		
2	ADJ	2			
h	NC	h			
					
-LT-/META-GT-	META	-LT-/META-GT-			
					
Tfacon	ADV-MOD	Tfacon			
y	CLS+CLO-SUJ-OBJ	y			
'	PONCT	'			
a	V	a			
que	ADV-MOD	que			
Zlatan	NPP	Zlatan	B-PERS		
Zlatan	NPP	Zlatan	B-PERS		
Zlatan	NPP	Zlatan	B-PERS		
tout	ADJ	tout			
le	DET	le			
temps	NC	temps			
il	CLS-SUJ	il			
marque	V	marque			
wshhh	I	wshhh			
y	CLS+CLO-SUJ-OBJ	y			
'	PONCT	'			
a	V	a			
pas	ADV-MOD	pas			
d'_autres	DET	d'_autres			
joueurs	NC	joueurs			
ou	CC	ou			
quoi	PROWH	quoi			
					
-LT-META-GT-	META	-LT-META-GT-			
					
!!!	PONCT	!!!			
PostBadZed	NPP	PostBadZed			
!!!	PONCT	!!!			
@DikevHood	NPP	@JohnDoe759	B-PERS		
2	ADJ	2			
h	NC	h			
					
-LT-/META-GT-	META	-LT-/META-GT-			
					
Vos	DET	Vos			
gueul	NC	gueul			
ac	P	ac			
vos	DET	vos			
Zlatan	NPP	Zlatan	B-PERS		
					
-LT-META-GT-	META	-LT-META-GT-			
					
Mathieu	NPP	Cllaude514	B-PERS		
Faure	NPP	Bidule514	I-PERS		
@matfaure	NPP	@CllaudeBidule514	B-PERS		
2	ADJ	2			
h	NC	h			
					
-LT-/META-GT-	META	-LT-/META-GT-			
					
Tu	CLS-SUJ	Tu			
vois	V	vois			
Lionel	NPP	Lionel	B-PERS		
,	PONCT	,			
c'	CLS-SUJ	c'			
est	V	est			
pour	P	pour			
ça	PRO	ça			
que	CS	que			
tu	CLS-SUJ	tu			
peux	V	peux			
rester	VINF	rester			
dans	P	dans			
ton	DET	ton			
club	NC	club			
de	P	de			
SDF	NC	SDF			
.	PONCT	.			
On	CLS-SUJ	On			
n'	ADV-MOD	n'			
a	V	a			
pas	ADV-MOD	pas			
besoin	NC	besoin			
de	P	de			
toi	PRO	toi			
.	PONCT	.			
#Zlatan	HT	#Zlatan	B-PERS		
					
-LT-META-GT-	META	-LT-META-GT-			
					
Adrien	NPP	JohnDoe760	B-PERS		
@Adrien_D42	NPP	@JohnDoe760	B-PERS		
2	ADJ	2			
h	NC	h			
					
-LT-/META-GT-	META	-LT-/META-GT-			
					
But	NC	But			
de	P	de			
Paris	NPP	Paris	B-LOC		Métonymie (désigne l'équipe de foot)
!	PONCT	!			
Double	NC	Double			
de	P	de			
Zlatan	NPP	Zlatan	B-PERS		
1-2	NC	1-2			
					
On	CLS-SUJ	On			
la	CLO+V-OBJ	la			
presque	ADV	presque			
pas	ADV	pas			
vu	VPP	vu			
mais	CC	mais			
c'	CLS-SUJ	c'			
est	V	est			
ça	PRO	ça			
la	DET	la			
classe	NC	classe			
des	P+D	des			
très	ADV	très			
grand	ADJ	grand			
!	PONCT	!			
#FCNPSG	HT	#FCNPSG			
					
-LT-META-GT-	META	-LT-META-GT-			
					
Poum	ADV	Poum	B-PERS	I	
@ThiboCharlier	NPP	@JohnDoe761	B-PERS		
2	DET	2			
h	NC	h			
					
-LT-/META-GT-	META	-LT-/META-GT-			
					
Zlatan	NPP	Zlatan	B-PERS		
et	CC	et			
Ikea	NPP	Ikea	B-ORG		
ils	CLS-SUJ	ils			
doivent	V	doivent			
représenter	VINF	représenter			
99,9	DET	99,9			
%	NC	%			
du	P+D	du			
PIB	NC	PIB			
de	P	de			
la	DET	la			
suède	NPP	suède	B-LOC		
.	PONCT	.			
					
-LT-META-GT-	META	-LT-META-GT-			
					
Why	NPP	Why		ET	
Always	ADJ	Always		ET	
Me	NC	Me		ET	
?	PONCT	?			
@GuyotGeoffrey	NPP	@JohnDoe762	B-PERS		
2	ADJ	2			
h	NC	h			
					
-LT-/META-GT-	META	-LT-/META-GT-			
					
"	PONCT	"			
Il	CLS-SUJ	Il			
n'	ADV-MOD	n'			
y	CLO	y			
a	V	a			
qu'	ADV-MOD	qu'			
un	DET	un			
Zlatan	NPP	Zlatan	B-PERS		
"	PONCT	"			
					
-LT-META-GT-	META	-LT-META-GT-			
					
Paris	NPP	Paris	B-ORG		
Saint	NC	Saint	I-ORG	NPP	
Germain	NPP	Germain	I-ORG		
@LiveTweetPsg	NPP	@LiveTweetPsg	B-ORG		
2	ADJ	2			
h	NC	h			
					
-LT-/META-GT-	META	-LT-/META-GT-			
					
Énorme	ADJ	Énorme			
!	PONCT	!			
Le	DET	Le			
double	NC	double			
de	P	de			
Zlatan	NPP	Zlatan	B-PERS		
!	PONCT	!			
C'	CLS-SUJ	C'			
est	V	est			
qui	PROWH	qui			
le	DET	le			
patron	NC	patron			
!!!???	PONCT	!!!???			
#FCNPSG	HT	#FCNPSG			
#psg	HT	#psg	B-ORG		
					
-LT-META-GT-	META	-LT-META-GT-			
					
fennecz	ET	JohnDoe763	B-PERS		
@fennecz	NPP	@JohnDoe763	B-PERS		
2	DET	2			
h	NC	h			
					
-LT-/META-GT-	META	-LT-/META-GT-			
					
Le	DET	Le			
Z	NC	Z			
c'	CLS-SUJ	c'			
est	V	est			
lui	PRO	lui			
.	PONCT	.			
Pas	ADV	Pas			
Zlatan	NPP	Zlatan	B-PERS		
.	PONCT	.			
Merci	I	Merci			
.	PONCT	.			
❤️	I	❤️			
pic.twitter.com/AKB5e8upvd	NPP	WWW50			
					
-LT-META-GT-	META	-LT-META-GT-			
					
•	PONCT	•			
Wesh	ET	Wesh			
IGO	ET	IGO			
!	PONCT	!			
✌️	ET	✌️			
@NavLemsi	NPP	@JohnDoe764	B-PERS		
2	DET	2			
h	NC	h			
					
-LT-/META-GT-	META	-LT-/META-GT-			
					
Mdddddr	I	Mdddddr			
!	PONCT	!			
Zlatan	NPP	Zlatan	B-PERS		
a	V	a			
marqué	VPP	marqué			
,	PONCT	,			
j'	CLS-SUJ	j'			
entends	V	entends			
mon	DET	mon			
voisin	NC	voisin			
qui	PROREL	qui			
gueule	V	gueule			
!	PONCT	!			
Il	CLS-SUJ	Il			
est	V	est			
fou	ADJ	fou			
					
-LT-META-GT-	META	-LT-META-GT-			
					
PSG	P	PSG	B-ORG	NPP	
⚽️⚽️	ET	⚽️⚽️			
@Kahinaa__	NPP	@JohnDoe765	B-PERS		
2	DET	2			
h	NC	h			

