token	tag	token anonymisé	EN	Tag corrigé	Notes / remarques
-LT-donneesrecuperees-GT4fevrier2014	DET	-LT-donneesrecuperees-GT4fevrier2014			
&	CC	&			
5février2014	DET	5février2014			
-LT-	NC	-LT-			
/	CC	/			
donneesrecuperees	NC	donneesrecuperees			
					
-LT-META-GT-	META	-LT-META-GT-			
					
É	NC	É		X	
T	NC	T		X	
E	NC	E		X	
R	NC	R		X	
N	NC	N		X	
I	NC	I		X	
T	NC	T		X	
É	NC	É			
.	PONCT	.			
@JeVeuxDesAiles	NPP	@JohnDoe148	B-PERS		
49	DET	49			
s	ET	s			
					
-LT-/META-GT-	META	-LT-/META-GT-			
					
Ew	I	Ew			
j'	CLS-SUJ	j'			
ai	V	ai			
svt	ADV	svt		NC	
après	ADV	après			
,	PONCT	,			
dissection	NC	dissection			
.	PONCT	.			
Help	I	Help			
sauvez	VIMP	sauvez			
moi	CLO-OBJ	moi			
					
-LT-META-GT-	META	-LT-META-GT-			
					
CallMeHitch	NPP	CallMeHitch	B-PERS	ET	
,	PONCT	,	I-PERS		
Bitch	NPP	Bitch	I-PERS	ET	
!	PONCT	!	I-PERS		
@NHB2T	NPP	@JohnDoe149	B-PERS		
1	ADJ	1		DET	
min	NC	min			
					
-LT-/META-GT-	META	-LT-/META-GT-			
					
L'	DET	L'			
SVT	NC	SVT			
ça	PRO	ça			
saoul	V	saoul			
!	PONCT	!			
#DirectLive	HT	#DirectLive			
					
-LT-META-GT-	META	-LT-META-GT-			
					
XIII.I.CCXIV	ADJ	JohnDoe147	B-PERS		
@Xmarinounette	NPP	@JohnDoe147	B-PERS		
5	ADJ	5		DET	
min	NC	min			
					
-LT-/META-GT-	META	-LT-/META-GT-			
					
J'	CLS-SUJ	J'			
dors	V	dors			
à_moitié	ADV-MOD	à_moitié			
sur	P	sur			
Safia	NPP	Safia	B-PERS		
pendant	P	pendant			
l'	DET	l'			
svt	NC	svt			
❤️	I	❤️			
pic.twitter.com/krVuNx2dXU	NPP	WWW32			
					
-LT-META-GT-	META	-LT-META-GT-			
					
linka	ET	JohnDoe150	B-PERS	NPP	
@AlineGzw	NPP	@JohnDoe150	B-PERS		
5	DET	5			
min	NC	min			
					
-LT-/META-GT-	META	-LT-/META-GT-			
					
@TooInsistent	NPP	@JohnDoe151	B-PERS		
oh	I	oh			
trop	ADV	trop			
bien	ADV	bien			
en	P	en			
histoire	NC	histoire			
pdt	P	pdt			
le	DET	le			
controle	NC	controle			
hihi	I	hihi			
et	CC	et			
ils	CLS-SUJ	ils			
vont	V	vont			
aller	VINF	aller			
en	P	en			
svt	NC	svt			
ou	CC	ou			
sp	NC	sp			
?	PONCT	?			
					
-LT-META-GT-	META	-LT-META-GT-			
					
SVT	NC	SVT	B-OTH:MEDIA		
Nyheter	ET	Nyheter	I-OTH:MEDIA	NPP	
@svtnyheter	NPP	@svtnyheter	B-OTH:MEDIA		
6	DET	6			
min	NC	min			
					
-LT-/META-GT-	META	-LT-/META-GT-			
					
JUST	ET	JUST			
NU	ET	NU			
:	PONCT	:			
Svensk	ET	Svensk			
man	ET	man			
fast	ET	fast			
med	ET	med			
brutna	ET	brutna			
ben	ET	ben			
på	ET	på			
fjället	ET	fjället			
					
http://www.svt.se/nyheter/sverige/man-fast-med-tva-brutna-ben-i-fjallen	NPP	http://www.svt.se/nyheter/sverige/man-fast-med-tva-brutna-ben-i-fjallen			
..	PONCT	..			
.	PONCT	.			
					
-LT-META-GT-	META	-LT-META-GT-			
					
L	DET	L		NPP	
@lilianelilouM	NPP	@JohnDoe152	B-PERS		
6	ADJ	6		DET	
min	NC	min			
					
-LT-/META-GT-	META	-LT-/META-GT-			
					
Fini	VPP	Fini			
la	DET	la			
physique	NC	physique			
après	P	après			
1h30	NC	1h30			
de	P	de			
svt	NC	svt			
					
-LT-META-GT-	META	-LT-META-GT-			
					
Ulf	NPP	Cllaude316	B-PERS		
Andersson	NPP	Bidule316	I-PERS		
@ulfmax	NPP	@CllaudeBidule316	B-PERS		
7	DET	7			
min	NC	min			
					
-LT-/META-GT-	META	-LT-/META-GT-			
					
Handbollsbloggen	ET	Handbollsbloggen			
|	PONCT	|			
SVT.se	X	SVT.se			
http://blogg.svt.se/handboll/bra-att-savehof-markerar/	META	http://blogg.svt.se/handboll/bra-att-savehof-markerar/			
...	PONCT	...			
BRA	ET	BRA			
inlägg	ET	inlägg			
hbloggen	ET	hbloggen			
!	PONCT	!			
Rätt	ET	Rätt			
bild	ET	bild			
till	ET	till			
innehållet	ET	innehållet			
.	PONCT	.			
#seochlärGT	HT	#seochlärGT			
					
-LT-META-GT-	META	-LT-META-GT-			
					
Long	NPP	Long		ET	
live	ADJ	live		ET	
Marijuana™	NPP	Marijuana™			
@SmokeeWiz	NPP	@JohnDoe153	B-PERS		
19	DET	19			
min	NC	min			
					
-LT-/META-GT-	META	-LT-/META-GT-			
					
C'	CLS-SUJ	C'			
est	V	est			
officiel	ADJ	officiel			
je	CLS-SUJ	je			
ne	ADV-MOD	ne			
supporte	V	supporte			
pas	ADV-MOD	pas			
mon	DET	mon			
prof	NC	prof			
d'	P	d'			
svt	NC	svt			
.	PONCT	.			
Un	DET	Un			
pd	NC	pd			
qui	PROREL	qui			
est	V	est			
la	ADV-ATS	la			
					
-LT-META-GT-	META	-LT-META-GT-			
					
XIII.I.CCXIV	ADJ	JohnDoe147	B-PERS		
@Xmarinounette	NPP	@JohnDoe147	B-PERS		
21	ADJ	21		DET	
min	NC	min			
					
-LT-/META-GT-	META	-LT-/META-GT-			
					
En	P	En			
Svt	NC	Svt			
avec	P	avec			
ma	DET	ma			
chinoise	NC	chinoise			
favorite	ADJ	favorite			
!	PONCT	!			
					
-LT-META-GT-	META	-LT-META-GT-			
					
em	ET	JohnDoe154	B-PERS		
@Emmanuellement	NPP	@JohnDoe154	B-PERS		
29	DET	29			
min	NC	min			
					
-LT-/META-GT-	META	-LT-/META-GT-			
					
18.5	PRO	18.5			
au	P+D	au			
bb	NC	bb			
de	P	de			
histoire	NC	histoire			
geo	NC	geo			
education	NC	education			
civique	ADJ	civique			
je	CLS-SUJ	je			
suis	V	suis			
trop	ADV	trop			
contente	ADJ	contente			
,	PONCT	,			
et	CC	et			
20	PRO	20			
en	P	en			
svt	NC	svt			
today	ADV	today			
!	PONCT	!			
					
-LT-META-GT-	META	-LT-META-GT-			
					
BRAZZA	P	BRAZZA	B-PERS	NPP	
92i	DET	92i	I-PERS		
™	ET	™	I-PERS		
@LunaticPheniX	NPP	@JohnDoe155	B-PERS		
32	DET	32			
min	NC	min			
					
-LT-/META-GT-	META	-LT-/META-GT-			
					
2h	NC	2h			
de	P	de			
permanence	NC	permanence			
et	CC	et			
j'	CLS-SUJ	j'			
reprends	V	reprends			
dans	P	dans			
deux	DET	deux			
heures	NC	heures			
pour	P	pour			
deux	DET	deux			
heures	NC	heures			
et	CC	et			
j'	CLS-SUJ	j'			
dois	V	dois			
révisé	VINF	révisé			
contrôle	NC	contrôle			
de	P	de			
SVT	NC	SVT			
super	ADV	super			
important	ADJ	important			
!!	PONCT	!!			
					
-LT-META-GT-	META	-LT-META-GT-			
					
léa	ET	JohnDoe156	B-PERS	NPP	
@LeaPortal	NPP	@JohnDoe156	B-PERS		
34	DET	34			
min	NC	min			
					
-LT-/META-GT-	META	-LT-/META-GT-			
					
La	DET	La			
svt	NC	svt			
ça	PRO	ça			
pourrait	V	pourrait			
être	VINF	être			
bien	ADV-ATS	bien			
si	CS	si			
c'	CLS-SUJ	c'			
était	V	était			
pas	ADV-MOD	pas			
coco	ADJ	coco			
mais	CC	mais			
en_même_temps	ADV-MOD	en_même_temps			
je	CLS-SUJ	je			
pourrais	V	pourrais			
pas	ADV-MOD	pas			
écouter	VINF	écouter			
ma	DET	ma			
musique	NC	musique			
so	ADV-MOD	so			
					
-LT-META-GT-	META	-LT-META-GT-			
					
MANON	P	MANON	B-PERS	NPP	
♡♡	ET	♡♡	I-PERS	I	
@Antoine_Dbt	NPP	@JohnDoe157	B-PERS		
35	DET	35			
min	NC	min			
					
-LT-/META-GT-	META	-LT-/META-GT-			
					
Rapport	NC	Rapport			
du	P+D	du			
prof	NC	prof			
de	P	de			
SVT	NC	SVT			
parce_que	CS	parce_que			
je	CLS-SUJ	je			
me	CLR	me			
suis	V	suis			
levé	VPP	levé			
pour	P	pour			
demande	VINF	demande			
un	DET	un			
stylo	NC	stylo			
à	P	à			
Mounir	NPP	Mounir	B-PERS		
..	PONCT	..			
					
-LT-META-GT-	META	-LT-META-GT-			
					
Le	DET	Le	B-ORG		
Groupe	NC	Groupe	I-ORG		
La	DET	La	I-ORG		
Poste	NC	Poste	I-ORG		
@GroupeLaPoste	NPP	@GroupeLaPoste	B-ORG		
1	ADJ	1		DET	
h	NC	h			
					
-LT-/META-GT-	META	-LT-/META-GT-			
					
#MetzInnovation	HT	#MetzInnovation	B-ORG		
O	ET	O	B-PERS	NPP	
.	ET	.	I-PERS	NPP	
Aizac	NPP	Aizac	I-PERS		
,	PONCT	,			
Leboncoin	NPP	Leboncoin	B-ORG		
:	PONCT	:			
"	PONCT	"			
L'	DET	L'			
innovation	NC	innovation			
n'	ADV-MOD	n'			
est	V	est			
pas	ADV-MOD	pas			
tjs	ADV-MOD	tjs			
1	DET	1			
révolution	NC	révolution			
,	PONCT	,			
ms	CC	ms			
svt	ADV	svt			
de	DET	de			
petits	ADJ	petits			
changements	NC	changements			
"	PONCT	"			
http://ow.ly/sUPvC	NPP	http://ow.ly/sUPvC			
#LaPoste	HT	#LaPoste	B-ORG		
					
-LT-META-GT-	META	-LT-META-GT-			
					
solo	NC	solo	B-PERS		
@DnlDeOliveira	NPP	@JohnDoe158	B-PERS		
38	DET	38			
min	NC	min			
					
-LT-/META-GT-	META	-LT-/META-GT-			
					
Ma	DET	Ma			
prof	NC	prof			
de	P	de			
svt	NC	svt			
elle	CLS-SUJ	elle			
pu	V	pu			
dla	P+D	dla			
gueule	NC	gueule			
ptn	I	ptn			
:-LRB-	I	:-LRB-			
					
-LT-META-GT-	META	-LT-META-GT-			
					
jonathan	ET	Cllaude317	B-PERS	NPP	
.A	ET	Bidule317	I-PERS	NPP	
#CSG	KK	Bidule317_2			
@Ezouajonathan	NPP	@CllaudeBidule317	B-PERS		
41	DET	41			
min	NC	min			
					
-LT-/META-GT-	META	-LT-/META-GT-			
					
SVT	NC	SVT			
seulement	ADV	seulement			
					
-LT-META-GT-	META	-LT-META-GT-			
					
Val	NPP	Val	B-PERS		
le	DET	le	I-PERS		
pas	ADV	pas	I-PERS		
beau	ADJ	beau	I-PERS		
@pauline_mrtnz	NPP	@CllaudeBidule318	B-PERS		
42	DET	42			
min	NC	min			
					
-LT-/META-GT-	META	-LT-/META-GT-			
					
dissection	NC	dissection			
d'	P	d'			
un	DET	un			
coeur	NC	coeur			
en	P	en			
svt	NC	svt			
,	PONCT	,			
j'	CLS-SUJ	j'			
me	CLO-OBJ	me			
prend	V	prend			
pour	P	pour			
Daenerys	NPP	Daenerys	B-PERS		
					
-LT-META-GT-	META	-LT-META-GT-			
					
→	ET	→			
Kąth	ET	JohnDoe159	B-PERS	X	
'	PONCT	'	I-PERS	X	
ləən	ET	JohnDoe159_2	I-PERS	NPP	
←	ET	←	I-PERS		
@LaPetite_Boss	NPP	@JohnDoe159	B-PERS		
43	DET	43			
min	NC	min			
					
-LT-/META-GT-	META	-LT-/META-GT-			
					
Je	CLS-SUJ	Je			
vais	V	vais			
en	P	en			
SVT	NC	SVT			
et	CC	et			
j'	CLS-SUJ	j'			
aime	V	aime			
pas	ADV-MOD	pas			
la	DET	la			
dame	NC	dame			
.	PONCT	.			
					
-LT-META-GT-	META	-LT-META-GT-			
					
néant	NC	néant			
.	PONCT	.			
@MiaMoore_	NPP	@JohnDoe160	B-PERS		
44	DET	44			
min	NC	min			
					
-LT-/META-GT-	META	-LT-/META-GT-			
					
La	DET	La			
prof	NC	prof			
d'	P	d'			
svt	NC	svt			
est	V	est			
pas	ADV-MOD	pas			
la	ADV-ATS	la			
👌👌👌👌👌	PONCT	👌👌👌👌👌			
					
-LT-META-GT-	META	-LT-META-GT-			
					
Yeux	NC	Yeux	B-PERS		
verts	ADJ	verts	I-PERS		
@RaniaGzl	NPP	@JohnDoe161	B-PERS		
45	DET	45			
min	NC	min			
					
-LT-/META-GT-	META	-LT-/META-GT-			
					
-	PONCT	-			
Je	CLS-SUJ	Je			
vais	V	vais			
en	P	en			
cours	NC	cours			
pour	P	pour			
une	DET	une			
heure	NC	heure			
d'	P	d'			
svt	NC	svt			
svp	ADV	svp			
					
-LT-META-GT-	META	-LT-META-GT-			
					
Anaëlle	ADV	JohnDoe162	B-PERS	NPP	
@Anaelle_09	NPP	@JohnDoe162	B-PERS		
45	DET	45			
min	NC	min			
					
-LT-/META-GT-	META	-LT-/META-GT-			
					
Bon	ADV-MOD	Bon			
..	PONCT	..			
on	CLS-SUJ	on			
va	V	va			
disséquer	VINF	disséquer			
un	DET	un			
coeur	NC	coeur			
en	P	en			
svt	NC	svt			
avec	P	avec			
lolo	NPP	lolo	B-PERS		
,	PONCT	,			
c'	CLS-SUJ	c'			
est	V	est			
la	DET	la			
misère	NC	misère			
!	PONCT	!			
🔪😈	PONCT	🔪😈		I	
					
-LT-META-GT-	META	-LT-META-GT-			
					
Léa	NPP	JohnDoe163	B-PERS		
❤️	ET	❤️	I-PERS	I	
@LeaMaillard	NPP	@JohnDoe163	B-PERS		
45	DET	45			
min	NC	min			
					
-LT-/META-GT-	META	-LT-/META-GT-			
					
Ce	DET	Ce			
matin	NC	matin			
j'	CLS-SUJ	j'			
ai	V	ai			
eu	VPP	eu			
perm	NC	perm			
,	PONCT	,			
pas	ADV-MOD	pas			
SVT	NC	SVT			
.	PONCT	.			
J'	CLS-SUJ	J'			
espère	V	espère			
que	CS	que			
demain	ADV-MOD	demain			
elle	CLS-SUJ	elle			
est	V	est			
là	ADV-ATS	là			
,	PONCT	,			
parce_que	CS	parce_que			
je	CLS-SUJ	je			
l'	CLO-OBJ	l'			
ai	V	ai			
aussi	ADV-MOD	aussi			
de	P	de			
8h	NC	8h			
a	P	a			
9j	NC	9j			
					
-LT-META-GT-	META	-LT-META-GT-			
					
Hard	ADJ	Hard		ET	
to	ET	to			
stay	ET	stay			
strong	ET	strong			
.	PONCT	.			
@ShieldHellTwinB	NPP	@JohnDoe164	B-PERS		
46	DET	46			
min	NC	min			
					
-LT-/META-GT-	META	-LT-/META-GT-			
					
Avant_d'	P	Avant_d'			
aller	VINF	aller			
au	P+D	au			
code	NC	code			
,	PONCT	,			
je	CLS-SUJ	je			
vais	V	vais			
m'	CLO-OBJ	m'			
entrainer	VINF	entrainer			
au	P+D	au			
code	NC	code			
sur	P	sur			
internet	NC	internet			
.	PONCT	.			
Ou	CC	Ou			
faire	VINF	faire			
des	DET	des			
SVT	NC	SVT			
,	PONCT	,			
n'	Y	n'			
importe	PRO	importe			
.	PONCT	.			
					
-LT-META-GT-	META	-LT-META-GT-			
					
Kyliann	NPP	Cllaude319	B-PERS		
B	NC	Bidule319	I-PERS	NPP	
.	PONCT	.	I-PERS		
@Kyliann_B	NPP	@CllaudeBidule319	B-PERS		
47	DET	47			
min	NC	min			
					
-LT-/META-GT-	META	-LT-/META-GT-			
					
Enfin	ADV-MOD	Enfin			
bon	ADV-MOD	bon			
,	PONCT	,			
avant	P	avant			
tout	ADJ	tout			
ça	PRO	ça			
on	CLS-SUJ	on			
va	V	va			
passer	VINF	passer			
par	P	par			
2h	NC	2h			
d'	P	d'			
svt	NC	svt			
hein	I	hein			
;-RRB-	I	;-RRB-			
					
-LT-META-GT-	META	-LT-META-GT-			
					
Jackie✌️	ET	JohnDoe165	B-PERS	NPP	
@Laurene_Gouhier	NPP	@JohnDoe165	B-PERS		
47	DET	47			
min	NC	min			
					
-LT-/META-GT-	META	-LT-/META-GT-			
					
2h	NC	2h			
de	P	de			
tp	NC	tp			
d'	P	d'			
svt	NC	svt			
.	PONCT	.			
La	DET	La			
mort	NC	mort			
avec	P	avec			
ce	DET	ce			
prof	NC	prof			
et	CC	et			
ses	DET	ses			
méthodes	NC	méthodes			
🔫	PONCT	🔫		I	
🔫	PONCT	🔫		I	
🔫	PONCT	🔫		I	
					
-LT-META-GT-	META	-LT-META-GT-			
					
Story	ET	Story			
of	ET	of			
my	ET	my			
life	ET	life			
@Laety_feel	NPP	@JohnDoe166	B-PERS		
47	DET	47			
min	NC	min			
					
-LT-/META-GT-	META	-LT-/META-GT-			
					
Encore	ADV	Encore			
une	DET	une			
heure	NC	heure			
et	CC	et			
demie	NC	demie			
de	P	de			
perm	NC	perm			
...	PONCT	...			
Merci	I	Merci			
à	P	à			
ma	DET	ma			
prof	NC	prof			
de	P	de			
Svt	NC	Svt			
d	P	d			
etre	VINF	etre			
absente	ADJ	absente			
...	PONCT	...			
#Super	HT	#Super			
					
-LT-META-GT-	META	-LT-META-GT-			
					
L	DET	L	B-PERS	NPP	
.	PONCT	.	I-PERS		
@LauraNzrd	NPP	@JohnDoe167	B-PERS		
49	DET	49			
min	NC	min			
					
-LT-/META-GT-	META	-LT-/META-GT-			
					
On	CLS-SUJ	On			
regarde	V	regarde			
un	DET	un			
film	NC	film			
en	P	en			
SVT	NC	SVT			
Laysteur	I	Laysteur			
😷😖	PONCT	😷😖			
					
-LT-META-GT-	META	-LT-META-GT-			
					
LA	DET	LA			
VIOLENCE	NC	VIOLENCE			
@bdr_225	NPP	@JohnDoe168	B-PERS		
50	ADJ	50		DET	
min	NC	min			
					
-LT-/META-GT-	META	-LT-/META-GT-			
					
Poser	VINF	Poser			
en	P	en			
cours	NC	cours			
d	P	d			
Svt	NC	Svt			
!	PONCT	!			
					
-LT-META-GT-	META	-LT-META-GT-			
					
Anaïs-Berg	NPP	JohnDoe169	B-PERS		
@MekidesJP	NPP	@JohnDoe169	B-PERS		
52	DET	52			
min	NC	min			
					
-LT-/META-GT-	META	-LT-/META-GT-			
					
Dodo	NC	Dodo			
en	P	en			
SVT	NC	SVT			
ou	CC	ou			
en	P	en			
Histoire	NC	Histoire			
?	PONCT	?			
					
-LT-META-GT-	META	-LT-META-GT-			
					
L'	DET	L'	B-PERS		
eau	NC	eau	I-PERS		
là.✌	ET	là.✌	I-PERS	ADV	ADV et I
@LolaAlaert	NPP	@JohnDoe170	B-PERS		
54	DET	54			
min	NC	min			
					
-LT-/META-GT-	META	-LT-/META-GT-			
					
Quoi	Y	Quoi			
que	CS	que			
,	PONCT	,			
j'	CLS-SUJ	j'			
préfère	V	préfère			
être	VINF	être			
dans	P	dans			
une	DET	une			
salle	NC	salle			
d'	P	d'			
attente	NC	attente			
qu'	CS	qu'			
en	P	en			
svt	NC	svt			
.	PONCT	.			
					
-LT-META-GT-	META	-LT-META-GT-			
					
Carla	NPP	JohnDoe171	B-PERS		
vie	NC	vie			
est	V	est			
belle✌	ET	belle✌		ADJ	ADJ et I
@Carlagrrd	NPP	@JohnDoe171	B-PERS		
54	DET	54			
min	NC	min			
					
-LT-/META-GT-	META	-LT-/META-GT-			
					
j'	CLS-SUJ	j'			
ai	V	ai			
oublié	VPP	oublié			
de	P	de			
lui	CLO-A_OBJ	lui			
rendre	VINF	rendre			
son	DET	son			
classeur	NC	classeur			
d'	P	d'			
svt	NC	svt			
,	PONCT	,			
j'	CLS-SUJ	j'			
espere	V	espere			
qu'	CS	qu'			
elle	CLS-SUJ	elle			
va	V	va			
pas	ADV-MOD	pas			
se	CLR	se			
prendre	VINF	prendre			
un	DET	un			
mot	NC	mot			
..	PONCT	..			
					
-LT-META-GT-	META	-LT-META-GT-			
					
bouh	ET	bouh		I	
@CarolineHenon1	NPP	@JohnDoe172	B-PERS		
55	DET	55			
min	NC	min			
					
-LT-/META-GT-	META	-LT-/META-GT-			
					
Aller	VIMP	Aller			
go	VIMP	go			
j'	CLS-SUJ	j'			
attaque	V	attaque			
l'	DET	l'			
svt	NC	svt			
et	CC	et			
l'	DET	l'			
espagnol👌	NC	espagnol👌			NC et I
					
-LT-META-GT-	META	-LT-META-GT-			
					
l̶o̶v̶e.†	ET	JohnDoe173	B-PERS		
@Klea_Drew	NPP	@JohnDoe173	B-PERS		
57	DET	57			
min	NC	min			
					
-LT-/META-GT-	META	-LT-/META-GT-			
					
L'	DET	L'			
autre	ADJ	autre			
jours	NC	jours			
j'	CLS-SUJ	j'			
ai	V	ai			
dis	VPP	dis			
à	P	à			
ma	DET	ma			
prof	NC	prof			
de	P	de			
Svt	NC	Svt			
que	CS	que			
j'	CLS-SUJ	j'			
était	V	était			
rester	VPP	rester			
au	P+D	au			
téléphone	NC	téléphone			
plus	ADV	plus			
de	P	de			
6heure	NC	6heure			
avec	P	avec			
une	DET	une			
pote	NC	pote			
et	CC	et			
que	CS	que			
j'	CLS-SUJ	j'			
ai	V	ai			
saigné	VPP	saigné			
de	P	de			
l'	DET	l'			
oreille	NC	oreille			
et	CC	et			
elle	PRO	elle			
					
-LT-META-GT-	META	-LT-META-GT-			
					
une	DET	une			
blonde	ADJ	blonde			
.	PONCT	.			
@OceaneLvee	NPP	@JohnDoe174	B-PERS		
57	DET	57			
min	NC	min			
					
-LT-/META-GT-	META	-LT-/META-GT-			
					
Bon	ADV-MOD	Bon			
j'	CLS-SUJ	j'			
espère	V	espère			
que	CS	que			
je	CLS-SUJ	je			
vais	V	vais			
réussir	VINF	réussir			
mon	DET	mon			
contrôle	NC	contrôle			
d'	P	d'			
svt	NC	svt			
et	CC	et			
avoir	VINF	avoir			
une	DET	une			
bonne	ADJ	bonne			
note	NC	note			
à	P	à			
celui	PRO	celui			
de	P	de			
maths	NC	maths			
.	PONCT	.			
:'-RRB-	I	:'-RRB-			
					
-LT-META-GT-	META	-LT-META-GT-			
					
Stu	NPP	JohnDoe175	B-PERS		
@YannJolly7	NPP	@JohnDoe175	B-PERS		
58	ADJ	58		DET	
min	NC	min			
					
-LT-/META-GT-	META	-LT-/META-GT-			
					
Deschamps	NPP	Deschamps	B-PERS		
l'	DET	l'			
SVT	NC	SVT			
c'	CLS-SUJ	c'			
est	V	est			
ton	DET	ton			
domaine	NC	domaine			
askip	I	askip			
					
-LT-META-GT-	META	-LT-META-GT-			
					
RichieSaadeSaucedo	ET	JohnDoe176	B-PERS	NPP	
@FrSaucedoSaade	NPP	@JohnDoe176	B-PERS		
60	DET	60			
min	NC	min			
					
-LT-/META-GT-	META	-LT-/META-GT-			
					
quel	DET	quel			
fierté	NC	fierté			
de	P	de			
le	CLO-OBJ	le			
voir	VINF	voir			
ce	DET	ce			
matin	NC	matin			
sur	P	sur			
la	DET	la			
SVT	NC	SVT			
					
-LT-META-GT-	META	-LT-META-GT-			
					
larry	ET	JohnDoe177	B-PERS	NPP	
@zjmilysm	NPP	@JohnDoe177	B-PERS		
1	DET	1			
h	NC	h			
					
-LT-/META-GT-	META	-LT-/META-GT-			
					
Il	CLS-SUJ	Il			
croyait	V	croyait			
que	CS	que			
c'	CLS-SUJ	c'			
était	V	était			
qui	PROREL	qui			
les	CLO-OBJ	les			
avait	V	avait			
mais	CC	mais			
en	YM	en			
fait	ADV-MOD	fait			
j'	CLS-SUJ	j'			
étais	V	étais			
en_train_de	P	en_train_de			
les	CLO-OBJ	les			
manger	VINF	manger			
en	P	en			
svt	NC	svt			
					
-LT-META-GT-	META	-LT-META-GT-			
					
PLEASE	P	PLEASE	B-PERS	ET	
5SOS	DET	5SOS	I-PERS	ET	
♡	ET	♡	I-PERS	I	
@fxcking_smile	NPP	@JohnDoe178	B-PERS		
1	DET	1			
h	NC	h			
					
-LT-/META-GT-	META	-LT-/META-GT-			
					
Je	CLS-SUJ	Je			
sais	V	sais			
pas	ADV-MOD	pas			
comment	ADVWH-MOD	comment			
je	CLS-SUJ	je			
vais	V	vais			
me	CLR	me			
debrouiller	VINF	debrouiller			
pr	P	pr			
le	DET	le			
devoirs	NC	devoirs			
de	P	de			
svt	NC	svt			
de	P	de			
demain	ADV	demain			
					
-LT-META-GT-	META	-LT-META-GT-			
					
Whyte	NPP	Whyte	B-ORG		
&	CC	&	I-ORG		
Mackay	NPP	Mackay	I-ORG		
@Roweed420	NPP	@JohnDoe179	B-PERS		
1	ADJ	1		DET	
h	NC	h			
					
-LT-/META-GT-	META	-LT-/META-GT-			
					
Aller	VIMP	Aller			
4h	NC	4h			
d'	P	d'			
svt	NC	svt			
c'	CLS-SUJ	c'			
est	V	est			
rien	PRO	rien			
Romane	NPP	Romane	B-PERS		
!	PONCT	!			
Couraaaaaaage	I	Couraaaaaaage			
!	PONCT	!			
					
-LT-META-GT-	META	-LT-META-GT-			
					
Bwa	ET	JohnDoe180	B-PERS	NPP	
@RestaBwa	NPP	@JohnDoe180	B-PERS		
1	DET	1			
h	NC	h			
					
-LT-/META-GT-	META	-LT-/META-GT-			
					
@2UKey	NPP	@JohnDoe181	B-PERS		
toi	PRO	toi			
t	CLS+V-SUJ	t			
une	DET	une			
fausse	ADJ	fausse			
meuf	NC	meuf			
c	CLS+V-SUJ	c			
pr	P	pr			
sa	PRO	sa			
k	CS	k			
jte	CLS+CLO-SUJ-OBJ	jte			
kiff	V	kiff			
,	PONCT	,			
mais	CC	mais			
c	CLS+V-SUJ	c			
pas	ADV-MOD	pas			
pr	P	pr			
dire	VINF	dire			
qu'	CS	qu'			
on	CLS-SUJ	on			
svoit	CLR+V	svoit			
svt	ADV-MOD	svt			
quoi	PROWH	quoi			
!	PONCT	!			
Lool	I	Lool			
					
-LT-META-GT-	META	-LT-META-GT-			
					
Le	DET	Le	B-ORG		
Groupe	NC	Groupe	I-ORG		
La	DET	La	I-ORG		
Poste	NC	Poste	I-ORG		
@GroupeLaPoste	NPP	@GroupeLaPoste	B-ORG		
1	ADJ	1		DET	
h	NC	h			
					
-LT-/META-GT-	META	-LT-/META-GT-			
					
#MetzInnovation	HT	#MetzInnovation	B-ORG		
O	NC	O	B-PERS	NPP	
.	PONCT	.	I-PERS		
Aizac	NPP	Aizac	I-PERS		
,	PONCT	,			
Leboncoin	NPP	Leboncoin	B-ORG		
:	PONCT	:			
"	PONCT	"			
L'	DET	L'			
innovation	NC	innovation			
n'	ADV-MOD	n'			
est	V	est			
pas	ADV-MOD	pas			
tjs	ADV-MOD	tjs			
1	DET	1			
révolution	NC	révolution			
,	PONCT	,			
ms	CC	ms			
svt	ADV	svt			
de	DET	de			
petits	ADJ	petits			
changements	NC	changements			
"	PONCT	"			
http://ow.ly/sUPvC	NPP	http://ow.ly/sUPvC			
#LaPoste	HT	#LaPoste	B-ORG		
					
-LT-META-GT-	META	-LT-META-GT-			
					
Manon	ET	JohnDoe182	B-PERS	NPP	NPP et I
@ManonMdc	NPP	@JohnDoe182	B-PERS		
1	DET	1			
h	NC	h			
					
-LT-/META-GT-	META	-LT-/META-GT-			
					
1h30	NC	1h30			
de	P	de			
TP	NC	TP			
en	P	en			
physique	NC	physique			
chimie	NC	chimie			
					
1h30	NC	1h30			
en	P	en			
TP	NC	TP			
svt	NC	svt			
					
-LT-META-GT-	META	-LT-META-GT-			
					
Sophiiiie.*	ET	JohnDoe183	B-PERS	NPP	NPP et I
@SophieZoska	NPP	@JohnDoe183	B-PERS		
1	DET	1			
h	NC	h			
					
-LT-/META-GT-	META	-LT-/META-GT-			
					
Bilel	NPP	Bilel	B-PERS		
il	CLS-SUJ	il			
me	CLO-A_OBJ	me			
fait	V	fait			
:	PONCT	:			
"	PONCT	"			
ta	CLS+V-SUJ	ta			
que	ADV-MOD	que			
un	DET	un			
cour	NC	cour			
en	P	en			
svt	NC	svt			
"	PONCT	"			
en_même_temps	ADV-MOD	en_même_temps			
je	CLS-SUJ	je			
suis	V	suis			
venu	VPP	venu			
qu'	ADV-MOD	qu'			
une_fois	X	une_fois			
mdr	I	mdr			
					
-LT-META-GT-	META	-LT-META-GT-			
					
Ananas	NC	Ananas	B-PERS		
.	PONCT	.	I-PERS		
@Anais_Lsrd	NPP	@JohnDoe184	B-PERS		
1	ADJ	1		DET	
h	NC	h			
					
-LT-/META-GT-	META	-LT-/META-GT-			
					
@clarenc65881089	NPP	@JohnDoe185	B-PERS		
@mngllnemma	NPP	@JohnDoe186	B-PERS		
mais	CC	mais			
alors	ADV	alors			
toi	PRO	toi			
!	PONCT	!			
mdrr	I	mdrr			
x	Y	x			
-RRB-	I	-RRB-			
et	CC	et			
ecoute	VIMP	ecoute			
en	P	en			
svt	NC	svt			
					
-LT-META-GT-	META	-LT-META-GT-			
					
M.I.E.L	NC	M.I.E.L			
,	PONCT	,			
MIEL	NC	MIEL	B-OTH:TM		
POPS	NPP	POPS	I-OTH:TM		
♡	V	♡		I	
@FanmCreole__	NPP	@JohnDoe187	B-PERS		
1	ADJ	1		DET	
h	NC	h			
					
-LT-/META-GT-	META	-LT-/META-GT-			
					
Ma	DET	Ma			
prof	NC	prof			
de	P	de			
svt	NC	svt			
c'	CLS-SUJ	c'			
est	V	est			
une	DET	une			
grosse	ADJ	grosse			
biatch	NC	biatch			
!	PONCT	!			
					
-LT-META-GT-	META	-LT-META-GT-			
					
Thomas	NPP	JohnDoe188	B-PERS		
✌	ET	✌	I-PERS	I	
@ThomasBruti	NPP	@JohnDoe188	B-PERS		
1	DET	1			
h	NC	h			
					
-LT-/META-GT-	META	-LT-/META-GT-			
					
l'	DET	l'			
SVT	NC	SVT			
c'	CLS-SUJ	c'			
est	V	est			
ma	DET	ma			
matiere	NC	matiere			
la	DET	la			
plus	ADV	plus			
inutile	ADJ	inutile			
du	P+D	du			
monde	NC	monde			
					
-LT-META-GT-	META	-LT-META-GT-			
					
elisaaa	ET	JohnDoe189	B-PERS	NPP	
:-RSB-	I	:-RSB-	I-PERS		
@elisadu39	NPP	@JohnDoe189	B-PERS		
1	DET	1			
h	NC	h			
					
-LT-/META-GT-	META	-LT-/META-GT-			
					
Apprendre	VINF	Apprendre			
que	CS	que			
dans	P	dans			
30	DET	30			
minutes	NC	minutes			
nous	CLS-SUJ	nous			
avons	V	avons			
6	DET	6			
pages	NC	pages			
de	P	de			
dsl	NC	dsl			
en	P	en			
SVT	NC	SVT			
!!!	PONCT	!!!			
					
à	P	à			
ses	DET	ses			
moment	NC	moment			
la	ADV	la			
je	CLS-SUJ	je			
dit	V	dit			
merci	NC	merci			
a	P	a			
celui	PRO	celui			
qui	PROREL	qui			
créer	V	créer			
le	DET	le			
resaux	NC	resaux			
internet	NC	internet			
;-RRB-	I	;-RRB-			
					
-LT-META-GT-	META	-LT-META-GT-			
					
Alézan	P	JohnDoe190	B-PERS	NPP	
@alexkha92	NPP	@JohnDoe190	B-PERS		
1	ADJ	1		DET	
h	NC	h			
					
-LT-/META-GT-	META	-LT-/META-GT-			
					
Copie	NC	Copie			
blanche	ADJ	blanche			
en	P	en			
svt	NC	svt			
sa	PRO	sa			
fait	V	fait			
mal	NC	mal			
o	P+D	o			
cuiiii	NC	cuiiii			
					
-LT-META-GT-	META	-LT-META-GT-			
					
Liam	DET	Liam	B-PERS	NPP	
my	NC	my		ET	
☀	ET	☀		I	
@Stylesinski	NPP	@JohnDoe191	B-PERS		
1	DET	1			
h	NC	h			
					
-LT-/META-GT-	META	-LT-/META-GT-			
					
JE	CLS-SUJ	JE			
VEUX	V	VEUX			
PAS	ADV-MOD	PAS			
Y	CLO-OBJ	Y			
ALLER	VINF	ALLER			
PUAISE	I	PUAISE			
EN_PLUS	ADV-MOD	EN_PLUS			
CETTE	DET	CETTE			
SVT	NC	SVT			
NE	ADV-MOD	NE			
VEUX	V	VEUX			
PAS	ADV-MOD	PAS			
RENTRER	VINF	RENTRER			
DANS	P	DANS			
MA	DET	MA			
TÊTE	NC	TÊTE			

