token	tag	token anonymisé	EN	Tag corrigé	Notes / remarques
<META>	META	<META>			
					
C	CLS+V	C			
&	CC	&			
E❤	NPP	E❤			
@Emma030907	NPP	@JohnDoe194	B-PERS		
1	ADJ	1			
h	NC	h			
					
</META>	META	</META>			
					
En	P	En			
svt	NC	svt			
on	CLS-SUJ	on			
a	V	a			
l'	DET	l'			
debut	NC	debut			
d'	P	d'			
une	DET	une			
video	NC	video			
,	PONCT	,			
la	DET	la			
meuph	NC	meuph			
elle	CLS-SUJ	elle			
accouchait	V	accouchait			
on	CLS-SUJ	on			
aurait	V	aurait			
dit	VPP	dit			
elle	CLS-SUJ	elle			
s'	CLO-OBJ	s'			
transformait	V	transformait			
en	P	en			
hulk	NPP	hulk	B-PERS		
!	PONCT	!			
:	Y	:			
00	I	00			
					
<META>	META	<META>			
					
Jeannou	NPP	JohnDoe195	B-PERS		
@JeanneEmbarek	NPP	@JohnDoe195	B-PERS		
1	ADJ	1			
h	NC	h			
					
</META>	META	</META>			
					
J'	CLS-SUJ	J'			
aime	V	aime			
pas	ADV-MOD	pas			
l'	DET	l'			
SVT	NC	SVT			
👊	I	👊			
					
<META>	META	<META>			
					
Célia	NPP	JohnDoe196	B-PERS		
@CeliaBonomi	NPP	@JohnDoe196	B-PERS		
2	ADJ	2			
h	NC	h			
					
</META>	META	</META>			
					
Sinon	ADV-MOD	Sinon			
j'	CLS-SUJ	j'			
ai	V	ai			
toujours	ADV	toujours			
pas	ADV	pas			
ouvert	VPP	ouvert			
mon	DET	mon			
cahier	NC	cahier			
de	P	de			
svt	NC	svt			
et	CC	et			
je	CLS-SUJ	je			
suis	V	suis			
en	P	en			
DS	NC	DS			
tout	YM	tout			
a	YM	a			
l'	YM	l'			
heure	ADV-MOD	heure			
..	PONCT	..			
					
<META>	META	<META>			
					
Toinou	ET	JohnDoe197	B-PERS	NPP	
@AntoineAudry_	NPP	@JohnDoe197	B-PERS		
2	DET	2			
h	NC	h			
					
</META>	META	</META>			
					
Je	CLS-SUJ	Je			
suis	V	suis			
en	P	en			
svt	NC	svt			
hehe	I	hehe			
					
<META>	META	<META>			
					
LaureParmentier	VINF	JohnDoe198	B-PERS	NPP	
@ParmentierLaure	NPP	@JohnDoe198	B-PERS		
2	ADJ	2			
h	NC	h			
					
</META>	META	</META>			
					
Aprem	NC	Aprem			
tranquillou	ADJ	tranquillou			
sauf	P	sauf			
que	CS	que			
avec	P	avec			
@AudreyMgd	NPP	@JohnDoe199	B-PERS		
on	CLS-SUJ	on			
sait	V	sait			
pas	ADV-MOD	pas			
si	CS	si			
on	CLS-SUJ	on			
a	V	a			
cours	NC	cours			
de	P	de			
16h	NC	16h			
à	P	à			
17h	NC	17h			
;	Y	;			
-LRB-	I	-LRB-			
et	CC	et			
faut	V	faut			
qu'	CS	qu'			
on	CLS-SUJ	on			
fasse	VS	fasse			
l'	DET	l'			
svt	NC	svt			
on	CLS-SUJ	on			
est	V	est			
dans	P	dans			
le	DET	le			
caca	NC	caca			
#douées	HT	#douées			
					
<META>	META	<META>			
					
Niro	ET	JohnDoe200	B-PERS	NPP	
@TNiro77	NPP	@JohnDoe200	B-PERS		
2	DET	2			
h	NC	h			
					
</META>	META	</META>			
					
En	P	En			
svt	NC	svt			
on	CLS-SUJ	on			
a	V	a			
dissequer	VPP	dissequer			
un	DET	un			
coeur	NC	coeur			
c'	CLS-SUJ	c'			
etait	V	etait			
degeulasse	ADJ	degeulasse			
et	CC	et			
jme	CLS+CLO-SUJ-OBJ	jme			
sentais	V	sentais			
pas	ADV-MOD	pas			
bien	ADV-MOD	bien			
donc	CC	donc			
jlai	CLS+CLO+V-SUJ-OBJ	jlai			
pas	ADV-MOD	pas			
fait	VPP	fait			
..	PONCT	..			
					
<META>	META	<META>			
					
.	PONCT	.			
@sndy__	NPP	@JohnDoe201	B-PERS		
2	ADJ	2			
h	NC	h			
					
</META>	META	</META>			
					
J'	CLS-SUJ	J'			
ai	V	ai			
1h	NC	1h			
d'	P	d'			
anglais	NC	anglais			
,	PONCT	,			
1h30	NC	1h30			
de	P	de			
physique	NC	physique			
chime	NC	chime			
,	PONCT	,			
1h30	NC	1h30			
d'	P	d'			
svt	NC	svt			
et	CC	et			
1h	NC	1h			
d'	P	d'			
option	NC	option			
danse	NC	danse			
:'-LRB--LRB--LRB-	I	:'-LRB--LRB--LRB-			
					
<META>	META	<META>			
					
♥100	DET	♥100			
%	NC	%			
Lyonnaise♥	NPP	Lyonnaise♥		ADJ	ADJ et I
@Amy_smiily	NPP	@JohnDoe202	B-PERS		
2	ADJ	2			
h	NC	h			
					
</META>	META	</META>			
					
Le	DET	Le			
controle	NC	controle			
de	P	de			
SVT	NC	SVT			
c'	CLR	c'			
est	V	est			
passé	VPP	passé			
creme	P	creme			
celui	PRO	celui			
d'	P	d'			
espagnol	NC	espagnol			
un_peu	ADV	un_peu			
moins	ADV	moins			
bien	ADV	bien			
et	CC	et			
si	CS	si			
c'	CLS-SUJ	c'			
est	V	est			
de	P	de			
pire	ADJ	pire			
en	P	en			
pire	ADJ	pire			
celui	PRO	celui			
de	P	de			
maths	NC	maths			
va	V	va			
etre	VINF	etre			
une	DET	une			
catastrophe	NC	catastrophe			
!!	PONCT	!!			
					
<META>	META	<META>			
					
Fall	ET	Fall			
@Cloectr	NPP	@JohnDoe203	B-PERS		
2	DET	2			
h	NC	h			
					
</META>	META	</META>			
					
1h30	NC	1h30			
de	P	de			
svt	NC	svt			
+	CC	+			
physique	NC	physique			
c'	CLS-SUJ	c'			
est	V	est			
la	DET	la			
mort	NC	mort			
					
<META>	META	<META>			
					
@heartofzarry_	NPP	@JohnDoe204	B-PERS		
2	DET	2			
h	NC	h			
					
</META>	META	</META>			
					
cet	DET	cet			
aprèm	NC	aprèm			
j'	CLS-SUJ	j'			
ai	V	ai			
svt	NC	svt			
,	PONCT	,			
français	NC	français			
,	PONCT	,			
anglais	NC	anglais			
et	CC	et			
maths	NC	maths			
ptn	I	ptn			
					
<META>	META	<META>			
					
tennant	ET	JohnDoe205			
@TheWhiteCrystal	NPP	@JohnDoe205	B-PERS		
2	DET	2			
h	NC	h			
					
</META>	META	</META>			
					
par_contre	ADV-MOD	par_contre			
cet	DET	cet			
aprem	NC	aprem			
je	CLS-SUJ	je			
vais	V	vais			
crever	VINF	crever			
au	P+D	au			
contrôle	NC	contrôle			
de	P	de			
svt	NC	svt			
					
<META>	META	<META>			
					
l'	DET	l'			
hxmme	NC	hxmme			
saoul	ADJ	saoul			
@VictorMussard	NPP	@JohnDoe206	B-PERS		
2	ADJ	2			
h	NC	h			
					
</META>	META	</META>			
					
Physque	NC	Physque			
Chimie	NC	Chimie			
de	P	de			
passé	VPP	passé			
✅	I	✅			
					
On	CLS-SUJ	On			
va	V	va			
se	CLO-OBJ	se			
remettre	VINF	remettre			
dans	P	dans			
les	DET	les			
révisions	NC	révisions			
dès	P	dès			
maintenant	ADV	maintenant			
avec	P	avec			
la	DET	la			
SVT	NC	SVT			
📖	PONCT	📖			
					
<META>	META	<META>			
					
Tetanic	ET	JohnDoe207			
@ClemenceGb	NPP	@JohnDoe207	B-PERS		
1	DET	1			
min	NC	min			
					
</META>	META	</META>			
					
TPE	NC	TPE			
sushis	NC	sushis			
fondant	NC	fondant			
au	P+D	au			
chocolat	NC	chocolat			
svp☝️	I	svp☝️			
					
<META>	META	<META>			
					
FDTDR	NPP	JohnDoe193			
.	PONCT	.			
@Orelsanement_	NPP	@JohnDoe193	B-PERS		
3	ADJ	3			
min	NC	min			
					
</META>	META	</META>			
					
C'	CLS-SUJ	C'			
est	V	est			
qui	PROWH	qui			
le	DET	le			
fdp	NC	fdp			
qui	PROREL	qui			
a	V	a			
inventé	VPP	inventé			
les	DET	les			
TPE	NC	TPE			
?!	PONCT	?!			
J'	CLS-SUJ	J'			
ai	V	ai			
deux	DET	deux			
trois	DET	trois			
mots	NC	mots			
à	P	à			
lui	CLO-A_OBJ	lui			
dire	VINF	dire			
.	PONCT	.			
					
<META>	META	<META>			
					
@Jwd_will	NPP	@JohnDoe208	B-PERS		
3	DET	3			
min	NC	min			
					
</META>	META	</META>			
					
vous	PRO	vous			
qui	PROREL	qui			
êtes	V	êtes			
collégiens	NC	collégiens			
ou	CC	ou			
en	P	en			
seconde	NC	seconde			
,	PONCT	,			
profitez	VIMP	profitez			
bien	ADV-MOD	bien			
.	PONCT	.			
Parce_qu'	CS	Parce_qu'			
en	P	en			
première	NC	première			
vous	CLS-SUJ	vous			
savez	V	savez			
ce	PRO	ce			
qui	PROREL	qui			
vous	CLO-OBJ	vous			
attend	V	attend			
?	PONCT	?			
les	DET	les			
TPE	NC	TPE			
!!	PONCT	!!			
					
<META>	META	<META>			
					
Les	DET	Les	B-ORG		
Gâteaux	NC	Gâteaux	I-ORG		
Plumes	ET	Plumes	I-ORG	NPP	
@GateauxPlumes	NPP	@GateauxPlumes	B-ORG		
7	DET	7			
min	NC	min			
					
</META>	META	</META>			
					
L'	DET	L'			
Etat	NC	Etat	B-ORG		
accompagne	V	accompagne			
à	P	à			
l'	DET	l'			
export	NC	export			
250	DET	250			
PME	NC	PME			
et	CC	et			
TPE	NC	TPE			
de	P	de			
l'	DET	l'			
agroalimentaire	NC	agroalimentaire			
-	PONCT	-			
http://bit.ly/1aYXFOR	NPP	http://bit.ly/1aYXFOR			
					
<META>	META	<META>			
					
FDTDR	NPP	JohnDoe193			
.	PONCT	.			
@Orelsanement_	NPP	@JohnDoe193	B-PERS		
11	ADJ	11			
min	NC	min			
					
</META>	META	</META>			
					
Maintenant	ADV	Maintenant			
,	PONCT	,			
vais	V	vais			
-je	CLS-SUJ	-je			
trouver	VINF	trouver			
la	DET	la			
force	NC	force			
pour	P	pour			
rédiger	VINF	rédiger			
mon	DET	mon			
TPE	NC	TPE			
?	PONCT	?			
Tel	ADJ	Tel			
est	V	est			
la	DET	la			
question	NC	question			
.	PONCT	.			
					
<META>	META	<META>			
					
Charlinou	NPP	JohnDoe209	B-PERS		
.	PONCT	.	I-PERS		
@CharlineLfr	NPP	@JohnDoe209	B-PERS		
18	ADJ	18			
min	NC	min			
					
</META>	META	</META>			
					
Sinon	ADV-MOD	Sinon			
on	CLS-SUJ	on			
doit	V	doit			
rendre	VINF	rendre			
notre	DET	notre			
TPE	NC	TPE			
demain	ADV-MOD	demain			
,	PONCT	,			
la	DET	la	B-ORG		
poste	NC	poste	I-ORG		
ferme	V	ferme			
dans	P	dans			
deux	DET	deux			
heures	NC	heures			
et	CC	et			
on	CLS-SUJ	on			
a	V	a			
toujours	ADV	toujours			
pas	ADV	pas			
reçus	VPP	reçus			
le	DET	le			
colis	NC	colis			
.	PONCT	.			
Aïe	I	Aïe			
..	PONCT	..			
					
<META>	META	<META>			
					
AllEyesOnMe	P	JohnDoe210		ET	
@Shannahya	NPP	@JohnDoe210	B-PERS		
23	DET	23			
min	NC	min			
					
</META>	META	</META>			
					
Truc	NC	Truc			
de	P	de			
malade	NC	malade			
comment	ADVWH-MOD	comment			
mes	DET	mes			
prof	NC	prof			
de	P	de			
TPE	NC	TPE			
me	CLO-A_OBJ	me			
foutent	V	foutent			
le	DET	le			
démon	NC	démon			
!	PONCT	!			
					
<META>	META	<META>			
					
Lucie	NPP	JohnDoe211	B-PERS		
@LucieNfrx	NPP	@JohnDoe211	B-PERS		
24	ADJ	24			
min	NC	min			
					
</META>	META	</META>			
					
@hue_justine	NPP	@JohnDoe212	B-PERS		
mdrrr	I	mdrrr			
c'	CLS-SUJ	c'			
est	V	est			
encore	ADV	encore			
plus	ADV	plus			
dégueulasse	ADJ	dégueulasse			
de	P	de			
l'	DET	l'			
intérieur	NC	intérieur			
je	CLS-SUJ	je			
trouve	V	trouve			
.	PONCT	.			
C'	CLS-SUJ	C'			
est	V	est			
pour	P	pour			
notre	DET	notre			
TPE	NC	TPE			
❤️	I	❤️			
					
<META>	META	<META>			
					
infosreg	ET	infosreg	B-OTH:MEDIA	NPP	
@infosreg	NPP	@infosreg	B-OTH:MEDIA		
26	DET	26			
min	NC	min			
					
</META>	META	</META>			
					
Aider	VINF	Aider			
les	DET	les			
TPE-PME	X	TPE-PME			
à	P	à			
mieux	ADV-MOD	mieux			
maîtriser	VINF	maîtriser			
leur	DET	leur			
consommation	NC	consommation			
d'	P	d'			
énergie	NC	énergie			
:	PONCT	:			
Lors_de	P	Lors_de			
sa	DET	sa			
dernière	ADJ	dernière			
assemblée	NC	assemblée			
générale	ADJ	générale			
mensue	ADJ	mensue			
...	PONCT	...			
http://bit.ly/1anRMdd	NPP	http://bit.ly/1anRMdd			
					
<META>	META	<META>			
					
Naell	ET	JohnDoe213	B-PERS	NPP	
@NaellDesign	NPP	@JohnDoe213	B-PERS		
46	DET	46			
min	NC	min			
					
</META>	META	</META>			
					
Le	DET	Le			
point	NC	point			
commun	ADJ	commun			
entre	P	entre			
mon	DET	mon			
coéquipier	NC	coéquipier			
royaliste	ADJ	royaliste			
homophobe	ADJ	homophobe			
de	P	de			
TPE	NC	TPE			
et	CC	et			
Christine	NPP	Christine	B-PERS		
Boutin	NPP	Boutin	I-PERS		
?	PONCT	?			
Les	DET	Les			
deux	PRO	deux			
citent	V	citent			
le	DET	le	B-OTH:MEDIA		
Gorafi	NPP	Gorafi	I-OTH:MEDIA		
de	P	de			
manière	NC	manière			
très	ADV	très			
sérieuse	ADJ	sérieuse			
.	PONCT	.			
					
<META>	META	<META>			
					
Guillaume	NPP	Cllaude366	B-PERS		
Barth	NPP	Bidule366	I-PERS		
@GBarth88	NPP	@CllaudeBidule366	B-PERS		
47	DET	47			
min	NC	min			
					
</META>	META	</META>			
					
J'	CLS-SUJ	J'			
ai	V	ai			
retrouvé	VPP	retrouvé			
mon	DET	mon			
TPE	NC	TPE			
,	PONCT	,			
et	CC	et			
je	CLS-SUJ	je			
me	CLO-A_OBJ	me			
demande	V	demande			
sérieusement	ADV-MOD	sérieusement			
comment	ADVWH-MOD	comment			
j'	CLS-SUJ	j'			
ai	V	ai			
pu	VPP	pu			
avoir	VINF	avoir			
15	PRO	15			
...	PONCT	...			
***	I	***			
					
queen	ET	queen	B-PERS		
mbilia	NPP	mbilia	I-PERS		
bel	ADJ	bel	I-PERS		
@Thibedo	NPP	@JohnDoe214	B-PERS		
22	ADJ	22			
h	NC	h			
					
on	CLS-SUJ	on			
speed	V	speed			
tous	PRO	tous			
sur	P	sur			
nos	DET	nos			
tpe	NC	tpe			
pcq	CS	pcq			
on	CLS-SUJ	on			
a	V	a			
rien	PRO	rien			
glandé	VPP	glandé			
pendant	P	pendant			
l'	DET	l'			
année	NC	année			
					
<META>	META	<META>			
					
ues	ET	JohnDoe215	B-PERS		
@SarahPlsn	NPP	@JohnDoe215	B-PERS		
23	DET	23			
h	NC	h			
					
</META>	META	</META>			
					
Tout_au_long_de	P	Tout_au_long_de			
mon	DET	mon			
tpe	NC	tpe			
j'	CLS-SUJ	j'			
explique	V	explique			
comment	ADV-MOD	comment			
les	DET	les			
gens	NC	gens			
doivent	V	doivent			
lutter	VINF	lutter			
contre	P	contre			
le	DET	le			
stress	NC	stress			
,	PONCT	,			
mais	CC	mais			
jsuis	CLS+V-SUJ	jsuis			
incapable	ADJ	incapable			
de	P	de			
le	CLO-OBJ	le			
faire	VINF	faire			
0	-NONE-	0			
moi	YM	moi			
même	PRO	même			
,	PONCT	,			
ironie	NC	ironie			
					
<META>	META	<META>			
					
Valentine	NPP	JohnDoe216	B-PERS		
@Valentine_Agr	NPP	@JohnDoe216	B-PERS		
2	ADJ	2			
févr	NC	févr			
.	PONCT	.			
					
</META>	META	</META>			
					
Toute	YM	Toute			
à	YM	à			
l'	YM	l'			
heure	ADV-MOD	heure			
on	CLS-SUJ	on			
pétais	V	pétais			
un	DET	un			
câble	NC	câble			
avec	P	avec			
le	DET	le			
TPE	NC	TPE			
,	PONCT	,			
je	CLS-SUJ	je			
me	CLR-A_OBJ	me			
suis	V	suis			
cassé	VPP	cassé			
la	DET	la			
gueule	NC	gueule			
de	P	de			
la	DET	la			
chaise	NC	chaise			
c'	CLS-SUJ	c'			
était	V	était			
énorme	ADJ	énorme			
,	PONCT	,			
gros	ADJ	gros			
fou	ADJ	fou			
rire	NC	rire			
!	PONCT	!			
					
<META>	META	<META>			
					
Les	DET	Les	B-OTH:MEDIA		
César	NC	César	I-OTH:MEDIA		
du	P+D	du	I-OTH:MEDIA		
cinéma	NC	cinéma	I-OTH:MEDIA		
@Les_Cesar_fake	NPP	@Les_Cesar_fake	B-OTH:MEDIA		
6	ADJ	6			
h	NC	h			
					
</META>	META	</META>			
					
Ola	I	Ola			
Le	DET	Le	B-OTH:MEDIA		
Figaro	NPP	Figaro	I-OTH:MEDIA		
a	V	a			
pété	VPP	pété			
un	DET	un			
câble	NC	câble			
et	CC	et			
se	CLR	se			
paye	V	paye			
le	DET	le			
film	NC	film			
de	P	de			
Vincent	NPP	Vincent	B-PERS		
Lindon	NPP	Lindon	I-PERS		
!	PONCT	!			
pic.twitter.com/ioAKOLECEF	NPP	pic.twitter.com/ioAKOLECEF			
					
<META>	META	<META>			
					
Le	DET	JohnDoe217	B-PERS		
Pa	NC	JohnDoe217_2	I-PERS		
-LRB-	PONCT	-LRB-	I-PERS		
pa	ADV	JohnDoe217_3	I-PERS		
-RRB-	PONCT	-RRB-	I-PERS		
s	CLR	s	I-PERS		
Blogueur	ET	JohnDoe217_4	I-PERS		
@lepasblogueur	NPP	@JohnDoe217	B-PERS		
6	DET	6			
h	NC	h			
					
</META>	META	</META>			
					
Aïe	I	Aïe			
RT	NC	RT			
@puremedias	NPP	@puremedias	B-OTH:MEDIA		
Le	DET	Le	B-OTH:MEDIA		
Figaro	NPP	Figaro	I-OTH:MEDIA		
n'	ADV-MOD	n'			
a	V	a			
visiblement	ADV-MOD	visiblement			
pas	ADV-MOD	pas			
bcp	ADV-MOD	bcp			
apprécié	VPP	apprécié			
le	DET	le			
dernier	ADJ	dernier			
film	NC	film			
avec	P	avec			
Gilles	NPP	Gilles	B-PERS		
Lellouche	NPP	Lellouche	I-PERS		
et	CC	et			
Vincent	NPP	Vincent	B-PERS		
Lindon	NPP	Lindon	I-PERS		
pic.twitter.com/IwJGvMrnHY	NPP	pic.twitter.com/IwJGvMrnHY			
					
<META>	META	<META>			
					
Tele-Loisirs.fr	NPP	Tele-Loisirs.fr	B-OTH:MEDIA		
@TeleLoisirs	NPP	@TeleLoisirs	B-OTH:MEDIA		
18	DET	18			
h	NC	h			
					
</META>	META	</META>			
					
Vincent	NPP	Vincent	B-PERS		
Lindon	NPP	Lindon	I-PERS		
,	PONCT	,			
blessé	VPP	blessé			
et	CC	et			
perturbé	VPP	perturbé			
,	PONCT	,			
quitte	V	quitte			
le	DET	le			
dîner	NC	dîner			
de	P	de			
C	CLS+V	C	B-OTH:MEDIA		
à	P	à	I-OTH:MEDIA		
Vous	PRO	Vous	I-OTH:MEDIA		
en	P	en			
plein	ADJ	plein			
direct	NC	direct			
http://bit.ly/1bo55J7	NPP	http://bit.ly/1bo55J7			
#cavous	HT	#cavous	B-OTH:MEDIA		
					
<META>	META	<META>			
					
Fred	NPP	Cllaude372	B-PERS		
Musa	NPP	Bidule372	I-PERS		
@fredmusa	NPP	@CllaudeBidule372	B-PERS		
31	ADJ	31			
janv	NC	janv			
.	PONCT	.			
					
</META>	META	</META>			
					
Juste	ADV	Juste			
un	DET	un			
gros	ADJ	gros			
kif	NC	kif			
dans	P	dans			
#planeterap	HT	#planeterap	B-OTH:MEDIA		
avec	P	avec			
Vincent	NPP	Vincent	B-PERS		
Lindon	NPP	Lindon	I-PERS		
...	PONCT	...			
http://instagram.com/p/j2JJwFslxM/	NPP	http://instagram.com/p/j2JJwFslxM/			
					
<META>	META	<META>			
					
Best_Man_Ever	ET	JohnDoe218	B-PERS		
;-RRB-	I	;-RRB-	I-PERS		
@Ludo_216	NPP	@JohnDoe218	B-PERS		
10	DET	10			
min	NC	min			
					
</META>	META	</META>			
					
L'	DET	L'			
Etat	NC	Etat	B-ORG		
se	CLR	se			
retrouve	V	retrouve			
à	P	à			
investir	VINF	investir			
des	DET	des			
milliard	NC	milliard			
parce_que	CS	parce_que			
certains	PRO	certains			
sont	V	sont			
trop	ADV	trop			
fainéant	ADJ	fainéant			
pour	P	pour			
arrêter	VINF	arrêter			
de	P	de			
s'	CLR-A_OBJ	s'			
empoisonner	VINF	empoisonner			
les	DET	les			
poumons	NC	poumons			
!	PONCT	!			
;-RRB-	I	;-RRB-			
#Plancancer3	HT	#Plancancer3			
					
<META>	META	<META>			
					
J	CLS	J	B-PERS	NPP	
.	PONCT	.	I-PERS		
@BeLieBer_G_mZ	NPP	@JohnDoe219	B-PERS		
11	ADJ	11			
min	NC	min			
					
</META>	META	</META>			
					
#Plancancer3	HT	#Plancancer3			
le	DET	le			
cancer	NC	cancer			
me	CLO-A_OBJ	me			
pourrit	V	pourrit			
la	DET	la			
vie	NC	vie			
ce	DET	ce			
bâtard	NC	bâtard			
ptn	I	ptn			
					
<META>	META	<META>			
					
William	NPP	JohnDoe221	B-PERS		
@Will_izi	NPP	@JohnDoe221	B-PERS		
17	ADJ	17			
min	NC	min			
					
</META>	META	</META>			
					
#Plancancer3	HT	#Plancancer3			
C'	CLS-SUJ	C'			
est	V	est			
rigolo	ADJ	rigolo			
mais	CC	mais			
si	CS	si			
tu	CLS-SUJ	tu			
retires	V	retires			
"	PONCT	"			
cancer	NC	cancer			
"	PONCT	"			
pour	P	pour			
mettre	VINF	mettre			
"	PONCT	"			
à	P	à			
"	PONCT	"			
ça	PRO	ça			
peut	V	peut			
devenir	VINF	devenir			
génial	ADJ	génial			
comme	P	comme			
hashtag	NC	hashtag			
					
<META>	META	<META>			
					
Valérie	NPP	Cllaude384	B-PERS		
RAVERY	NPP	Bidule384	I-PERS		
@ValerieRAVERY	NPP	@CllaudeBidule384	B-PERS		
17	ADJ	17			
min	NC	min			
					
</META>	META	</META>			
					
L'	DET	L'			
essentiel	NC	essentiel			
du	P+D	du			
#PlanCancer3	HT	#PlanCancer3			
2014-2019	NC	2014-2019			
,	PONCT	,			
synthèse	NC	synthèse			
et	CC	et			
texte	NC	texte			
intégral	ADJ	intégral			
sur	P	sur			
le	DET	le			
site	NC	site			
de	P	de			
@Institut_cancer	NPP	@Institut_cancer	B-ORG		
http://www.e-cancer.fr/le-plan-cancer	NPP	http://www.e-cancer.fr/le-plan-cancer			
#WorldCancerDay	HT	#WorldCancerDay			
					
<META>	META	<META>			
					
bocquet	DET	Bidule353	B-PERS	NPP	
maxime	NC	Cllaude353	I-PERS	NPP	
@BocquetMaxime	NPP	@CllaudeBidule353	B-PERS		
36	DET	36			
min	NC	min			
					
</META>	META	</META>			
					
#Plancancer3	HT	#Plancancer3			
une	DET	une			
seul	ADJ	seul			
#centralenucléaire	HT	#centralenucléaire			
peut	V	peut			
contaminer	VINF	contaminer			
la	DET	la			
France	NPP	France			
					
<META>	META	<META>			
					
La	DET	La	B-PERS		
Mort	NPP	Mort	I-PERS		
@LaMortLaVraie	NPP	@JohnDoe222	B-PERS		
39	ADJ	39			
min	NC	min			
					
</META>	META	</META>			
					
C'	CLS-SUJ	C'			
est	V	est			
pourtant	ADV	pourtant			
simple	ADJ	simple			
:	PONCT	:			
pour_que	CS	pour_que			
le	DET	le			
cancer	NC	cancer			
ne	ADV-MOD	ne			
soit	VS	soit			
plus	ADV-MOD	plus			
la	DET	la			
1ère	ADJ	1ère			
cause	NC	cause			
de	P	de			
mortalité	NC	mortalité			
en	P	en			
France	NPP	France			
,	PONCT	,			
y	CLS+CLO-SUJ	y			
a	V	a			
qu'	ADV-MOD	qu'			
à	P	à			
propager	VINF	propager			
le	DET	le			
virus	NC	virus			
Ebola	NPP	Ebola			
.	PONCT	.			
#Plancancer3	HT	#Plancancer3			
					
<META>	META	<META>			
					
Celine	ADV	Cllaude385	B-PERS	NPP	
Lis-Raoux	DET	Bidule385	I-PERS	NPP	
@LisRaoux	NPP	@CllaudeBidule385	B-PERS		
40	ADJ	40			
min	NC	min			
					
</META>	META	</META>			
					
#RencontresINCa	HT	#RencontresINCa			
#Plancancer3	HT	#Plancancer3			
					
information	NC	information			
systématique	ADJ	systématique			
sur	P	sur			
la	DET	la			
préservation	NC	préservation			
de	P	de			
la	DET	la			
fertilité	NC	fertilité			
pour	P	pour			
les	DET	les			
jeunes	ADJ	jeunes			
malades	NC	malades			
.	PONCT	.			
					
<META>	META	<META>			
					
bocquet	DET	Bidule353	B-PERS	NPP	
maxime	NC	Cllaude353	I-PERS	NPP	
@BocquetMaxime	NPP	@CllaudeBidule353	B-PERS		
46	DET	46			
min	NC	min			
					
</META>	META	</META>			
					
gouvernement	NC	gouvernement			
hypocrite	ADJ	hypocrite			
#Plancancer3	HT	#Plancancer3			
et	CC	et			
la	DET	la			
pollution	NC	pollution			
qui	PROREL	qui			
provoque	V	provoque			
aussi	ADV-MOD	aussi			
des	DET	des			
cancers	NC	cancers			
là	ADV-MOD	là			
rien	PRO	rien			
n'	ADV-MOD	n'			
est	V	est			
fait	VPP	fait			
.	PONCT	.			
les	DET	les			
fumeurs	NC	fumeurs			
vaches	NC	vaches			
à	P	à			
lait	NC	lait			
					
<META>	META	<META>			
					
PerfEvolia	ET	JohnDoe223	B-PERS	NPP	
@PerfEvolia	NPP	@JohnDoe223	B-PERS		
56	DET	56			
min	NC	min			
					
</META>	META	</META>			
					
@Mandanaa91	NPP	@JohnDoe224	B-PERS		
#plancancer3	HT	#plancancer3			
@Allodocteurs	NPP	@JohnDoe225	B-PERS		
...	PONCT	...			
le	DET	le			
budget	NC	budget			
de	P	de			
l'	DET	l'			
Etat	NC	Etat	B-ORG		
pr	P	pr			
la	DET	la			
rech	NC	rech			
.	PONCT	.			
méd	ADJ	méd			
.	PONCT	.			
devrait	V	devrait			
être	VINF	être			
x10	NC	x10			
tous	ADJ	tous			
les	DET	les			
ans	NC	ans			
.	PONCT	.			
Le	DET	Le			
cancer	NC	cancer			
serait	V	serait			
déjà	ADV-MOD	déjà			
vaincu	VPP	vaincu			
!	PONCT	!			
					
<META>	META	<META>			
					
Pierre	NPP	Cllaude386	B-PERS		
Halliez	NPP	Bidule386	I-PERS		
@PierreHalliez	NPP	@CllaudeBidule386	B-PERS		
58	ADJ	58			
min	NC	min			
					
</META>	META	</META>			
					
Le	DET	Le			
cancer	NC	cancer			
reste	V	reste			
une	DET	une			
maladie	NC	maladie			
à	P	à			
part	NC	part			
car	CC	car			
on	CLS-SUJ	on			
n'	ADV-MOD	n'			
en	CLO-MOD	en			
tombe	V	tombe			
pas	ADV-MOD	pas			
malade	NC	malade			
:	PONCT	:			
c'	CLS-SUJ	c'			
est	V	est			
lui	PRO	lui			
qui	PROREL	qui			
vous	CLO-P_OBJ	vous			
tombe	V	tombe			
dessus	ADV-MOD	dessus			
...	PONCT	...			
Plancancer3	NPP	Plancancer3			
					
<META>	META	<META>			
					
Roussel	ET	Cllaude387	B-PERS	NPP	
dominique	ET	Bidule387	I-PERS	NPP	
@sudmedia66	NPP	@CllaudeBidule387	B-PERS		
1	DET	1			
min	NC	min			
					
</META>	META	</META>			
					
Satya	NPP	Satya	B-PERS		
Nadella	NPP	Nadella	I-PERS		
est	V	est			
le	DET	le			
nouveau	ADJ	nouveau			
PDG	NC	PDG			
de	P	de			
Microsoft	NPP	Microsoft	B-ORG		
:	PONCT	:			
C'	CLS-SUJ	C'			
est	V	est			
fait	VPP	fait			
,	PONCT	,			
Microsoft	NPP	Microsoft	B-ORG		
s'	CLR-MOD	s'			
est	V	est			
trouvé	VPP	trouvé			
un	DET	un			
nouveau	ADJ	nouveau			
PDG	NC	PDG			
.	PONCT	.			
C'	CLS-SUJ	C'			
est	V	est			
Satya	NPP	Satya	B-PERS		
...	PONCT	...			
http://bit.ly/LLv2sL	NPP	http://bit.ly/LLv2sL			
					
<META>	META	<META>			
					
Guillaume	NPP	Cllaude377	B-PERS		
Champeau	NPP	Bidule377	I-PERS		
@gchampeau	NPP	@CllaudeBidule377	B-PERS		
2	ADJ	2			
min	NC	min			
					
</META>	META	</META>			
					
OFFICIEL	ADJ	OFFICIEL			
.	PONCT	.			
Satya	NPP	Satya	B-PERS		
Nadella	NPP	Nadella	I-PERS		
nommé	VPP	nommé			
PDG	NC	PDG			
de	P	de			
Microsoft	NPP	Microsoft	B-ORG		
http://www.numerama.com/magazine/28267-satya-nadella-nomme-pdg-de-microsoft.html	NPP	http://www.numerama.com/magazine/28267-satya-nadella-nomme-pdg-de-microsoft.html			
...	PONCT	...			
via	P	via			
@Numerama	NPP	@Numerama	B-OTH:MEDIA		
					
<META>	META	<META>			
					
Viuz.com	NPP	Viuz.com	B-OTH:MEDIA		
@Viuzfr	NPP	@Viuzfr	B-OTH:MEDIA		
3	DET	3			
min	NC	min			
					
</META>	META	</META>			
					
Microsoft	NPP	Microsoft	B-ORG		
:	PONCT	:			
Satya	NPP	Satya	B-PERS		
Nadella	NPP	Nadella	I-PERS		
,	PONCT	,			
l'	DET	l'			
insider	NC	insider			
,	PONCT	,			
nouveau	ADJ	nouveau			
CEO	NC	CEO			
de	P	de			
Microsoft	NPP	Microsoft	B-ORG		
|	PONCT	|			
Viuz	NPP	Viuz	B-OTH:MEDIA		
http://po.st/ErVQrp	NPP	http://po.st/ErVQrp			
via	P	via			
@viuzfr	NPP	@viuzfr	B-OTH:MEDIA		
					
<META>	META	<META>			
					
Jean-Baptiste	NPP	JohnDoe226	B-PERS		
@jbdamiensmorrin	NPP	@JohnDoe226	B-PERS		
3	DET	3			
min	NC	min			
					
</META>	META	</META>			
					
Satya	NPP	Satya	B-PERS		
Nadella	NPP	Nadella	I-PERS		
avait	V	avait			
un	DET	un			
look	NC	look			
assez	ADV	assez			
"	PONCT	"			
Ballmer	NPP	Ballmer	B-PERS		
"	PONCT	"			
ou	CC	ou			
"	PONCT	"			
Gates	NPP	Gates	B-PERS		
"	PONCT	"			
pas	ADV	pas			
très	ADV	très			
geek	NC	geek			
avant	P	avant			
sa	DET	sa			
première	ADJ	première			
photo	NC	photo			
de	P	de			
CEO	NC	CEO			
#tweetprecedent	HT	#tweetprecedent			
pic.twitter.com/PTnUZa0gI7	NPP	WWW84			
					
<META>	META	<META>			
					
Thomas	NPP	Cllaude378	B-PERS		
Favre	ET	Bidule378	I-PERS	NPP	
@thomasfavre	NPP	@CllaudeBidule378	B-PERS		
3	DET	3			
min	NC	min			
					
</META>	META	</META>			
					
Satya	NPP	Satya	B-PERS		
Nadella	NPP	Nadella	I-PERS		
devient	V	devient			
le	DET	le			
3ème	ADJ	3ème			
PDG	NC	PDG			
de	P	de			
l'	DET	l'			
Histoire	NC	Histoire			
de	P	de			
@Microsoft	NPP	@Microsoft	B-ORG		
!	PONCT	!			
@BillGates	NPP	@BillGates	B-PERS		
devient	V	devient			
"	PONCT	"			
Technology	ET	Technology			
Adviser	ET	Adviser			
"	PONCT	"			
!	PONCT	!			
					
<META>	META	<META>			
					
King	NPP	JohnDoe227	B-PERS		
GNAHO	NPP	JohnDoe227_2	I-PERS		
@kgnaho	NPP	@JohnDoe227	B-PERS		
4	ADJ	4			
min	NC	min			
					
</META>	META	</META>			
					
Microsoft	NPP	Microsoft	B-ORG		
annonce	V	annonce			
la	DET	la			
nomination	NC	nomination			
de	P	de			
Satya	NPP	Satya	B-PERS		
Nadella	NPP	Nadella	I-PERS		
comme	P	comme			
directeur	NC	directeur			
général	ADJ	général			
-LRB-	PONCT	-LRB-			
AFP	NPP	AFP	B-OTH:MEDIA		
-RRB-	PONCT	-RRB-			
					
<META>	META	<META>			
					
Mathieu	NPP	Cllaude380	B-PERS		
Foray	ET	Bidule380	I-PERS	NPP	
@MathieuForay	NPP	@CllaudeBidule380	B-PERS		
5	DET	5			
min	NC	min			
					
</META>	META	</META>			
					
RT	META	RT			
@Microsoft	NPP	@Microsoft	B-ORG		
:	PONCT	:			
Introducing	ET	Introducing			
our	ET	our			
new	ET	new			
CEO	ET	CEO			
,	PONCT	,			
Satya	NPP	Satya	B-PERS		
Nadella	NPP	Nadella	I-PERS		
:	PONCT	:			
http://msft.it/msceo	NPP	http://msft.it/msceo			
pic.twitter.com/ADM3wEaZoG	NPP	pic.twitter.com/ADM3wEaZoG			
/	PONCT	/			
/	PONCT	/			
Et	CC	Et			
voilà	V	voilà			
leur	DET	leur			
nouveau	ADJ	nouveau			
PDG	NC	PDG			
!!	PONCT	!!			
					
<META>	META	<META>			
					
Emilien	P	Cllaude381	B-PERS	NPP	
Meyer	NPP	Bidule381	I-PERS		
@EmilienMeyer	NPP	@CllaudeBidule381	B-PERS		
5	ADJ	5			
min	NC	min			
					
</META>	META	</META>			
					
#Microsoft	HT	#Microsoft	B-ORG		
nomme	V	nomme			
Satya	NPP	Satya	B-PERS		
Nadella	NPP	Nadella	I-PERS		
en_tant_que	P	en_tant_que			
PDG	NC	PDG			
http://ow.ly/tgxvy	NPP	http://ow.ly/tgxvy			
					
<META>	META	<META>			
					
Mehdi	NPP	Cllaude382	B-PERS		
Drissi	NPP	Bidule382	I-PERS		
@Dido_M	NPP	@CllaudeBidule382	B-PERS		
7	DET	7			
min	NC	min			
					
</META>	META	</META>			
					
Microsoft	NPP	Microsoft	B-ORG		
accueille	V	accueille			
son	DET	son			
nouveau	ADJ	nouveau			
PDG	NC	PDG			
,	PONCT	,			
Satya	NPP	Satya	B-PERS		
Nadella	NPP	Nadella	I-PERS		
et	CC	et			
Bill	NPP	Bill	B-PERS		
Gates	NPP	Gates	I-PERS		
quitte	V	quitte			
son	DET	son			
poste	NC	poste			
de	P	de			
président	NC	président			
du	P+D	du			
comité	NC	comité			
de	P	de			
direction	NC	direction			
http://bit.ly/1fregYv	NPP	http://bit.ly/1fregYv			
					
<META>	META	<META>			
					
Dominique	NPP	Cllaude383	B-PERS		
Danaë	NPP	Bidule383	I-PERS		
@DomDanae	NPP	@CllaudeBidule383	B-PERS		
7	DET	7			
min	NC	min			
					
</META>	META	</META>			
					
This	ET	This			
is	ET	is			
it	ET	it			
!	PONCT	!			
Notre	DET	Notre			
nouveau	ADJ	nouveau			
CEO	NC	CEO			
est	V	est			
Satya	NPP	Satya	B-PERS		
Nadella	NPP	Nadella	I-PERS		
.	PONCT	.			

