token	tag	token anonymisé	EN	Tag corrigé	Notes / remarques
-LT-META-GT-	META	-LT-META-GT-			
					
Never	VINF	Never		ET	
Say	ET	Say			
Never	ET	Never			
@clemence_tanty	NPP	@JohnDoe273	B-PERS		
3	DET	3			
h	NC	h			
					
-LT-/META-GT-	META	-LT-/META-GT-			
					
Normalement	ADV-MOD	Normalement			
je	CLS-SUJ	je			
reviens	V	reviens			
aussi	ADV-MOD	aussi			
demain	ADV-MOD	demain			
,	PONCT	,			
je	CLS-SUJ	je			
suis	V	suis			
tombée	VPP	tombée			
de	P	de			
cheval	NC	cheval			
,	PONCT	,			
samedi	NC	samedi			
.	PONCT	.			
Mais	CC	Mais			
l'	DET	l'			
hosteo	NC	hosteo			
va	V	va			
tout	PRO	tout			
me	CLO-OBJ	me			
remettre	VINF	remettre			
,	PONCT	,			
déjà	ADV	déjà			
hier	ADV	hier			
,	PONCT	,			
et	CC	et			
ce	DET	ce			
soir	NC	soir			
aussi	ADV	aussi			
#lrt	HT	#lrt			
					
-LT-META-GT-	META	-LT-META-GT-			
					
Aicha	ET	JohnDoe274	B-PERS	NPP	
CR7	ET	CR7			
❤️	ET	❤️			
@AiichaDiakhaby	NPP	@JohnDoe274	B-PERS		
3	DET	3			
h	NC	h			
					
-LT-/META-GT-	META	-LT-/META-GT-			
					
Ils	CLS-SUJ	Ils			
font	V	font			
pitié	NC	pitié			
ces	DET	ces			
FDP	NC	FDP			
#Lrt	HT	#Lrt			
ils	CLS-SUJ	ils			
ont	V	ont			
fait	VPP	fait			
pas	ADV	pas			
moins	ADV	moins			
de	P	de			
16	DET	16			
fautes	NC	fautes			
en	P	en			
un	DET	un			
match	NC	match			
bande	NC	bande			
de	P	de			
bâtard	NC	bâtard			
					
-LT-META-GT-	META	-LT-META-GT-			
					
7	DET	7			
Février	NC	Février			
.	PONCT	.			
@mariebrgx	NPP	@JohnDoe275	B-PERS		
3	ADJ	3			
h	NC	h			
					
-LT-/META-GT-	META	-LT-/META-GT-			
					
Ptn	I	Ptn			
t'	CLS-SUJ	t'			
as	V	as			
pas	ADV-MOD	pas			
de	DET	de			
chance	NC	chance			
moi	PRO	moi			
je	CLS-SUJ	je			
reviens	V	reviens			
demain	ADV-MOD	demain			
en	P	en			
cour	NC	cour			
!	PONCT	!			
Mais	CC	Mais			
comment	ADVWH-MOD	comment			
t'	CLS-SUJ	t'			
as	V	as			
fais	VPP	fais			
pour	P	pour			
avoir	VINF	avoir			
tout	ADJ	tout			
ça	PRO	ça			
?	PONCT	?			
#lrt	HT	#lrt			
					
-LT-META-GT-	META	-LT-META-GT-			
					
Never	VINF	Never		ET	
Say	ET	Say			
Never	ET	Never			
@clemence_tanty	NPP	@JohnDoe273	B-PERS		
3	DET	3			
h	NC	h			
					
-LT-/META-GT-	META	-LT-/META-GT-			
					
Coccyx	NC	Coccyx			
fêlé	VPP	fêlé			
et	CC	et			
bassin	NC	bassin			
déplacé	VPP	déplacé			
,	PONCT	,			
et	CC	et			
problème	NC	problème			
cervicale	ADJ	cervicale			
,	PONCT	,			
muscle	NC	muscle			
cuisse	NC	cuisse			
gauche	ADJ	gauche			
mâcher	VPP	mâcher			
mdrrr	I	mdrrr			
la	DET	la			
totale	ADJ	totale		NC	
.	PONCT	.			
J'	CLS-SUJ	J'			
espère	V	espère			
que	CS	que			
toi	PRO	toi			
ça	PRO	ça			
ira	V	ira			
mieux	ADV-MOD	mieux			
vite	ADV-MOD	vite			
#lrt	HT	#lrt			
					
-LT-META-GT-	META	-LT-META-GT-			
					
Hazard	ADV	Hazard	B-PERS	NPP	
17	DET	17	I-PERS		
@redasiline	NPP	@JohnDoe277	B-PERS		
3	ADJ	3			
h	NC	h			
					
-LT-/META-GT-	META	-LT-/META-GT-			
					
Pir	ADJ	Pir			
vous	CLS-SUJ	vous			
abusez	V	abusez			
avec	P	avec			
vos	DET	vos			
nounours	NC	nounours			
#LRT	HT	#LRT			
bande	NC	bande			
de	P	de			
faible	ADJ	faible			
					
-LT-META-GT-	META	-LT-META-GT-			
					
Miadana	ET	JohnDoe278	B-PERS	NPP	
@MdkBodo	NPP	@JohnDoe278	B-PERS		
4	DET	4			
h	NC	h			
					
-LT-/META-GT-	META	-LT-/META-GT-			
					
Sans	P	Sans			
dec	VINF	dec			
.	PONCT	.			
Venez	VIMP	Venez			
on	CLS-SUJ	on			
lui	CLO-A_OBJ	lui			
dit	V	dit			
que	CS	que			
c'	CLS-SUJ	c'			
est	V	est			
l'	DET	l'			
hiver	NC	hiver			
ici	ADV-MOD	ici			
#lrt	HT	#lrt			
-LRB-	PONCT	-LRB-			
mdr	I	mdr			
je	CLS-SUJ	je			
suis	V	suis			
une	DET	une			
rageuse	ADJ	rageuse			
-RRB-	PONCT	-RRB-			
					
-LT-META-GT-	META	-LT-META-GT-			
					
GUIZ	P	GUIZ	B-PERS	NPP	
LA	DET	LA	B-OTH:MUSIC		
BANQUISE	NC	BANQUISE	I-OTH:MUSIC		
@UnHommeFSD	NPP	@JohnDoe279	B-PERS		
4	ADJ	4			
h	NC	h			
					
-LT-/META-GT-	META	-LT-/META-GT-			
					
Mec	NC	Mec			
t'	CLS-SUJ	t'			
avais	V	avais			
juste	ADV-MOD	juste			
a	P	a			
dire	VINF	dire			
tous	ADJ	tous			
les	DET	les			
filles	NC	filles			
sont	V	sont			
belle	ADJ	belle			
au	P+D	au			
lieux	NC	lieux			
de	P	de			
te	CLR	te			
saoul	VINF	saoul			
a	P	a			
metre	VINF	metre			
tous	ADJ	tous			
c'	Y	c'			
est	DET	est			
pays	NC	pays			
la	ADV-MOD	la			
#lrt	HT	#lrt			
					
-LT-META-GT-	META	-LT-META-GT-			
					
NEEZY	NPP	JohnDoe280	B-PERS		
WOLFIE	NPP	JohnDoe280_2	I-PERS		
@Neezy_Omari	NPP	@JohnDoe280	B-PERS		
4	DET	4			
h	NC	h			
					
-LT-/META-GT-	META	-LT-/META-GT-			
					
C'	CLS-SUJ	C'			
était	V	était			
pas	ADV-MOD	pas			
marrant	ADJ	marrant			
après	ADV-MOD	après			
j'	CLS-SUJ	j'			
ai	V	ai			
relu	VPP	relu			
,	PONCT	,			
j'	CLS-SUJ	j'			
ai	V	ai			
vu	VPP	vu			
Puy	NPP	Puy	B-LOC		
du	P+D	du	I-LOC		
fou	NC	fou	I-LOC		
j'	CLS-SUJ	j'			
suis	V	suis			
tombé	VPP	tombé			
par-terre	ADV-MOD	par-terre			
#lrt	HT	#lrt			
					
-LT-META-GT-	META	-LT-META-GT-			
					
Nonam	ADV	JohnDoe281	B-PERS	NPP	
@ManonBenjy	NPP	@JohnDoe281	B-PERS		
4	DET	4			
h	NC	h			
					
-LT-/META-GT-	META	-LT-/META-GT-			
					
Et	CC	Et			
toi	PRO	toi			
t'	CLS-SUJ	t'			
ajoutes	V	ajoutes			
ma	DET	ma			
meilleure	ADJ	meilleure			
amie	NC	amie			
sans	P	sans			
pression	NC	pression			
#lrt	HT	#lrt			
					
-LT-META-GT-	META	-LT-META-GT-			
					
Meu	NPP	Meu			
Deus	NPP	Deus			
.	PONCT	.			
@CorentinGueshh	NPP	@JohnDoe282	B-PERS		
4	ADJ	4			
h	NC	h			
					
-LT-/META-GT-	META	-LT-/META-GT-			
					
Ah	I	Ah			
cava	PRO+V-SUJ	cava			
j'	CLS-SUJ	j'			
suis	V	suis			
pas	ADV-MOD	pas			
l'	DET	l'			
seul	ADJ	seul			
délinquant	NC	délinquant			
a	P	a			
pas	ADV-MOD	pas			
être	VINF	être			
en	P	en			
cour	NC	cour			
#lrt	HT	#lrt			
					
-LT-META-GT-	META	-LT-META-GT-			
					
Ingrid	NPP	JohnDoe283	B-PERS		
mon	DET	mon			
bébé	NC	bébé			
✨	ET	✨			
@DemetteAmandine	NPP	@JohnDoe283	B-PERS		
5	DET	5			
h	NC	h			
					
-LT-/META-GT-	META	-LT-/META-GT-			
					
Moooh	I	Moooh			
,	PONCT	,			
elle	CLS-SUJ	elle			
est	V	est			
trop	ADV	trop			
mignonne	ADJ	mignonne			
.	PONCT	.			
Elle	CLS-SUJ	Elle			
vas	V	vas			
me	CLO-A_OBJ	me			
manquer	VINF	manquer			
pendant	P	pendant			
une	DET	une			
semaine	NC	semaine			
mon	DET	mon			
ptit	ADJ	ptit			
bébé	NC	bébé			
💖💖	PONCT	💖💖			
#lrt	HT	#lrt			
					
-LT-META-GT-	META	-LT-META-GT-			
					
Ash	NPP	JohnDoe284			
@ThinkPinkDrink	NPP	@JohnDoe284	B-PERS		
8	ADJ	8			
h	NC	h			
					
-LT-/META-GT-	META	-LT-/META-GT-			
					
Le	DET	Le			
lit	NC	lit			
a	P	a			
l'	DET	l'			
infermerie	NC	infermerie			
il	CLS-SUJ	il			
prend	V	prend			
la	DET	la			
poussiere	NC	poussiere			
on	CLS-SUJ	on			
dirait	V	dirait			
un	DET	un			
lit	NC	lit			
de	P	de			
guerre	NC	guerre			
jamais	ADV-MOD	jamais			
j'	CLS-SUJ	j'			
me	CLO-OBJ	me			
poserai	V	poserai			
dessus	ADV-MOD	dessus			
#lrt	HT	#lrt			
					
-LT-META-GT-	META	-LT-META-GT-			
					
damn.✨	P	damn.✨		ET	ET et I
@ManelAdjaoui	NPP	@JohnDoe285	B-PERS		
8	ADJ	8			
h	NC	h			
					
-LT-/META-GT-	META	-LT-/META-GT-			
					
Mdrrr	I	Mdrrr			
ton	DET	ton			
frère	NC	frère			
je	CLS-SUJ	je			
l'	CLO-OBJ	l'			
aime	V	aime			
bordel	I	bordel			
!	PONCT	!			
15	DET	15			
ans	NC	ans			
ça	PRO	ça			
se	CLR	se			
sent	V	sent			
plus	ADV-MOD	plus			
pissé	VINF	pissé			
mdrrrr	I	mdrrrr			
et	CC	et			
moi	PRO	moi			
aussi	ADV	aussi			
hein	I	hein			
,	PONCT	,			
15	DET	15			
baffes	NC	baffes			
.	PONCT	.			
#lrt	HT	#lrt			
					
-LT-META-GT-	META	-LT-META-GT-			
					
F**k	P	F**k		I	
la	DET	la			
skinnance	NC	skinnance			
!	PONCT	!			
@DaniAlvesJr2	NPP	@JohnDoe286	B-PERS		
8	ADJ	8			
h	NC	h			
					
-LT-/META-GT-	META	-LT-/META-GT-			
					
Prie	VIMP	Prie			
pr	P	pr			
que	CS	que			
ya	CLS+CLO+VS	ya		CLS+CLO+V	
ps	ADV-MOD	ps			
d'	DET	d'			
tempete	NC	tempete			
mddrrrrrrr	I	mddrrrrrrr			
#lrt	HT	#lrt			
					
-LT-META-GT-	META	-LT-META-GT-			
					
~TiGRESSE	ET	~TiGRESSE			
ONLY	ET	ONLY			
✌~	ET	✌~			
@DeborahMaFemme	NPP	@JohnDoe287	B-PERS		
11	DET	11			
h	NC	h			
					
-LT-/META-GT-	META	-LT-/META-GT-			
					
mdrrrrrrrrrrrrrrrrrr	I	mdrrrrrrrrrrrrrrrrrr			
il	CLS-SUJ	il			
veux	V	veux			
smoquer	CLR+VINF	smoquer			
dmoi	P+PRO	dmoi			
lui	PRO	lui			
or	CC	or			
que	CS	que			
quand	CS	quand			
il	CLS-SUJ	il			
ma	CLO+V-OBJ	ma			
vue	VPP	vue			
il	CLS-SUJ	il			
a	V	a			
du	VPP	du			
etre	VINF	etre			
contant	ADJ	contant			
des	P+D	des			
résultat	NC	résultat			
dmes	P+D	dmes			
fesses	NC	fesses			
ptdrrrr	I	ptdrrrr			
#lrt	HT	#lrt			
					
-LT-META-GT-	META	-LT-META-GT-			
					
Krs	ET	Krs			
→	ET	→			
Takoulou	ET	Takoulou			
2.0	ET	2.0			
@KeeryIzi	NPP	@JohnDoe288	B-PERS		
12	DET	12			
h	NC	h			
					
-LT-/META-GT-	META	-LT-/META-GT-			
					
Javooue	CLS+V	Javooue			
ma	DET	ma			
vie	NC	vie			
elle	CLS-SUJ	elle			
triste	ADJ	triste			
mtn	ADV	mtn			
qu'	CS	qu'			
tu	CLS-SUJ	tu			
mle	CLO+CLO-A_OBJ-OBJ	mle			
fais	V	fais			
remarquer	VINF	remarquer			
:-LRB--LRB-	I	:-LRB--LRB-			
#lrt	HT	#lrt			
					
-LT-META-GT-	META	-LT-META-GT-			
					
Paranoïaque	NC	Paranoïaque			
★	P	★			
@LaCrimovicc	NPP	@JohnDoe289	B-PERS		
12	ADJ	12			
h	NC	h			
					
-LT-/META-GT-	META	-LT-/META-GT-			
					
Ptdr	I	Ptdr			
il	CLS-SUJ	il			
me	CLO-OBJ	me			
fais	V	fais			
rire	VINF	rire			
l'	DET	l'			
enfoire	NC	enfoire			
#LRT	HT	#LRT			
					
-LT-META-GT-	META	-LT-META-GT-			
					
Prototype	NC	Prototype			
7.5	DET	7.5			
@AmiineeMiimso	NPP	@JohnDoe290	B-PERS		
13	ADJ	13			
h	NC	h			
					
-LT-/META-GT-	META	-LT-/META-GT-			
					
Voila	V	Voila			
lui	PRO	lui			
il	CLS-SUJ	il			
a	V	a			
raison	NC	raison			
jpense	CLS+V-SUJ	jpense			
pareil	ADJ	pareil			
,	PONCT	,			
pk	ADVWH-MOD	pk			
les	CLO-OBJ	les			
respecter	VINF	respecter			
?	PONCT	?			
Elle	CLS-SUJ	Elle			
me	CLO-A_OBJ	me			
ment	V	ment			
??	PONCT	??			
Jmen	CLS+CLR+CLO-SUJ	Jmen			
tape	V	tape			
le	DET	le			
lendemain	NC	lendemain			
texiste	CLS+V-SUJ	texiste			
plus	ADV-MOD	plus			
dans	P	dans			
ma	DET	ma			
vie	NC	vie			
histoire	NC	histoire			
d1	P+D	d1			
nui	NC	nui			
#lrt	HT	#lrt			
					
-LT-META-GT-	META	-LT-META-GT-			
					
BOSS	NC	BOSS			
SANS	P	SANS			
TATOUAGE	NC	TATOUAGE			
@Adopte1iVOIRIEN	NPP	@JohnDoe291	B-PERS		
13	DET	13			
h	NC	h			
					
-LT-/META-GT-	META	-LT-/META-GT-			
					
#lrt	HT	#lrt			
surtout	ADV-MOD	surtout			
NE	ADV-MOD	NE			
VOUS	CLR-OBJ	VOUS			
ARRETEZ	VIMP	ARRETEZ			
PAS	ADV-MOD	PAS			
LES	DET	LES			
FILLES	NC	FILLES			
,	PONCT	,			
JE	CLS-SUJ	JE			
M'	CLR	M'			
AMBIANCE	V	AMBIANCE			
TROP	ADV-MOD	TROP			
LÀ	ADV-MOD	LÀ			
*	PONCT	*			
kellog	NPP	kellog	B-OTH:TM		
'	PONCT	'	I-OTH:TM		
s	ET	s	I-OTH:TM		
,	PONCT	,			
Nutella	NPP	Nutella	B-OTH:TM		
et	CC	et			
aprs	ADV	aprs			
smok*	NC	smok*			
hummm	I	hummm			
enjaillance	NC	enjaillance			
à	P	à			
2h	DET+NC	2h			
du	P+D	du			
mat	NC	mat			
					
-LT-META-GT-	META	-LT-META-GT-			
					
Δ	ET	Δ		I	
Los	ET	Los			
de	P	de		ET	
Naza	ET	Naza			
†	ET	†		I	
@HellaIlluminati	NPP	@JohnDoe292	B-PERS		
13	DET	13			
h	NC	h			
					
-LT-/META-GT-	META	-LT-/META-GT-			
					
Pck	CS	Pck			
elles	CLS-SUJ	elles			
se	CLR	se			
sont	V	sont			
tous	PRO	tous			
tapper	VPP	tapper			
les	DET	les			
meme	ADJ	meme			
mec	NC	mec			
,	PONCT	,			
sa	PRO	sa			
leurs	CLO-A_OBJ	leurs			
fait	V	fait			
des	DET	des			
point	NC	point			
en_commun	ADV	en_commun			
mdddrr	I	mdddrr			
#LRT	HT	#LRT			
					
-LT-META-GT-	META	-LT-META-GT-			
					
Méchant	VPR	Méchant		ADJ	
Garcon	ET	Garcon		NC	
@kayencere	NPP	@JohnDoe293	B-PERS		
14	DET	14			
h	NC	h			
					
-LT-/META-GT-	META	-LT-/META-GT-			
					
Jvé	CLS+V	Jvé			
mourir	VINF	mourir			
elle	CLS-SUJ	elle			
sont	V	sont			
folle	ADJ	folle			
#lrt	HT	#lrt			
					
-LT-META-GT-	META	-LT-META-GT-			
					
Stevan	ET	JohnDoe294	B-PERS	NPP	
@PF_Stevan	NPP	@JohnDoe294	B-PERS		
2	DET	2			
min	NC	min			
					
-LT-/META-GT-	META	-LT-/META-GT-			
					
@quenquen93	NPP	@JohnDoe295	B-PERS		
Mdrrrrrrrr	I	Mdrrrrrrrr			
grave	ADJ	grave			
j'	CLS-SUJ	j'			
essaie	V	essaie			
de	P	de			
me	CLO-A_OBJ	me			
donner	VINF	donner			
bonne	ADJ	bonne			
conscience	NC	conscience			
mais	CC	mais			
depuis_que	CS	depuis_que			
je	CLS-SUJ	je			
suis	V	suis			
rentrée	VPP	rentrée			
je	CLS-SUJ	je			
joue	V	joue			
a	P	a			
Flappy	NPP	Flappy	B-OTH:GAME		
bird	NPP	bird	I-OTH:GAME		
mdr	I	mdr			
					
-LT-META-GT-	META	-LT-META-GT-			
					
Claudia	NPP	JohnDoe296	B-PERS		
♔	ET	♔			
@ClaudiaLeal_F	NPP	@JohnDoe296	B-PERS		
3	DET	3			
min	NC	min			
					
-LT-/META-GT-	META	-LT-/META-GT-			
					
Jvoi	CLS+V-SUJ	Jvoi			
tout	ADJ	tout			
l'	DET	l'			
monde	NC	monde			
se	CLR	se			
bute	V	bute			
a	P	a			
flappy	NPP	flappy	B-OTH:GAME		
bird	NPP	bird	I-OTH:GAME		
,	PONCT	,			
moi	PRO	moi			
Jai	CLS+V-SUJ	Jai			
pas	ADV-MOD	pas			
dépassé	VPP	dépassé			
1	PRO	1			
..	PONCT	..			
mdrr	I	mdrr			
					
-LT-META-GT-	META	-LT-META-GT-			
					
-LSB-	PONCT	-LSB-			
Feelin	NPP	Feelin		ET	
'	PONCT	'			
Myself.	NPP	Myself.		ET	
-RSB-	PONCT	-RSB-			
@Tanguy_Frm	NPP	@JohnDoe297	B-PERS		
3	ADJ	3			
min	NC	min			
					
-LT-/META-GT-	META	-LT-/META-GT-			
					
Tout	ADJ	Tout			
le	DET	le			
monde	NC	monde			
est	V	est			
à	P	à			
fond	NC	fond			
sur	P	sur			
"	PONCT	"			
Flappy	NPP	Flappy	B-OTH:GAME		
Bird	NPP	Bird	I-OTH:GAME		
"	PONCT	"			
.	PONCT	.			
J'	CLS-SUJ	J'			
espère	V	espère			
qu'	CS	qu'			
ils	CLS-SUJ	ils			
ont	V	ont			
la	DET	la			
tête	NC	tête			
solide	ADJ	solide			
parce_que	CS	parce_que			
sa	PRO	sa			
doit	V	doit			
pas	ADV-MOD	pas			
être	VINF	être			
évident	ADJ	évident			
de	P	de			
rester	VINF	rester			
zen	ADJ	zen			
.	PONCT	.			
					
-LT-META-GT-	META	-LT-META-GT-			
					
ງ​ūs	ET	JohnDoe298			
@LiloouJustine	NPP	@JohnDoe298	B-PERS		
3	DET	3			
min	NC	min			
					
-LT-/META-GT-	META	-LT-/META-GT-			
					
Hier	ADV-MOD	Hier			
j'	CLS-SUJ	j'			
ai	V	ai			
fais	VPP	fais			
5	PRO	5			
a	P	a			
Flappy	NPP	Flappy	B-OTH:GAME		
Bird	NPP	Bird	I-OTH:GAME		
j'	CLS-SUJ	j'			
étais	V	étais			
au	P+D	au			
max	NC	max			
de	P	de			
ma	DET	ma			
puissance	NC	puissance			
mdr	I	mdr			
					
-LT-META-GT-	META	-LT-META-GT-			
					
Selma	NPP	JohnDoe299	B-PERS		
♚	ET	♚	I-PERS	I	
@SBasille	NPP	@JohnDoe299	B-PERS		
4	DET	4			
min	NC	min			
					
-LT-/META-GT-	META	-LT-/META-GT-			
					
J'	CLS-SUJ	J'			
ai	V	ai			
essayé	VPP	essayé			
de	P	de			
jouer	VINF	jouer			
a	P	a			
Flappy	NPP	Flappy	B-OTH:GAME		
Bird	NPP	Bird	I-OTH:GAME		
,	PONCT	,			
ça	PRO	ça			
m'	CLO-OBJ	m'			
as	V	as			
énervée	VPP	énervée			
au_bout_de	P	au_bout_de			
2	DET	2			
parties	NC	parties			
					
-LT-META-GT-	META	-LT-META-GT-			
					
Crazy	ET	Crazy			
Mofo	ET	Mofo			
@Lovatics_Empire	NPP	@JohnDoe300	B-PERS		
4	DET	4			
min	NC	min			
					
-LT-/META-GT-	META	-LT-/META-GT-			
					
un	DET	un			
jour	NC	jour			
j'	CLS-SUJ	j'			
ai	V	ai			
fait	VPP	fait			
24	PRO	24			
en	P	en			
jouant	VPR	jouant			
à	P	à			
flappy	NPP	flappy	B-OTH:GAME		
bird	NPP	bird	I-OTH:GAME		
depuis	ADV-MOD	depuis			
je	CLS-SUJ	je			
dépasse	V	dépasse			
pas	ADV-MOD	pas			
4	PRO	4			
					
-LT-META-GT-	META	-LT-META-GT-			
					
Blackmill	ET	Blackmill	B-PERS	NPP	
@Axelle_Gicquel	NPP	@JohnDoe301	B-PERS		
4	DET	4			
min	NC	min			
					
-LT-/META-GT-	META	-LT-/META-GT-			
					
Aujourd'_hui	ADV-MOD	Aujourd'_hui			
j'	CLS-SUJ	j'			
ai	V	ai			
découvert	VPP	découvert			
Flappy	NPP	Flappy	B-OTH:GAME		
Bird	NPP	Bird	I-OTH:GAME		
,	PONCT	,			
mon	DET	mon			
meilleur	ADJ	meilleur			
score	NC	score			
c'	CLS-SUJ	c'			
est	V	est			
5	PRO	5			
..	PONCT	..			
					
-LT-META-GT-	META	-LT-META-GT-			
					
Steffy	ET	JohnDoe302	B-PERS	NPP	
✨	ET	✨		I	
@Steffy__P	NPP	@JohnDoe302	B-PERS		
5	DET	5			
min	NC	min			
					
-LT-/META-GT-	META	-LT-/META-GT-			
					
Bon	I	Bon			
svp	ADV-MOD	svp			
j'	CLS-SUJ	j'			
ai	V	ai			
réussit	VPP	réussit			
ma	DET	ma			
vie	NC	vie			
j'	CLS-SUJ	j'			
ai	V	ai			
fais	VPP	fais			
104	PRO	104			
a	P	a			
flappy	NPP	flappy	B-OTH:GAME		
bird	NPP	bird	I-OTH:GAME		
👌👏👏💪💪💪👊	PONCT	👌👏👏💪💪💪👊			
					
-LT-META-GT-	META	-LT-META-GT-			
					
免费	ET	JohnDoe303			
@Yanissement	NPP	@JohnDoe303	B-PERS		
5	DET	5			
min	NC	min			
					
-LT-/META-GT-	META	-LT-/META-GT-			
					
dans	P	dans			
la	DET	la			
classe	NC	classe			
on	CLS-SUJ	on			
joue	V	joue			
tous	PRO	tous			
a	P	a			
flappy	NPP	flappy	B-OTH:GAME		
bird	NPP	bird	I-OTH:GAME		
et	CC	et			
on	CLS-SUJ	on			
mange	V	mange			
tous	PRO	tous			
des	DET	des			
pipasol	NC	pipasol			
c'	CLS-SUJ	c'			
est	V	est			
donc	ADV-MOD	donc			
ça	PRO	ça			
notre	DET	notre			
vie	NC	vie			
?	PONCT	?			
					
-LT-META-GT-	META	-LT-META-GT-			
					
P	NC	P	X		
E	P	E	X		
P	NC	P	X		
I	ADJ	I	X		
T	NC	T	X		
E	P	E	NC		
@KevinMahe_11	NPP	@JohnDoe304	B-PERS		
5	ADJ	5			
min	NC	min			
					
-LT-/META-GT-	META	-LT-/META-GT-			
					
C'	CLS-SUJ	C'			
est	V	est			
qui	PROWH	qui			
le	DET	le			
patron	NC	patron			
a	P	a			
Flappy	NPP	Flappy	B-OTH:GAME		
Bird	NPP	Bird	I-OTH:GAME		
?!	PONCT	?!			
pic.twitter.com/lIq951nZFJ	NPP	WWW85			
					
-LT-META-GT-	META	-LT-META-GT-			
					
To	ADV	To		ET	
Build	ET	Build			
A	P	A		ET	
Home	ET	Home			
@Emma_Brt1	NPP	@JohnDoe305	B-PERS		
5	DET	5			
min	NC	min			
					
-LT-/META-GT-	META	-LT-/META-GT-			
					
Flappy	NPP	Flappy	B-OTH:GAME		
Bird	NPP	Bird	I-OTH:GAME		
c'	CLS-SUJ	c'			
est	V	est			
un	DET	un			
jeu	NC	jeu			
a	P	a			
rendre	VINF	rendre			
dingue	ADJ	dingue			
.	PONCT	.			
					
-LT-META-GT-	META	-LT-META-GT-			
					
Ahmed	NPP	JohnDoe306	B-PERS		
@hmd183	NPP	@JohnDoe306	B-PERS		
6	ADJ	6			
min	NC	min			
					
-LT-/META-GT-	META	-LT-/META-GT-			
					
Flappy	NPP	Flappy	B-OTH:GAME		
Bird	NPP	Bird	I-OTH:GAME		
ou	CC	ou			
comment	ADVWH-MOD	comment			
jeter	VINF	jeter			
son	DET	son			
iPhone	NPP	iPhone	B-OTH:TM		
par	P	par			
la	DET	la			
fenêtre	NC	fenêtre			
!	PONCT	!			
					
-LT-META-GT-	META	-LT-META-GT-			
					
♛Nono♛	ET	JohnDoe307	B-PERS	NPP	NPP et I
@AB_Neezy	NPP	@JohnDoe307	B-PERS		
6	DET	6			
min	NC	min			
					
-LT-/META-GT-	META	-LT-/META-GT-			
					
Flappy	NPP	Flappy	B-OTH:GAME		
bird	NPP	bird	I-OTH:GAME		
c'	CLS-SUJ	c'			
est	V	est			
Mario	NPP	Mario	B-PERS		
on	CLS-SUJ	on			
est	V	est			
d'_accord	ADV-ATS	d'_accord			
?	PONCT	?			
C'	CLS-SUJ	C'			
est	V	est			
la	DET	la			
même	ADJ	même			
carte	NC	carte			
et	CC	et			
l'	DET	l'			
oiseau	NC	oiseau			
ressemble	V	ressemble			
aux	P+D	aux			
poissons	NC	poissons			
de	P	de			
Mario	NPP	Mario	B-PERS		
!	PONCT	!			
					
-LT-META-GT-	META	-LT-META-GT-			
					
Pirate	V	Pirate		NC	
⚓️	ET	⚓️		I	
@Madison_Sncal	NPP	@JohnDoe308	B-PERS		
6	DET	6			
min	NC	min			
					
-LT-/META-GT-	META	-LT-/META-GT-			
					
Au	P+D	Au			
foyer	NC	foyer			
sa	PRO	sa			
joue	V	joue			
à	P	à			
Flappy	NPP	Flappy	B-OTH:GAME		
Bird	NPP	Bird	I-OTH:GAME		
de	P	de			
partout	ADV	partout			
					
-LT-META-GT-	META	-LT-META-GT-			
					
Papa	NC	Papa			
@_Shelco	NPP	@JohnDoe309	B-PERS		
6	ADJ	6			
min	NC	min			
					
-LT-/META-GT-	META	-LT-/META-GT-			
					
Flappy	NPP	Flappy	B-OTH:GAME		
bird	NPP	bird	I-OTH:GAME		
sur	P	sur			
blackberry	NPP	blackberry	B-OTH:TM		
?	PONCT	?			
C'	CLS-SUJ	C'			
est	V	est			
possible	ADJ	possible			
hehe	I	hehe			
					
-LT-META-GT-	META	-LT-META-GT-			
					
k6	ADJ	k6			
.	PONCT	.			
@Loestrange	NPP	@JohnDoe310	B-PERS		
6	ADJ	6			
min	NC	min			
					
-LT-/META-GT-	META	-LT-/META-GT-			
					
J'	CLS-SUJ	J'			
ai	V	ai			
utilisé	VPP	utilisé			
toute	ADJ	toute			
ma	DET	ma			
batterie	NC	batterie			
pour	P	pour			
jouer	VINF	jouer			
à	P	à			
Flappy	NPP	Flappy	B-OTH:GAME		
Bird	NPP	Bird	I-OTH:GAME		
en	P	en			
cours	NC	cours			
,	PONCT	,			
tuez	VIMP	tuez			
-oim	CLO-OBJ	-oim			
.	PONCT	.			
					
-LT-META-GT-	META	-LT-META-GT-			
					
VB	P	VB	B-PERS	NPP	
@vanessa_beguin	NPP	@JohnDoe311	B-PERS		
6	ADJ	6			
min	NC	min			
					
-LT-/META-GT-	META	-LT-/META-GT-			
					
Filipe	NPP	Cllaude452	B-PERS		
il	CLS-SUJ	il			
vient	V	vient			
de	P	de			
faire	VINF	faire			
80	PRO	80			
a	P	a			
Flappy	NPP	Flappy	B-OTH:GAME		
Bird	NPP	Bird	I-OTH:GAME		
en	P	en			
live	NC	live			
devant	P	devant			
mon	PRO	mon			
tranquille	ADJ	tranquille			
sans	P	sans			
pression	NC	pression			
...	PONCT	...			
...	PONCT	...			
					
-LT-META-GT-	META	-LT-META-GT-			
					
.PROMISE	NPP	.PROMISE		ET	
.	PONCT	.			
@MouudirKatarina	NPP	@JohnDoe312	B-PERS		
2	ADJ	2			
h	NC	h			
					
-LT-/META-GT-	META	-LT-/META-GT-			
					
Jai	CLS+V	Jai			
jouer	VPP	jouer			
à	P	à			
votre	DET	votre			
flappy	NPP	flappy	B-OTH:GAME		
bird	NPP	bird	I-OTH:GAME		
la	ADV-MOD	la			
laaahila	I	laaahila			
mn	DET	mn			
meilleure	ADJ	meilleure			
score	NC	score			
cs	CLS+V-SUJ	cs			
4	PRO	4			
je	CLS-SUJ	je			
joue	V	joue			
plus	ADV-MOD	plus			
cs	CLS+V-SUJ	cs			
triche	VPP	triche			
					
-LT-META-GT-	META	-LT-META-GT-			
					
paramore	P	JohnDoe313		ET	
@captainiaII	NPP	@JohnDoe313	B-PERS		
7	DET	7			
min	NC	min			
					
-LT-/META-GT-	META	-LT-/META-GT-			
					
Margot	NPP	Cllaude453	B-PERS		
elle	CLS-SUJ	elle			
s'	CLR-OBJ	s'			
énerve	V	énerve			
avec	P	avec			
flappy	NPP	flappy	B-OTH:GAME		
bird	NPP	bird	I-OTH:GAME		
					
-LT-META-GT-	META	-LT-META-GT-			
					
Nana	NPP	JohnDoe314	B-PERS		
'	PONCT	'	I-PERS		
Jay♡	NPP	JohnDoe314_2	I-PERS		
@NanaShannon	NPP	@JohnDoe314	B-PERS		
7	DET	7			
min	NC	min			
					
-LT-/META-GT-	META	-LT-/META-GT-			
					
_URL	NPP	_URL			
eaDichi_99	NPP	@JohnDoe315	B-PERS		
:	PONCT	:			
"	PONCT	"			
@NanaShannon	NPP	@JohnDoe314	B-PERS		
:	PONCT	:			
Flappy	NPP	Flappy	B-OTH:GAME		
bird	NPP	bird	I-OTH:GAME		
il	CLS-SUJ	il			
me	CLO-OBJ	me			
rend	V	rend			
folle	ADJ	folle			
ce	DET	ce			
jeu	NC	jeu			
!	PONCT	!			
"	PONCT	"			
GAME	ET	GAME			
OVER	ET	OVER			
"	PONCT	"			
=	PONCT	=			
-RRB-	PONCT	-RRB-			
-RRB-	PONCT	-RRB-			
					
-LT-META-GT-	META	-LT-META-GT-			
					
So	NPP	So			
L'	DET	L'			
ange	NC	ange			
O	NPP	O			
:	PONCT	:			
-RRB-	PONCT	-RRB-			
@lopes_solenn	NPP	@JohnDoe316	B-PERS		
7	ADJ	7			
min	NC	min			
					
-LT-/META-GT-	META	-LT-/META-GT-			
					
Quoi	PROWH	Quoi			
?	PONCT	?			
Tu	CLS-SUJ	Tu			
as	V	as			
fini	VPP	fini			
Candy	NPP	Candy	B-OTH:GAME		
Crush	NPP	Crush	I-OTH:GAME		
?	PONCT	?			
Petit	ADJ	Petit			
joueur	NC	joueur			
,	PONCT	,			
mon	DET	mon			
score	NC	score			
est	V	est			
de	P	de			
27	PRO	27			
à	P	à			
Flappy	NPP	Flappy	B-OTH:GAME		
Bird	NPP	Bird	I-OTH:GAME		
.	PONCT	.			
					
-LT-META-GT-	META	-LT-META-GT-			
					
Camouuillee	DET	JohnDoe317	B-PERS	NPP	
@cameeeb	NPP	@JohnDoe317	B-PERS		
8	ADJ	8			
min	NC	min			
					
-LT-/META-GT-	META	-LT-/META-GT-			
					
Flappy	NPP	Flappy	B-OTH:GAME		
bird	NPP	bird	I-OTH:GAME		
me	CLO-OBJ	me			
rend	V	rend			
folle	ADJ	folle			
,	PONCT	,			
mais	CC	mais			
heureusement	ADV	heureusement			
que	CS	que			
je	CLS-SUJ	je			
l'	CLO-OBJ	l'			
ai	V	ai			
en	P	en			
philo	NC	philo			
mtn	ADV-MOD	mtn			
					
-LT-META-GT-	META	-LT-META-GT-			
					
Giirix	ET	JohnDoe318		NPP	
Punchlineur	ET	JohnDoe318_2		ADJ	
@GiiRix77	NPP	@JohnDoe318	B-PERS		
8	DET	8			
min	NC	min			
					
-LT-/META-GT-	META	-LT-/META-GT-			
					
Flappy	NPP	Flappy	B-OTH:GAME		
bird	NPP	bird	I-OTH:GAME		
sa	PRO	sa			
rend	V	rend			
fou	ADJ	fou			
se	DET	se			
jeu	NC	jeu			
					
-LT-META-GT-	META	-LT-META-GT-			
					
Vinc	NPP	Vinc	B-PERS		
'	PONCT	'			
✌️	ET	✌️			
@RIBEIROVincent	NPP	@JohnDoe319	B-PERS		
8	DET	8			
min	NC	min			
					
-LT-/META-GT-	META	-LT-/META-GT-			
					
J'	CLS-SUJ	J'			
allais	V	allais			
battre	VINF	battre			
mon	DET	mon			
high	ADJ	high			
score	NC	score			
sur	P	sur			
Flappy	NPP	Flappy	B-OTH:GAME		
bird	NPP	bird	I-OTH:GAME		
et	CC	et			
là	ADV-MOD	là			
@DontJudgeMeTdl	NPP	@JohnDoe320	B-PERS		
a	V	a			
tappé	VPP	tappé			
sur	P	sur			
mon	DET	mon			
écran	NC	écran			
🔫🔫	PONCT	🔫🔫		I	
					
-LT-META-GT-	META	-LT-META-GT-			
					
☤PhosphatidylCyril☤	ET	JohnDoe321	B-PERS		
@CyrilPlantec	NPP	@JohnDoe321	B-PERS		
9	DET	9			
min	NC	min			
					
-LT-/META-GT-	META	-LT-/META-GT-			
					
J'	CLS-SUJ	J'			
arrive	V	arrive			
pas	ADV-MOD	pas			
a	P	a			
dépasser	VINF	dépasser			
80	PRO	80			
à	P	à			
flappy	NPP	flappy	B-OTH:GAME		
bird	NPP	bird	I-OTH:GAME		
depuis	P	depuis			
ce	DET	ce			
matin	NC	matin			
ça	PRO	ça			
commence	V	commence			
à	P	à			
me	CLO-OBJ	me			
faire	VINF	faire			
rager	VINF	rager			
					
-LT-META-GT-	META	-LT-META-GT-			
					
DRY	ADJ	DRY		ET	
PAN	NPP	PAN		ET	
PAN	NPP	PAN		ET	
@CaroleDrypan	NPP	@JohnDoe322	B-PERS		
9	ADJ	9			
min	NC	min			
					
-LT-/META-GT-	META	-LT-/META-GT-			
					
Je	CLS-SUJ	Je			
ne	ADV-MOD	ne			
préfère	V	préfère			
même	ADV-MOD	même			
pas	ADV-MOD	pas			
télécharger	VINF	télécharger			
"	PONCT	"			
flappy	NPP	flappy	B-OTH:GAME		
bird	NPP	bird	I-OTH:GAME		
"	PONCT	"			
je	CLS-SUJ	je			
risquerai	V	risquerai			
de	P	de			
péter	VINF	péter			
un	DET	un			
plomb	NC	plomb			
					
-LT-META-GT-	META	-LT-META-GT-			
					
Gabii	ET	JohnDoe323	B-PERS	NPP	
@Gab_andrs	NPP	@JohnDoe323	B-PERS		
9	DET	9			
min	NC	min			
					
-LT-/META-GT-	META	-LT-/META-GT-			
					
C'	CLS-SUJ	C'			
est	V	est			
plus	ADV	plus			
facile	ADJ	facile			
sur	P	sur			
Android	NPP	Android	B-OTH:TM		
que	CS	que			
sur	P	sur			
iPhone	NPP	iPhone	B-OTH:TM		
flappy	NPP	flappy	B-OTH:GAME		
bird	NPP	bird	I-OTH:GAME		
!	PONCT	!			
@BenmbarekMaram	NPP	@JohnDoe324	B-PERS		
tu	CLS-SUJ	tu			
baisses	V	baisses			
dans	P	dans			
mon	DET	mon			
estime	NC	estime			
!	PONCT	!			
					
-LT-META-GT-	META	-LT-META-GT-			
					
❤️	ET	❤️			
التونسية	ET	التونسية			
❤️✌️	ET	❤️✌️			
@ShishouPcf	NPP	@JohnDoe325	B-PERS		
9	DET	9			
min	NC	min			
					
-LT-/META-GT-	META	-LT-/META-GT-			
					
Flappy	NPP	Flappy	B-OTH:GAME		
bird	NPP	bird	I-OTH:GAME		
y	CLS-SUJ	y			
vas	V	vas			
m'	CLO-OBJ	m'			
rendre	VINF	rendre			
folle	ADJ	folle			
					
-LT-META-GT-	META	-LT-META-GT-			
					
Pazou	P	JohnDoe326	B-PERS	NPP	
@leorigins	NPP	@JohnDoe326	B-PERS		
9	ADJ	9			
min	NC	min			
					
-LT-/META-GT-	META	-LT-/META-GT-			
					
_URL	NPP	_URL			
ylanChatelain_	NPP	JohnDoe327	B-PERS		
:	PONCT	:			
Jeune	ADJ	Jeune			
arreté	VPP	arreté			
pour	P	pour			
avoir	VINF	avoir			
assassiné	VPP	assassiné			
son	DET	son			
frère	NC	frère			
a	P	a			
cause	NC	cause			
de	P	de			
Flappy	NPP	Flappy	B-OTH:GAME		
Bird	NPP	Bird	I-OTH:GAME		
http://geekclick.org/teen-arrested-for-killing-brother-over-flappy-bird-game/	NPP	http://geekclick.org/teen-arrested-for-killing-brother-over-flappy-bird-game/			
..	PONCT	..			
.	PONCT	.			
"	PONCT	"			
mais	CC	mais			
nan	ADV	nan			
????	PONCT	????			

