token	tag	token anonymisé	EN	Tag corrigé	Notes / remarques
ya	CLS+CLO+V-SUJ	ya			
pas	ADV-MOD	pas			
teen	NPP	teen	B-OTH:MOVIE		
wolf	NPP	wolf	I-OTH:MOVIE		
encore	ADV-MOD	encore			
,	PONCT	,			
olala	I	olala			
					
-LT-META-GT-	META	-LT-META-GT-			
					
Nezanod	ADV	JohnDoe610	B-PERS	NPP	
@Nezanod	NPP	@JohnDoe610	B-PERS		
8	DET	8			
h	NC	h			
					
-LT-/META-GT-	META	-LT-/META-GT-			
					
Wow	I	Wow			
Teen	NPP	Teen	B-OTH:MOVIE		
Wolf	NPP	Wolf	I-OTH:MOVIE		
en	P	en			
#TT	NC	#TT			
comme	P	comme			
quoi	PROWH	quoi			
cette	DET	cette			
série	NC	série			
doit	V	doit			
marcher	VINF	marcher			
plutôt	ADV-MOD	plutôt			
pas	ADV	pas			
mal	ADV	mal			
o	Y	o			
.	Y	.			
O	I	O			
					
-LT-META-GT-	META	-LT-META-GT-			
					
D	P	D	B-PERS		
.	PONCT	.	I-PERS		
@fannyblt_	NPP	@JohnDoe615	B-PERS		
8	ADJ	8			
h	NC	h			
					
-LT-/META-GT-	META	-LT-/META-GT-			
					
AHHHH	I	AHHHH			
ce	DET	ce			
soir	NC	soir			
y	YM	y			
'	YM	'			
a	CLS+CLO+V-SUJ	a			
TEEN	NPP	TEEN	B-OTH:MOVIE		
WOLF	NPP	WOLF	I-OTH:MOVIE		
					
-LT-META-GT-	META	-LT-META-GT-			
					
k	CS	k		I	
@tropicaldrewz	NPP	@JohnDoe612	B-PERS		
8	ADJ	8			
h	NC	h			
					
-LT-/META-GT-	META	-LT-/META-GT-			
					
aujourd'_hui	ADV-MOD	aujourd'_hui			
y	YM	y			
'	YM	'			
a	CLS+CLO+V-SUJ	a			
l'	DET	l'			
épisode	NC	épisode			
de	P	de			
teen	NPP	teen	B-OTH:MOVIE		
wolf	NPP	wolf	I-OTH:MOVIE		
en	P	en			
vostfr	NC	vostfr			
shzbjfnzpb	ET	shzbjfnzpb			
					
-LT-META-GT-	META	-LT-META-GT-			
					
etc.	ADV	etc.			
@yaakkkm_	NPP	@JohnDoe613	B-PERS		
8	ADJ	8			
h	NC	h			
					
-LT-/META-GT-	META	-LT-/META-GT-			
					
Tyler	NPP	Tyler	B-PERS		
Posey	NPP	Posey	I-PERS		
kiff	V	kiff			
teen	NPP	teen	B-OTH:MOVIE		
wolf	NPP	wolf	I-OTH:MOVIE		
,	PONCT	,			
j'	CLS-SUJ	j'			
ai	V	ai			
envie	NC	envie			
de	P	de			
dire	VINF	dire			
heureusement	ADV	heureusement			
coco	NC	coco			
.	PONCT	.			
					
-LT-META-GT-	META	-LT-META-GT-			
					
Drunk	ET	Drunk			
@HeIsMySoulmates	NPP	@JohnDoe614	B-PERS		
8	DET	8			
h	NC	h			
					
-LT-/META-GT-	META	-LT-/META-GT-			
					
Quand	CS	Quand			
je	CLS-SUJ	je			
rentre	V	rentre			
,	PONCT	,			
je	CLS-SUJ	je			
regarde	V	regarde			
Private	NPP	Private	B-OTH:MOVIE		
Practice	NPP	Practice	I-OTH:MOVIE		
et	CC	et			
ensuite	ADV	ensuite			
Teen	NPP	Teen	B-OTH:MOVIE		
Wolf	NPP	Wolf	I-OTH:MOVIE		
.	PONCT	.			
					
-LT-META-GT-	META	-LT-META-GT-			
					
Teen	NC	Teen	B-ORG	NPP	
Wolf	NPP	Wolf	I-ORG		
France	NPP	France	I-ORG		
@TeenWolf_FR	NPP	@TeenWolf_FR	B-ORG		
8	ADJ	8			
h	NC	h			
					
-LT-/META-GT-	META	-LT-/META-GT-			
					
Bonjour	NC	Bonjour			
à	P	à			
tous	PRO	tous			
!	PONCT	!			
					
Bonne	ADJ	Bonne			
journée	NC	journée			
!	PONCT	!			
:-RRB-	I	:-RRB-			
					
-LT-META-GT-	META	-LT-META-GT-			
					
Lou	NPP	Cllaude483	B-PERS		
'	PONCT	'	I-PERS		
Jefferson	NPP	Bidule483	I-PERS		
@Faust_Arp_	NPP	@CllaudeBidule483	B-PERS		
8	ADJ	8			
h	NC	h			
					
-LT-/META-GT-	META	-LT-/META-GT-			
					
Alors	ADV	Alors			
là	ADV	là			
mon	DET	mon			
gars	NC	gars			
,	PONCT	,			
#teenwolf	HT	#teenwolf	B-OTH:MOVIE		
#muffin	HT	#muffin			
et	CC	et			
The	NC	The			
à	P	à			
la	DET	la			
pomme	NC	pomme			
.	PONCT	.			
La	DET	La			
vie	NC	vie			
un_peu	ADV	un_peu			
.	PONCT	.			
					
-LT-META-GT-	META	-LT-META-GT-			
					
Sandy	NPP	Cllaude484	B-PERS		
Walter	NPP	Bidule484	I-PERS		
@NegresseA	NPP	@CllaudeBidule484	B-PERS		
8	ADJ	8			
h	NC	h			
					
-LT-/META-GT-	META	-LT-/META-GT-			
					
La	DET	La			
curiosité	NC	curiosité			
ça	PRO	ça			
tue	V	tue			
deh	I	deh			
!	PONCT	!			
Sans	P	Sans			
faire	VINF	faire			
exprès	ADV-MOD	exprès			
j'	CLS-SUJ	j'			
ai	V	ai			
vu	VPP	vu			
la	DET	la			
suite	NC	suite			
des	P+D	des			
épisodes	NC	épisodes			
de	P	de			
#TeenWolf	HT	#TeenWolf	B-OTH:MOVIE		
sans	P	sans			
voir	VINF	voir			
les	DET	les			
précédentes	ADJ	précédentes			
😓😢😨😭	I	😓😢😨😭			
					
-LT-META-GT-	META	-LT-META-GT-			
					
Zina	NPP	JohnDoe616	B-PERS		
@ziinziin	NPP	@JohnDoe616	B-PERS		
8	ADJ	8			
h	NC	h			
					
-LT-/META-GT-	META	-LT-/META-GT-			
					
Je	CLS-SUJ	Je			
me	CLR	me			
lève	V	lève			
je	CLS-SUJ	je			
vois	V	vois			
Stiles	NPP	Stiles	B-PERS		
en	P	en			
TT	NC	TT			
...	PONCT	...			
Je	CLS-SUJ	Je			
reste	V	reste			
dans	P	dans			
mon	DET	mon			
lit	NC	lit			
et	CC	et			
je	CLS-SUJ	je			
regarde	V	regarde			
Teen	NPP	Teen	B-OTH:MOVIE		
Wolf	NPP	Wolf	I-OTH:MOVIE		
au_lieu_d'	P	au_lieu_d'			
aller	VINF	aller			
faire	VINF	faire			
le	DET	le			
ménage	NC	ménage			
hein	I	hein			
!	PONCT	!			
					
-LT-META-GT-	META	-LT-META-GT-			
					
Jennifer	NPP	JohnDoe618	B-PERS		
@Jenny_Salvatore	NPP	@JohnDoe618	B-PERS		
8	ADJ	8			
h	NC	h			
					
-LT-/META-GT-	META	-LT-/META-GT-			
					
la	DET	la			
dernière	ADJ	dernière			
fois	NC	fois			
que	CS	que			
j'	CLS-SUJ	j'			
ai	V	ai			
enchainé	VPP	enchainé			
une	DET	une			
série	NC	série			
comme	P	comme			
ça	PRO	ça			
c'	CLS-SUJ	c'			
était	V	était			
Suits	NPP	Suits	B-OTH:MOVIE		
,	PONCT	,			
et	CC	et			
avant	ADV-MOD	avant			
c'	CLS-SUJ	c'			
était	V	était			
teen	NPP	teen	B-OTH:MOVIE		
wolf	NPP	wolf	I-OTH:MOVIE		
en	YM	en			
fait	ADV-MOD	fait			
#TWD	HT	#TWD			
					
-LT-META-GT-	META	-LT-META-GT-			
					
broken	ET	broken			
@Lili95Jamila	NPP	@JohnDoe619	B-PERS		
8	DET	8			
h	NC	h			
					
-LT-/META-GT-	META	-LT-/META-GT-			
					
Après	ADV-MOD	Après			
viendra	V	viendra			
le	DET	le			
tour	NC	tour			
de	P	de			
teen	NPP	teen	B-OTH:MOVIE		
wolf	NPP	wolf	I-OTH:MOVIE		
,	PONCT	,			
puis	CC	puis			
après	ADV-MOD	après			
il	CLS-SUJ	il			
me	CLO-A_OBJ	me			
reste	V	reste			
grimm	NPP	grimm	B-OTH:MOVIE		
et	CC	et			
grey	NPP	grey	B-OTH:MOVIE		
'	ET	'	I-OTH:MOVIE		
s	ET	s	I-OTH:MOVIE		
anatomy	ET	anatomy	I-OTH:MOVIE		
					
-LT-META-GT-	META	-LT-META-GT-			
					
victoria	NC	JohnDoe620	B-PERS	NPP	
@_thetorro	NPP	@JohnDoe620	B-PERS		
8	ADJ	8			
h	NC	h			
					
-LT-/META-GT-	META	-LT-/META-GT-			
					
@Tommypham09	NPP	@JohnDoe621	B-PERS		
@MTVteenwolf	NPP	@JohnDoe622	B-PERS		
touché	VPP	touché			
tommy	NPP	tommy	B-PERS		
touché	VPP	touché			
					
-LT-META-GT-	META	-LT-META-GT-			
					
dylan	ET	JohnDoe623	B-PERS	NPP	
@ifuckjai	NPP	@JohnDoe623	B-PERS		
8	DET	8			
h	NC	h			
					
-LT-/META-GT-	META	-LT-/META-GT-			
					
je	CLS-SUJ	je			
m'	CLR-OBJ	m'			
en	CLO-DE_OBJ	en			
fou	V	fou			
j'	CLS-SUJ	j'			
vais	V	vais			
quand	YM	quand			
même	ADV-MOD	même			
regarder	VINF	regarder			
teen	NPP	teen	B-OTH:MOVIE		
wolf	NPP	wolf	I-OTH:MOVIE		
					
-LT-META-GT-	META	-LT-META-GT-			
					
ziallerslut	ET	JohnDoe625			
@EiramAnutrof	NPP	@JohnDoe625	B-PERS		
8	DET	8			
h	NC	h			
					
-LT-/META-GT-	META	-LT-/META-GT-			
					
Dès	P	Dès			
le	DET	le			
matin	NC	matin			
il_y_a	CLS+CLO+V-SUJ	il_y_a			
des	DET	des			
spoils	NC	spoils			
de	P	de			
teen	NPP	teen	B-OTH:MOVIE		
wolf	NPP	wolf	I-OTH:MOVIE		
.	PONCT	.			
Wesh	I	Wesh			
calmez	VIMP	calmez			
vous	CLR	vous			
					
-LT-META-GT-	META	-LT-META-GT-			
					
Mariane	NPP	JohnDoe626	B-PERS		
@MPeaace_	NPP	@JohnDoe626	B-PERS		
8	ADJ	8			
h	NC	h			
					
-LT-/META-GT-	META	-LT-/META-GT-			
					
Et	CC	Et			
là	ADV-MOD	là			
je	CLS-SUJ	je			
vois	V	vois			
les	DET	les			
tweets	NC	tweets			
de	P	de			
Teen	NPP	Teen	B-OTH:MOVIE		
Wolf	NPP	Wolf	I-OTH:MOVIE		
et	CC	et			
moi	PRO	moi			
je	CLS-SUJ	je			
suis	V	suis			
à	P	à			
l'	DET	l'			
internat	NC	internat			
!	PONCT	!			
					
-LT-META-GT-	META	-LT-META-GT-			
					
India	NPP	India	B-LOC		
l'	DET	l'			
Eclipse	NPP	Eclipse		NC	
@lEclipseIndia	NPP	@JohnDoe627	B-PERS		
8	ADJ	8			
h	NC	h			
					
-LT-/META-GT-	META	-LT-/META-GT-			
					
Bon	I	Bon			
Tyler	NPP	Tyler	B-PERS		
qui	PROREL	qui			
dit	V	dit			
a	P	a			
un	DET	un			
acteur	NC	acteur			
de	P	de			
la	DET	la			
saison	NC	saison			
4	ADJ	4			
"	PONCT	"			
see	ET	see			
you	ET	you			
soon	ET	soon			
"	PONCT	"			
c'	CLS-SUJ	c'			
est	V	est			
de	P	de			
bonne	ADJ	bonne			
augure	NC	augure			
pour	P	pour			
son	DET	son			
Perso	NC	Perso			
na	ADV-MOD	na			
?	PONCT	?			
#TeenWolf	HT	#TeenWolf	B-OTH:MOVIE		
					
-LT-META-GT-	META	-LT-META-GT-			
					
∆mandine	ET	JohnDoe628	B-PERS	NPP	
@Amandemma	NPP	@JohnDoe628	B-PERS		
8	DET	8			
h	NC	h			
					
-LT-/META-GT-	META	-LT-/META-GT-			
					
Le	DET	Le			
défi	NC	défi			
du	P+D	du			
mardi	NC	mardi			
:	PONCT	:			
éviter	VINF	éviter			
tous	ADJ	tous			
les	DET	les			
tweets	NC	tweets			
en	P	en			
rapport	NC	rapport			
avec	P	avec			
Teen	NPP	Teen	B-OTH:MOVIE		
Wolf	NPP	Wolf	I-OTH:MOVIE		
.	PONCT	.			
					
-LT-META-GT-	META	-LT-META-GT-			
					
Mocking	NPP	Mocking		ET	
Jay	NPP	Jay		ET	
@Antoine_Criss	NPP	@JohnDoe629	B-PERS		
8	ADJ	8			
h	NC	h			
					
-LT-/META-GT-	META	-LT-/META-GT-			
					
Les	DET	Les			
acteurs	NC	acteurs			
qui	PROREL	qui			
live	ET	live			
tweet	V	tweet			
l'	DET	l'			
épisode	NC	épisode			
pendant_que	CS	pendant_que			
moi	PRO	moi			
je	CLS-SUJ	je			
vais	V	vais			
au	P+D	au			
lycée	NC	lycée			
-LT-	I	-LT-			
-LT-	I	-LT-			
-LT-	I	-LT-			
-LT-	I	-LT-			
-LT-	I	-LT-			
-LT-	I	-LT-			
#TeenWolf	HT	#TeenWolf	B-OTH:MOVIE		
					
-LT-META-GT-	META	-LT-META-GT-			
					
Frikiki	ET	JohnDoe64	B-PERS		
@Louuuuuise_	NPP	@JohnDoe64	B-PERS		
9	DET	9			
h	NC	h			
					
-LT-/META-GT-	META	-LT-/META-GT-			
					
Une	DET	Une			
américaine	NC	américaine			
spoil	V	spoil			
à	P	à			
mort	NC	mort			
Teen	NPP	Teen	B-OTH:MOVIE		
Wolf	NPP	Wolf	I-OTH:MOVIE		
là	ADV-MOD	là			
so	ADV-MOD	so			
je	CLS-SUJ	je			
me	CLR	me			
casse	V	casse			
!	PONCT	!			
Bonne	ADJ	Bonne			
journée	NC	journée			
😴	I	😴			
					
-LT-META-GT-	META	-LT-META-GT-			
					
Neverweres	ET	JohnDoe632			
@Neverweres	NPP	@JohnDoe632	B-PERS		
9	DET	9			
h	NC	h			
					
-LT-/META-GT-	META	-LT-/META-GT-			
					
C'	CLS-SUJ	C'			
est	V	est			
bon	ADJ	bon			
.	PONCT	.			
Je	CLS-SUJ	Je			
me	CLR-OBJ	me			
suis	V	suis			
faite	VPP	faite			
spoilée	VINF	spoilée			
sur	P	sur			
Teen	NPP	Teen	B-OTH:MOVIE		
Wolf	NPP	Wolf	I-OTH:MOVIE		
.	PONCT	.			
					
-LT-META-GT-	META	-LT-META-GT-			
					
salvatore	ET	JohnDoe633	B-PERS	NPP	
@Seydaaaaah	NPP	@JohnDoe633	B-PERS		
9	DET	9			
h	NC	h			
					
-LT-/META-GT-	META	-LT-/META-GT-			
					
AUJOURD'_HUI	ADV-MOD	AUJOURD'_HUI			
IL_Y_A	CLS+CLO+V-SUJ	IL_Y_A			
TEEN	NPP	TEEN	B-OTH:MOVIE		
WOLF	NPP	WOLF	I-OTH:MOVIE		
!!!!	PONCT	!!!!			
					
-LT-META-GT-	META	-LT-META-GT-			
					
My	ET	My			
Fault	ET	Fault			
@Layssou_	NPP	@JohnDoe634	B-PERS		
9	DET	9			
h	NC	h			
					
-LT-/META-GT-	META	-LT-/META-GT-			
					
Putain	I	Putain			
faut	V	faut			
que	CS	que			
je	CLS-SUJ	je			
regarde	V	regarde			
la	DET	la			
suite	NC	suite			
de	P	de			
teen	NPP	teen	B-OTH:MOVIE		
wolf	NPP	wolf	I-OTH:MOVIE		
.	PONCT	.			
Et	CC	Et			
le	DET	le			
dernier	ADJ	dernier			
épisode	NC	épisode			
de	P	de			
ahs	NPP	ahs	B-OTH:MOVIE		
.	PONCT	.			
Tellement	ADV	Tellement			
pas	ADV	pas			
le	DET	le			
temps	NC	temps			
..	PONCT	..			
:-LRB-	I	:-LRB-			
					
-LT-META-GT-	META	-LT-META-GT-			
					
Camille	DET	JohnDoe683	B-PERS	NPP	
Δ	ET	Δ	I-PERS		
@FREEEHUGS_	NPP	@JohnDoe683	B-PERS		
9	DET	9			
h	NC	h			
					
-LT-/META-GT-	META	-LT-/META-GT-			
					
J'	CLS-SUJ	J'			
ai	V	ai			
du	P+D	du			
Teen	NPP	Teen	B-OTH:MOVIE		
Wolf	NPP	Wolf	I-OTH:MOVIE		
partout	ADV-MOD	partout			
dans	P	dans			
ma	DET	ma			
télé	NC	télé			
omg	I	omg			
stop	NC	stop			
stop	NC	stop			
je	CLS-SUJ	je			
vais	V	vais			
pas	ADV-MOD	pas			
survivre	VINF	survivre			
					
-LT-META-GT-	META	-LT-META-GT-			
					
Irène	NPP	JohnDoe637	B-PERS		
†	ET	†	I-PERS	I	
@Irainette	NPP	@JohnDoe637	B-PERS		
9	DET	9			
h	NC	h			
					
-LT-/META-GT-	META	-LT-/META-GT-			
					
Tous	ADJ	Tous			
les	DET	les			
américain	NC	américain			
raconte	V	raconte			
l'	DET	l'			
épisode	NC	épisode			
.	PONCT	.			
NOOOOON	ADV	NOOOOON			
!!	PONCT	!!			
#TeenWolf	HT	#TeenWolf	B-OTH:MOVIE		
					
-LT-META-GT-	META	-LT-META-GT-			
					
Fucking	ET	Fucking			
school	ET	school			
@Crazyyment	NPP	@JohnDoe639	B-PERS		
9	DET	9			
h	NC	h			
					
-LT-/META-GT-	META	-LT-/META-GT-			
					
Oh	I	Oh			
yeees	ADV	yeees			
ce	DET	ce			
soir	NC	soir			
teen	NPP	teen	B-OTH:MOVIE		
wolf	NPP	wolf	I-OTH:MOVIE		
!	PONCT	!			
Desuite	P+NC	Desuite			
ça	PRO	ça			
me	CLO-OBJ	me			
motive	V	motive			
un_peu_plus	ADV-MOD	un_peu_plus			
!	PONCT	!			
#lastRT	HT	#lastRT			
					
-LT-META-GT-	META	-LT-META-GT-			
					
THX	NC	THX			
AUSTIN	P	AUSTIN			
X2AND	DET	X2AND			
ROB	NC	ROB			
@HakuunaMatata	NPP	@JohnDoe640	B-PERS		
9	ADJ	9			
h	NC	h			
					
-LT-/META-GT-	META	-LT-/META-GT-			
					
Ce	DET	Ce			
matin	NC	matin			
dans	P	dans			
ma	DET	ma			
tl	NC	tl			
y	CLS+CLO-SUJ	y			
avait	V	avait			
que	ADV-MOD	que			
moi	PRO	moi			
et	CC	et			
@feelmyaustin	NPP	@JohnDoe641	B-PERS		
à	P	à			
spammer	VINF	spammer			
désespérément	ADV-MOD	désespérément			
tout	ADJ	tout			
le	DET	le			
monde	NC	monde			
regardait	VIMP	regardait			
teen	NPP	teen	B-OTH:MOVIE		
Wolf	NPP	Wolf	I-OTH:MOVIE		
MDRR	I	MDRR			
					
-LT-META-GT-	META	-LT-META-GT-			
					
EVA	P	EVA	B-PERS		
@whtevans	NPP	@JohnDoe642	B-PERS		
9	ADJ	9			
h	NC	h			
					
-LT-/META-GT-	META	-LT-/META-GT-			
					
JSUIS	CLS+V-SUJ	JSUIS			
EN_TRAIN_DE	P	EN_TRAIN_DE			
ME	CLR-OBJ	ME			
FAIRE	VINF	FAIRE			
SPOILER	VINF	SPOILER			
TEEN	NPP	TEEN	B-OTH:MOVIE		
WOLF	NPP	WOLF	I-OTH:MOVIE		
LES	DET	LES			
PDS	NC	PDS			
LA	ADV-MOD	LA			
STOP	NC	STOP			
					
-LT-META-GT-	META	-LT-META-GT-			
					
stilinski	ET	JohnDoe644	B-PERS		
24	ADJ	JohnDoe644_2	I-PERS		
.	PONCT	.	I-PERS		
@crushdobrev	NPP	@JohnDoe644	B-PERS		
9	ADJ	9			
h	NC	h			
					
-LT-/META-GT-	META	-LT-/META-GT-			
					
OHHHH	I	OHHHH			
,	PONCT	,			
JE	CLS-SUJ	JE			
VAIS	V	VAIS			
METTRE	VINF	METTRE			
MON	DET	MON			
TEE-SHIRT	NC	TEE-SHIRT			
TEEN	NPP	TEEN	B-OTH:MOVIE		
WOLF	NPP	WOLF	I-OTH:MOVIE		
POUR	P	POUR			
ME	CLR-OBJ	ME			
MOTIVER	VINF	MOTIVER			
.	PONCT	.			
GO	V	GO			
,	PONCT	,			
GO	V	GO			
.	PONCT	.			
					
-LT-META-GT-	META	-LT-META-GT-			
					
Mouton	NPP	Mouton	B-PERS	NC	
Unijambiste	ET	Unijambiste	I-PERS	ADJ	
@iTakeFabuLouis	NPP	@JohnDoe645	B-PERS		
9	DET	9			
h	NC	h			
					
-LT-/META-GT-	META	-LT-/META-GT-			
					
Teen	NPP	Teen	B-OTH:MOVIE		
Wolf	NPP	Wolf	I-OTH:MOVIE		
j'	CLS-SUJ	j'			
ai	V	ai			
essayer	VPP	essayer			
3	DET	3			
fois	NC	fois			
.	PONCT	.			
J'	CLS-SUJ	J'			
ai	V	ai			
jamais	ADV-MOD	jamais			
dépasser	VPP	dépasser			
l'	DET	l'			
épisode	NC	épisode			
1	ADJ	1			
					
-LT-META-GT-	META	-LT-META-GT-			
					
Blow	ET	Blow			
your	ET	your			
dreams	ET	dreams			
@IHaveAWand	NPP	@JohnDoe646	B-PERS		
9	DET	9			
h	NC	h			
					
-LT-/META-GT-	META	-LT-/META-GT-			
					
Ma	DET	Ma			
tl	NC	tl			
est	V	est			
pleine	ADJ	pleine			
de	P	de			
spoilers	NC	spoilers			
sur	P	sur			
teen	NPP	teen	B-OTH:MOVIE		
Wolf	NPP	Wolf	I-OTH:MOVIE		
vous	CLS-SUJ	vous			
voulez	V	voulez			
que	CS	que			
je	CLS-SUJ	je			
vous	CLO-A_OBJ	vous			
arrache	V	arrache			
la	DET	la			
tête	NC	tête			
?	PONCT	?			
					
-LT-META-GT-	META	-LT-META-GT-			
					
@passharold	NPP	@JohnDoe589	B-PERS		
9	DET	9			
h	NC	h			
					
-LT-/META-GT-	META	-LT-/META-GT-			
					
je	CLS-SUJ	je			
veux	V	veux			
trop	ADV-MOD	trop			
savoir	VINF	savoir			
ce	PRO	ce			
qu'	PROREL	qu'			
il	CLS-SUJ	il			
se	CLR	se			
passe	V	passe			
dans	P	dans			
teen	NPP	teen	B-OTH:MOVIE		
wolf	NPP	wolf	I-OTH:MOVIE		
la	ADV-MOD	la			
					
-LT-META-GT-	META	-LT-META-GT-			
					
lucile	ET	JohnDoe647	B-PERS		
♡	ET	♡	I-PERS		
@Petit_Luu	NPP	@JohnDoe647	B-PERS		
9	DET	9			
h	NC	h			
					
-LT-/META-GT-	META	-LT-/META-GT-			
					
Ok	ADV-MOD	Ok			
je	CLS-SUJ	je			
vais	V	vais			
me	CLR-OBJ	me			
préparer	VINF	préparer			
et	CC	et			
j'	CLS-SUJ	j'			
arrête	V	arrête			
Twitter	NPP	Twitter	B-ORG		
ce	DET	ce			
matin	NC	matin			
parce_que	CS	parce_que			
ça	PRO	ça			
spoil	V	spoil			
teen	NPP	teen	B-OTH:MOVIE		
wolf	NPP	wolf	I-OTH:MOVIE		
					
-LT-META-GT-	META	-LT-META-GT-			
					
155204	DET	JohnDoe648			
@httpsterek_	NPP	@JohnDoe648	B-PERS		
9	ADJ	9			
h	NC	h			
					
-LT-/META-GT-	META	-LT-/META-GT-			
					
j'	CLS-SUJ	j'			
ai	V	ai			
pas_encore	ADV-MOD	pas_encore			
vu	VPP	vu			
l'	DET	l'			
épisode	NC	épisode			
d'	P	d'			
hier	ADV	hier			
donc	ADV-MOD	donc			
bon	ADJ	bon			
#TeenWolf	HT	#TeenWolf	B-OTH:MOVIE		
					
-LT-META-GT-	META	-LT-META-GT-			
					
dobreva	ET	JohnDoe544	B-PERS		
@cyruscup	NPP	@JohnDoe544	B-PERS		
9	DET	9			
h	NC	h			
					
-LT-/META-GT-	META	-LT-/META-GT-			
					
Le	DET	Le			
seul	ADJ	seul			
et	CC	et			
unique	ADJ	unique			
point	NC	point			
positif	ADJ	positif			
du	P+D	du			
mardi	NC	mardi			
c'	CLS-SUJ	c'			
est	V	est			
que	CS	que			
le	DET	le			
soir	NC	soir			
je	CLS-SUJ	je			
regarde	V	regarde			
Teen	NPP	Teen	B-OTH:MOVIE		
wolf	NPP	wolf	I-OTH:MOVIE		
					
-LT-META-GT-	META	-LT-META-GT-			
					
Ⅺ	ET	JohnDoe650			
@Bi_Scott	NPP	@JohnDoe650	B-PERS		
9	DET	9			
h	NC	h			
					
-LT-/META-GT-	META	-LT-/META-GT-			
					
Ce	DET	Ce			
matin	NC	matin			
je	CLS-SUJ	je			
faisais	V	faisais			
un	DET	un			
rêve	NC	rêve			
dans	P	dans			
un	DET	un			
autre	ADJ	autre			
rêve	NC	rêve			
que	CS	que			
j'	CLS-SUJ	j'			
étais	V	étais			
réveillée	VPP	réveillée			
trop	ADV	trop			
bizarre	ADJ	bizarre			
quand	CS	quand			
j'	CLS-SUJ	j'			
ai	V	ai			
entendu	VPP	entendu			
mon	DET	mon			
réveil	NC	réveil			
Ca	PRO	Ca			
m'	CLO-A_OBJ	m'			
a	V	a			
fait	VPP	fait			
pensé	VINF	pensé			
à	P	à			
Teenwolf	NPP	Teenwolf	B-OTH:MOVIE		
					
-LT-META-GT-	META	-LT-META-GT-			
					
HoechlinBohen	ET	JohnDoe651			
@Nanytrp	NPP	@JohnDoe651	B-PERS		
9	DET	9			
h	NC	h			
					
-LT-/META-GT-	META	-LT-/META-GT-			
					
Mardi	NC	Mardi			
soir	NC	soir			
=	V	=			
Teen	NPP	Teen	B-OTH:MOVIE		
Wolf	NPP	Wolf	I-OTH:MOVIE		
=	V	=			
vite	ADV-MOD	vite			
que	CS	que			
la	DET	la			
journée	NC	journée			
se	CLR	se			
termine	V	termine			
					
-LT-META-GT-	META	-LT-META-GT-			
					
~Hook	NPP	~Hook	B-PERS		
,	PONCT	,			
Killian	NPP	Killian	B-PERS		
*_*♥~	ET	*_*♥~			
@ClemSethou	NPP	@JohnDoe652	B-PERS		
9	DET	9			
h	NC	h			
					
-LT-/META-GT-	META	-LT-/META-GT-			
					
J'	CLS-SUJ	J'			
ai	V	ai			
trop	ADV-MOD	trop			
hate	V	hate			
de	P	de			
voir	VINF	voir			
ce	DET	ce			
soir	NC	soir			
l'	DET	l'			
épisode	NC	épisode			
de	P	de			
Teen	NPP	Teen	B-OTH:MOVIE		
Wolf	NPP	Wolf	I-OTH:MOVIE		
en	P	en			
France	NPP	France	B-LOC		
!!!	PONCT	!!!			
Avec	P	Avec			
mes	DET	mes			
magnifiques	ADJ	magnifiques			
jumeaux	NC	jumeaux			
Aiden	NPP	Aiden	B-PERS		
et	CC	et			
Ethan	NPP	Ethan	B-PERS		
@maxcarver	NPP	@maxcarver	B-PERS		
@Charlie_Carver	NPP	@Charlie_Carver	B-PERS		
♥	I	♥			
					
-LT-META-GT-	META	-LT-META-GT-			
					
breezy	ET	breezy			
@wolfiefenty	NPP	@JohnDoe653	B-PERS		
9	DET	9			
h	NC	h			
					
-LT-/META-GT-	META	-LT-/META-GT-			
					
arretez	VIMP	arretez			
de	P	de			
parler	VINF	parler			
de	P	de			
teen	NPP	teen	B-OTH:MOVIE		
wolf	NPP	wolf	I-OTH:MOVIE		
svp	I	svp			
:-LRB--LRB--LRB--LRB--LRB--LRB--LRB--LRB--LRB--LRB--LRB--LRB--LRB--LRB--LRB--LRB--LRB--LRB--LRB--LRB--LRB--LRB--LRB--LRB--LRB--LRB--LRB--LRB--LRB--LRB--LRB--LRB--LRB--LRB--LRB--LRB--LRB--LRB--LRB--LRB--LRB--LRB--LRB--LRB--LRB--LRB--LRB--LRB--LRB--LRB--LR	I	:-LRB--LRB--LRB--LRB--LRB--LRB--LRB--LRB--LRB--LRB--LRB--LRB--LRB--LRB--LRB--LRB--LRB--LRB--LRB--LRB--LRB--LRB--LRB--LRB--LRB--LRB--LRB--LRB--LRB--LRB--LRB--LRB--LRB--LRB--LRB--LRB--LRB--LRB--LRB--LRB--LRB--LRB--LRB--LRB--LRB--LRB--LRB--LRB--LRB--LRB--LR			
B--LRB--LRB--LRB--LRB--LRB--LRB--LRB--LRB--LRB--LRB--LRB--LRB--LRB--LRB--LRB--LRB--LRB--LRB--LRB--LRB--LRB--LRB--LRB--LRB--LRB--LRB--LRB--LRB--LRB--LRB--LRB--LRB--LRB--LRB--LRB--LRB--LRB--LRB--LRB--LRB--LRB--LRB--LRB--LRB--LRB--LRB--LRB-	I	B--LRB--LRB--LRB--LRB--LRB--LRB--LRB--LRB--LRB--LRB--LRB--LRB--LRB--LRB--LRB--LRB--LRB--LRB--LRB--LRB--LRB--LRB--LRB--LRB--LRB--LRB--LRB--LRB--LRB--LRB--LRB--LRB--LRB--LRB--LRB--LRB--LRB--LRB--LRB--LRB--LRB--LRB--LRB--LRB--LRB--LRB--LRB-			
					
-LT-META-GT-	META	-LT-META-GT-			
					
Justin	NPP	JohnDoe590	B-PERS		
@lovatizayn	NPP	@JohnDoe590	B-PERS		
9	ADJ	9			
h	NC	h			
					
-LT-/META-GT-	META	-LT-/META-GT-			
					
je	CLS-SUJ	je			
finis	V	finis			
a	P	a			
9h50	NC	9h50			
tranquille	ADJ	tranquille			
et	CC	et			
quand	CS	quand			
je	CLS-SUJ	je			
rentre	V	rentre			
goo	V	goo			
regarder	VINF	regarder			
teen	NPP	teen	B-OTH:MOVIE		
wolf	NPP	wolf	I-OTH:MOVIE		
					
-LT-META-GT-	META	-LT-META-GT-			
					
Mélaиiie	NPP	JohnDoe655	B-PERS		
@WolfiePack_	NPP	@JohnDoe655	B-PERS		
9	ADJ	9			
h	NC	h			
					
-LT-/META-GT-	META	-LT-/META-GT-			
					
J'	CLS-SUJ	J'			
aime	V	aime			
le	DET	le			
Mardi	NC	Mardi			
,	PONCT	,			
#TeenWolf	HT	#TeenWolf	B-OTH:MOVIE		
rend	V	rend			
cette	DET	cette			
journée	NC	journée			
jolie	ADJ	jolie			
!	PONCT	!			
					
-LT-META-GT-	META	-LT-META-GT-			
					
okay	ADJ	okay			
?	PONCT	?			
okay	ADJ	okay			
.	PONCT	.			
@_harrily	NPP	@JohnDoe656	B-PERS		
9	ADJ	9			
h	NC	h			
					
-LT-/META-GT-	META	-LT-/META-GT-			
					
Aujourd'_hui	ADV-MOD	Aujourd'_hui			
c'	CLS-SUJ	c'			
est	V	est			
...	PONCT	...			
...	PONCT	...			
.	PONCT	.			
TEEN	NPP	TEEN	B-OTH:MOVIE		
WOOOOOOOLF	NPP	WOOOOOOOLF	I-OTH:MOVIE		
#TeenWolf	HT	#TeenWolf	B-OTH:MOVIE		
					
-LT-META-GT-	META	-LT-META-GT-			
					
@passharold	NPP	@JohnDoe589	B-PERS		
9	DET	9			
h	NC	h			
					
-LT-/META-GT-	META	-LT-/META-GT-			
					
ma	DET	ma			
motivation	NC	motivation			
c'	CLS-SUJ	c'			
est	V	est			
que	CS	que			
ce	DET	ce			
soir	NC	soir			
ya	CLS+CLO+V-SUJ	ya			
l'	DET	l'			
épisode	NC	épisode			
de	P	de			
teen	NPP	teen	B-OTH:MOVIE		
wolf	NPP	wolf	I-OTH:MOVIE		
✌️😍	I	✌️😍			
					
-LT-META-GT-	META	-LT-META-GT-			
					
Caroline	NPP	JohnDoe657	B-PERS		
A	NC	A	I-PERS		
.	PONCT	.	I-PERS		
♔	ET	♔			
@Carolineaid	NPP	@JohnDoe657	B-PERS		
9	DET	9			
h	NC	h			
					
-LT-/META-GT-	META	-LT-/META-GT-			
					
Twitter	NPP	Twitter	B-ORG		
me	CLO-OBJ	me			
fait	V	fait			
culpabiliser	VINF	culpabiliser			
...	PONCT	...			
Il	CLS-SUJ	Il			
faut	V	faut			
vraiment	ADV-MOD	vraiment			
que	CS	que			
je	CLS-SUJ	je			
regarde	V	regarde			
Teen	NPP	Teen	B-OTH:MOVIE		
Wolf	NPP	Wolf	I-OTH:MOVIE		
.	PONCT	.			
					
-LT-META-GT-	META	-LT-META-GT-			
					
Harry	NPP	Harry	B-PERS		
@dats_styles	NPP	@JohnDoe658	B-PERS		
9	ADJ	9			
h	NC	h			
					
-LT-/META-GT-	META	-LT-/META-GT-			
					
ce	DET	ce			
soir	NC	soir			
il	CLS-SUJ	il			
me	CLO-A_OBJ	me			
semble	V	semble			
que	CS	que			
je	CLS-SUJ	je			
rentre	V	rentre			
tard	ADV-MOD	tard			
chez	P	chez			
moi	PRO	moi			
mais	CC	mais			
tant	YM	tant			
pis	ADV-MOD	pis			
je	CLS-SUJ	je			
regarderai	V	regarderai			
quand	YM	quand			
même	ADV-MOD	même			
teen	NPP	teen	B-OTH:MOVIE		
wolf	NPP	wolf	I-OTH:MOVIE		
j'	CLS-SUJ	j'			
ai	V	ai			
attendu	VPP	attendu			
toute	ADJ	toute			
la	DET	la			
semaine	NC	semaine			
ew	I	ew			
					
-LT-META-GT-	META	-LT-META-GT-			
					
Absolution	NC	Absolution			
.	PONCT	.			
@wingsoflarreh	NPP	@JohnDoe659	B-PERS		
9	ADJ	9			
h	NC	h			
					
-LT-/META-GT-	META	-LT-/META-GT-			
					
Je	CLS-SUJ	Je			
dois	V	dois			
attendre	VINF	attendre			
demain	ADV-MOD	demain			
pour	P	pour			
regarder	VINF	regarder			
teen	NPP	teen	B-OTH:MOVIE		
wolf	NPP	wolf	I-OTH:MOVIE		
:-LRB-	I	:-LRB-			
					
-LT-META-GT-	META	-LT-META-GT-			
					
Ophelie	ET	JohnDoe660	B-PERS	NPP	
@OphUne	NPP	@JohnDoe660	B-PERS		
9	DET	9			
h	NC	h			
					
-LT-/META-GT-	META	-LT-/META-GT-			
					
Quand	CS	Quand			
tu	CLS-SUJ	tu			
regarde	V	regarde			
Teen	NPP	Teen	B-OTH:MOVIE		
Wolf	NPP	Wolf	I-OTH:MOVIE		
tu	CLS-SUJ	tu			
prends	V	prends			
40min	DET+NC	40min			
à	P	à			
regarder	VINF	regarder			
l'	DET	l'			
épisode	NC	épisode			
et	CC	et			
4638838min	DET+NC	4638838min			
à	P	à			
y	CLO-A_OBJ	y			
repenser	VINF	repenser			
!	PONCT	!			
					
-LT-META-GT-	META	-LT-META-GT-			
					
le	DET	le			
@howbiebrs	NPP	@JohnDoe661	B-PERS		
9	ADJ	9			
h	NC	h			
					
-LT-/META-GT-	META	-LT-/META-GT-			
					
lançou	P	lançou		ET	
mais	CC	mais		ET	
um	ADV	um		ET	
ep	ADV	ep		ET	
de	P	de		ET	
teen	NPP	teen	B-OTH:MOVIE		
wolf	NPP	wolf	I-OTH:MOVIE		
					
-LT-META-GT-	META	-LT-META-GT-			
					
Kidrauhl	Y	Kidrauhl	B-PERS	NPP	
'	Y	'		ET	
s	ET	s			
Smile	ET	Smile			
.	PONCT	.			
♥	I	♥			
@Oreos_Powers	NPP	@JohnDoe662	B-PERS		
9	DET	9			
h	NC	h			
					
-LT-/META-GT-	META	-LT-/META-GT-			
					
CE	DET	CE			
SOIR	NC	SOIR			
Y	CLS+CLO-SUJ	Y			
A	V	A			
L'	DET	L'			
ÉPISODE	NC	ÉPISODE			
DE	P	DE			
#TeenWolf	HT	#TeenWolf	B-OTH:MOVIE		
OMFGGGGG	I	OMFGGGGG			
					
-LT-META-GT-	META	-LT-META-GT-			
					
Sarah	NPP	JohnDoe663	B-PERS		
@KiwiWolfie	NPP	@JohnDoe663	B-PERS		
9	ADJ	9			
h	NC	h			
					
-LT-/META-GT-	META	-LT-/META-GT-			
					
TEEN	NPP	TEEN	B-OTH:MOVIE		
WOLF	NPP	WOLF	I-OTH:MOVIE		
CE	DET	CE			
SOIIIIIIR	NC	SOIIIIIIR			
!	PONCT	!			
					
-LT-META-GT-	META	-LT-META-GT-			
					
tyler	ET	Cllaude485	B-PERS	NPP	
hoechlin	ET	Bidule485	I-PERS	NPP	
@larrygolote	NPP	@CllaudeBidule485	B-PERS		
9	DET	9			
h	NC	h			

